--Request 
GET https://rcom.dynamicyield.com/userAffinities?limit=10&sec=8776374&uid=-2796735126378358917
Host: rcom.dynamicyield.com
sec-ch-ua: \"Not.A/Brand\";v=\"8\", \"Chromium\";v=\"114\"
sec-ch-ua-mobile: ?0
User-Agent: Mozilla/5.0 (X11; Linux x86_64) AppleWebKit/537.36 (KHTML, like Gecko) Chrome/114.0.0.0 Safari/537.36
sec-ch-ua-platform: \"Linux\"
Accept: */*
Origin: https://www.kohls.com
Sec-Fetch-Site: cross-site
Sec-Fetch-Mode: cors
Sec-Fetch-Dest: empty
Referer: https://www.kohls.com/
Accept-Encoding: gzip, deflate, br
Accept-Language: en-US,en;q=0.9
----
--Response 
HTTP/1.1 200
content-type: application/json; charset=UTF-8
content-length: 441
date: Tue, 21 Nov 2023 07:10:00 GMT
set-cookie: AWSALB=q8bAw1sNIFkH2Zf1cNCrmNiHJBpXp0mCpy+gql38g/8BCxcehXdWZxqUXm98IpBe+Wqo56rBwwbFvIzW9gk/bt+f8t7MnsDWsMiBELWjC/kxhrQW4pwKeCJOzJL/; Expires=Tue, 28 Nov 2023 07:10:00 GMT; Path=/
set-cookie: AWSALBCORS=q8bAw1sNIFkH2Zf1cNCrmNiHJBpXp0mCpy+gql38g/8BCxcehXdWZxqUXm98IpBe+Wqo56rBwwbFvIzW9gk/bt+f8t7MnsDWsMiBELWjC/kxhrQW4pwKeCJOzJL/; Expires=Tue, 28 Nov 2023 07:10:00 GMT; Path=/; SameSite=None; Secure
access-control-allow-origin: *
access-control-allow-methods: GET, POST
access-control-allow-headers: Origin, Accept, Content-Type, X-Requested-With, X-CSRF-Token
timing-allow-origin: *
etag: \"58da21b7ce510d803215582d48c3e13fd814a42d\"
vary: Accept-Encoding
x-cache: Miss from cloudfront
via: 1.1 a239c31f56936d8dde678cf491dbaa28.cloudfront.net (CloudFront)
x-amz-cf-pop: CMH68-P1
x-amz-cf-id: mLATATb_VQ6UQwWppWcWtTDg5sjLRu8cK_jdsM2n5IOmobEQ5Apsaw==
----
--Request 
GET https://async-px.dynamicyield.com/var?cnst=1&_=689375&uid=-2796735126378358917&sec=8776374&t=ri&e=1179251&p=4&ve=11202288&va=%5B26647761%5D&ses=5d0e8cd2dde4c6e754f17773f6a628da&expSes=84609&aud=1408117.1438654.1476022.1899869.1910576.1955486.2029078.2099093.1362540.1362542.1468187&expVisitId=3724873483984187660&mech=1&smech=null&eri=1&tsrc=Direct&reqts=1700550599840&rri=4171247
Host: async-px.dynamicyield.com
sec-ch-ua: \"Not.A/Brand\";v=\"8\", \"Chromium\";v=\"114\"
sec-ch-ua-mobile: ?0
User-Agent: Mozilla/5.0 (X11; Linux x86_64) AppleWebKit/537.36 (KHTML, like Gecko) Chrome/114.0.0.0 Safari/537.36
sec-ch-ua-platform: \"Linux\"
Accept: */*
Origin: https://www.kohls.com
Sec-Fetch-Site: cross-site
Sec-Fetch-Mode: cors
Sec-Fetch-Dest: empty
Referer: https://www.kohls.com/
Accept-Encoding: gzip, deflate, br
Accept-Language: en-US,en;q=0.9
----
--Response 
HTTP/1.1 200
content-length: 0
date: Tue, 21 Nov 2023 07:10:00 GMT
access-control-allow-origin: *
access-control-allow-methods: POST, GET, OPTIONS
access-control-allow-headers: Content-Type, Authorization, Content-Length, X-Requested-With
cache-control: no-cache, no-store, must-revalidate
pragma: no-cache
expires: 0
x-cache: Miss from cloudfront
via: 1.1 03093c003b20d410ed3ec3e4bb2d569c.cloudfront.net (CloudFront)
x-amz-cf-pop: CMH68-P4
x-amz-cf-id: En2x_GnTd9gRkMmE19FnUgAvOI_TRoasxC9wwQmkkRr4S47mFDTqVQ==
----
--Request 
GET https://async-px.dynamicyield.com/var?cnst=1&_=893859&uid=-2796735126378358917&sec=8776374&t=ri&e=1185440&p=4&ve=11002655&va=%5B27022616%5D&ses=5d0e8cd2dde4c6e754f17773f6a628da&expSes=84609&aud=1408117.1438654.1476022.1899869.1910576.1955486.2029078.2099093.1362540.1362542.1468187&expVisitId=3724873484789745617&mech=1&smech=null&eri=1&tsrc=Direct&reqts=1700550599861&rri=8263079
Host: async-px.dynamicyield.com
sec-ch-ua: \"Not.A/Brand\";v=\"8\", \"Chromium\";v=\"114\"
sec-ch-ua-mobile: ?0
User-Agent: Mozilla/5.0 (X11; Linux x86_64) AppleWebKit/537.36 (KHTML, like Gecko) Chrome/114.0.0.0 Safari/537.36
sec-ch-ua-platform: \"Linux\"
Accept: */*
Origin: https://www.kohls.com
Sec-Fetch-Site: cross-site
Sec-Fetch-Mode: cors
Sec-Fetch-Dest: empty
Referer: https://www.kohls.com/
Accept-Encoding: gzip, deflate, br
Accept-Language: en-US,en;q=0.9
----
--Response 
HTTP/1.1 200
content-length: 0
date: Tue, 21 Nov 2023 07:10:00 GMT
access-control-allow-origin: *
access-control-allow-methods: POST, GET, OPTIONS
access-control-allow-headers: Content-Type, Authorization, Content-Length, X-Requested-With
cache-control: no-cache, no-store, must-revalidate
pragma: no-cache
expires: 0
x-cache: Miss from cloudfront
via: 1.1 03093c003b20d410ed3ec3e4bb2d569c.cloudfront.net (CloudFront)
x-amz-cf-pop: CMH68-P4
x-amz-cf-id: ennSQVVGisWkzqrRHoXzcSxExjx4-LxvKJusSZVPu1g2msgiaDR5Gg==
----
--Request 
GET https://async-px.dynamicyield.com/var?cnst=1&_=779549&uid=-2796735126378358917&sec=8776374&t=ri&e=1289933&p=4&ve=11374557&va=%5B27236876%5D&ses=5d0e8cd2dde4c6e754f17773f6a628da&expSes=84609&aud=1408117.1438654.1476022.1899869.1910576.1955486.2029078.2099093.1362540.1362542.1468187&expVisitId=3724873482114156325&mech=1&smech=null&eri=1&tsrc=Direct&reqts=1700550599888&rri=4390853
Host: async-px.dynamicyield.com
sec-ch-ua: \"Not.A/Brand\";v=\"8\", \"Chromium\";v=\"114\"
sec-ch-ua-mobile: ?0
User-Agent: Mozilla/5.0 (X11; Linux x86_64) AppleWebKit/537.36 (KHTML, like Gecko) Chrome/114.0.0.0 Safari/537.36
sec-ch-ua-platform: \"Linux\"
Accept: */*
Origin: https://www.kohls.com
Sec-Fetch-Site: cross-site
Sec-Fetch-Mode: cors
Sec-Fetch-Dest: empty
Referer: https://www.kohls.com/
Accept-Encoding: gzip, deflate, br
Accept-Language: en-US,en;q=0.9
----
--Response 
HTTP/1.1 200
content-length: 0
date: Tue, 21 Nov 2023 07:10:00 GMT
access-control-allow-origin: *
access-control-allow-methods: POST, GET, OPTIONS
access-control-allow-headers: Content-Type, Authorization, Content-Length, X-Requested-With
cache-control: no-cache, no-store, must-revalidate
pragma: no-cache
expires: 0
x-cache: Miss from cloudfront
via: 1.1 03093c003b20d410ed3ec3e4bb2d569c.cloudfront.net (CloudFront)
x-amz-cf-pop: CMH68-P4
x-amz-cf-id: gqcnywjT7QFp_IgVt5L2P95wbfDTH-ABNEEFIzPuANhhnT7S7dtmrA==
----

