--Request 
GET https://cdn.cookielaw.org/consent/6b46b766-dcc4-4c9a-9b89-a14bcc9af38d/5a4ad8b7-972c-4fcf-86fe-379c451cb012/en.json
Host: cdn.cookielaw.org
sec-ch-ua: \"Not.A/Brand\";v=\"8\", \"Chromium\";v=\"114\"
sec-ch-ua-mobile: ?0
User-Agent: Mozilla/5.0 (X11; Linux x86_64) AppleWebKit/537.36 (KHTML, like Gecko) Chrome/114.0.0.0 Safari/537.36
sec-ch-ua-platform: \"Linux\"
Accept: */*
Origin: https://www.kohls.com
Sec-Fetch-Site: cross-site
Sec-Fetch-Mode: cors
Sec-Fetch-Dest: empty
Referer: https://www.kohls.com/
Accept-Encoding: gzip, deflate, br
Accept-Language: en-US,en;q=0.9
----
--Response 
HTTP/1.1 200
date: Tue, 21 Nov 2023 07:08:42 GMT
content-type: application/x-javascript
content-length: 28140
cf-ray: 82971a5b3b153905-YYZ
cf-cache-status: HIT
accept-ranges: bytes
access-control-allow-origin: *
age: 80943
cache-control: public, max-age=86400
content-encoding: gzip
etag: 0x8DBAAFB81BF27F7
expires: Wed, 22 Nov 2023 07:08:42 GMT
last-modified: Fri, 01 Sep 2023 14:55:39 GMT
vary: Accept-Encoding
access-control-expose-headers: x-ms-request-id,Server,x-ms-version,Content-Type,Content-Encoding,Cache-Control,Last-Modified,ETag,Content-MD5,x-ms-lease-status,x-ms-blob-type,Content-Length,Date,Transfer-Encoding
content-md5: ZFqSIe/ABEqooYmKfmGPLQ==
x-content-type-options: nosniff
x-ms-blob-type: BlockBlob
x-ms-lease-status: unlocked
x-ms-request-id: d50e7be0-901e-002d-05e4-dc8af0000000
x-ms-version: 2009-09-19
server: cloudflare
----
--Request 
GET https://www.kohls.com/snb/media/1.0.54/javascript/app/favorites/favorites.products.css
Host: www.kohls.com
sec-ch-ua: \"Not.A/Brand\";v=\"8\", \"Chromium\";v=\"114\"
sec-ch-ua-mobile: ?0
User-Agent: Mozilla/5.0 (X11; Linux x86_64) AppleWebKit/537.36 (KHTML, like Gecko) Chrome/114.0.0.0 Safari/537.36
sec-ch-ua-platform: \"Linux\"
Accept: text/css,*/*;q=0.1
Sec-Fetch-Site: same-origin
Sec-Fetch-Mode: no-cors
Sec-Fetch-Dest: style
Referer: https://www.kohls.com/catalog/womens-sweaters-tops-clothing.jsp?CN=Gender:Womens+Product:Sweaters+Category:Tops+Department:Clothing+Assortment:Kohls%20Black%20Friday&BST=6262123:6237310:6149518:6125449:6149518:6176056:6119381:6438581:6143395:6125326:4922640:6169493&icid=hpmf-BF-offer-womenssweaters-vlhd26&kls_sbp=79613869088917606480426504271561296302
Accept-Encoding: gzip, deflate, br
Accept-Language: en-US,en;q=0.9
Cookie: store_location=14201; akaalb_aem_homepage=~op=aem_production:aem_production|~rv=79~m=aem_production:0|~os=554fb49c1bda6073578f281b62264a0e~id=e5d8d097120eff09512a425189fcc66f; AKA_HP2Redesign=True; AKA_PIQ=True; AKA_ACM=True; AKA_CDP2=True; AKA_STP=false; AKA_PDP2=True; AKA_HP2=True; AKA_CNC2=True; AKA_RV6=12; AKA_RV8=72; AKA_RV4=57; AKA_RV5=23; AKA_RV3=95; AKA_RV=96; AKA_RV2=35; akacd_www-kohls-com-mosaic-p2=2177452799~rv=61~id=f2bfd608ff6bd75e278febb90f5bdcd7; at_check=true; s_ecid=MCMID%7C79613869088917606480426504271561296302; AMCVS_F0EF5E09512D2CD20A490D4D%40AdobeOrg=1; mboxEdgeCluster=35; AMCV_F0EF5E09512D2CD20A490D4D%40AdobeOrg=1585540135%7CMCIDTS%7C19683%7CMCMID%7C79613869088917606480426504271561296302%7CMCAID%7CNONE%7CMCOPTOUT-1700557721s%7CNONE%7CMCAAMLH-1701155321%7C7%7CMCAAMB-1701155321%7Cj8Odv6LonN4r3an7LhD3WZrU1bUpAkFkkiY1ncBR96t2PTI%7CMCSYNCS%7C1083-19690*1085-19690*1086-19690*1087-19690*1088-19690%7CMCSYNCSOP%7C411-19690%7CvVersion%7C4.4.0; rxVisitor=170055052197696JCFOBUP2E8LGBETNI04FF2IPU7PHBL; X-SESSIONID=d38e961d-eee7-4879-8340-ea94827e289a; VisitorId=d38e961d-eee7-4879-8340-ea94827e289a; K_favstore=14216|1306|BUFFALO|geo|sephora; spa=4; _dy_ses_load_seq=84609%3A1700550523022; _dy_csc_ses=t; _dy_c_exps=; gpv_v9=Homepage; s_cc=true; _dycnst=dg; _uetsid=ce3c5ea0883c11ee858a29be7baeeb0f; _uetvid=ce3cb6c0883c11ee9c5d21bc71586f02; fp_client={%22id%22:%2229475071191700550523%22}; fp_session={%22i%22:%2288215330731700550523%22%2C%22d%22:1}; _dyid=-2796735126378358917; _dyfs=1700550523505; _dyjsession=cdc731762c4fbfb825c00a0125c71e79; dy_fs_page=www.kohls.com; _dy_lu_ses=cdc731762c4fbfb825c00a0125c71e79%3A1700550523506; _dycst=dk.l.c.ms.; _dy_geo=US.NA.US_MI.US_MI_Detroit; _dy_df_geo=United%20States.Michigan.Detroit; _dy_toffset=0; _rmt_an_idt=0; _mibhv=anon-1700550524031-5332320748_8212; _cs_c=0; IR_gbd=kohls.com; IR_5349=1700550524310%7C385561%7C1700550524310%7C%7C; _cs_cvars=%7B%221%22%3A%5B%22Page%20Name%22%2C%22Homepage%22%5D%2C%227%22%3A%5B%22Page%20Type%22%2C%22Homepage%22%5D%7D; _cs_id=adc880fd-d93e-ac59-cc5b-3c04e82d2b4b.1700550524.1.1700550524.1700550524.1588866862.1734714524445; IR_PI=cece5d75-883c-11ee-b347-d5b679c63de5%7C1700636924310; _cs_s=1.5.1.1700552324776; _pin_unauth=dWlkPVpEUXlNbU5sWm1JdE1XWmlZaTAwT1RjekxXSTVaakl0TURFNFpEQTJNalJqT0dJNQ; _fbp=fb.1.1700550525180.1119580522; _tt_enable_cookie=1; _ttp=aSHtu_gIQ09zwUi9iOI7iCWyAR-; _scid=1f04d67b-8a21-463f-ac1c-fe88de60033f; _scid_r=1f04d67b-8a21-463f-ac1c-fe88de60033f; _gcl_au=1.1.1181256846.1700550526; _evga_ce07={%22uuid%22:%220e4971bddb246461%22}; _sfid_6ab3={%22anonymousId%22:%220e4971bddb246461%22%2C%22consents%22:[]}; _ga_ZLYRBY87M8=GS1.1.1700550526.1.0.1700550526.60.0.0; __gads=ID=3c394970cb55450f:T=1700550526:RT=1700550526:S=ALNI_MbrJ3X_hGpSImvZMLI5SV9-34drNA; __gpi=UID=00000a00a9f90471:T=1700550526:RT=1700550526:S=ALNI_Ma8ugF9cZmpsonvpd3LpCjHvE5AkQ; _ga=GA1.2.1527107996.1700550526; _gid=GA1.2.1528984642.1700550527; _gat=1; dtCookie=v_4_srv_14_sn_7AE743F52EB51B2E022B722A8C61E6D6_app-3Acf6a6b14e494e621_1_ol_0_perc_100000_mul_1_rcs-3Acss_0; _sctr=1%7C1700546400000; _dpm_ses.f2d1=*; _dpm_id.f2d1=0ef65a2f-e6a7-43f4-a1c7-c0d82ed29395.1700550532.1.1700550532.1700550532.a24e90a1-e57d-4467-afd8-a703310265c8; _li_dcdm_c=.kohls.com; _lc2_fpi=0b10d8358f40--01hfrbbpry1av2w5z5mhth4cen; _lc2_fpi_meta={%22w%22:1700550531870}; _dyid_server=-2796735126378358917; _li_ss=CjYKBQgKEMYWCgYI3QEQxhYKBgiBARDGFgoGCKIBEMYWCgYIiwEQxhYKBgjSARDGFgoFCH4QxhY; _li_ss_meta={%22w%22:1700550532279%2C%22e%22:1703142532279}; _dy_soct=561158.1083346.1700550523*577704.1114257.1700550523*604242.1165732.1700550523*664718.1276830.1700550523*675999.1296928.1700550523*695696.1330231.1700550523*707338.1351316.1700550523*782209.1482111.1700550523*785673.1487461.1700550523*546795.1053981.1700550523*577478.1113986.1700550523*606987.1171916.1700550523*809094.1741367.1700550523*839301.1661807.1700550523*834183.1644438.1700550524*758401.1444085.1700550532; s_sq=kohlscomprod%3D%2526c.%2526a.%2526activitymap.%2526page%253Dhomepage%2526link%253D12%25252074%252520with%25252015%252525%252520off%252520coupon%25252A%252520Sweaters%252520for%252520women%252520and%252520juniors.%252520Select%252520styles.%252520Sale%252520%25252414.99%25252C%252520Reg.%252520%25252430-%25252440.%252520Shop%252520Women%2525E2%252580%252599s%252520%252526%252520Juniors%2525E2%252580%252599%252520Swe%2526region%253Dhp-equity01%2526pageIDType%253D1%2526.activitymap%2526.a%2526.c%2526pid%253DHomepage%2526pidt%253D1%2526oid%253Dhttps%25253A%25252F%25252Fwww.kohls.com%25252Fcatalog%25252Fwomens-sweaters-tops-clothing.jsp%25253FCN%25253DGender%25253AWomens%25252BProduct%25253ASweaters%25252BCa%2526ot%253DA; kls_p=true; 362fd180cb7a77f64919ee892a4d9d35=7191fc42ec960804587d38331d7dd83d; akavpau_www=1700550851~id=019fb5d0fa53935dd3796786ff98ae28; ak_bmsc=721A085A5E4C790A5F04ACCC015E956A~000000000000000000000000000000~YAAQxCkhF2k8luGLAQAAFyi28BU/65NCRHo8nighFmB8o9sHpbd/Hybfl4QCVNDQvTheKAvvXZGBqzia6xAh1uNwWR82Egg4OvsVRPzr2JB4r65yW6aK82WUxfwiZmuw5tjr0H5FdonnqI7pOAGf31XVNXO1yKOyK53QfIznOdRkaOl405VU0ZHbpNOJDjfqCZnqx1xvEJ8JToSqRH3o2qPo8TtS95WGHphlxJ1dJEZM8G1pwhewcyPxYM3X0gj7gRHlRYAbQ3vcsWf2p+Zf0xNLiGrJSbSEPn5vbMADAFjbHXi68G+vifBv9ysaxwBC6xRhcKtb2NMnjBdjRhD5qu3Sa1ld/NxBzWSzGNKcQorTStLLtZIkCAGv+C2dBy/1eAQ38N7m7OBWrRJfUA2cHzdkwMymQwYLGzNHWfLLEXfjv3GVadBZr1QxJXGoXPZmB3poUdBdtsMpoU8n7k2L9vmuBJf7wlo/SOSK/8TeI3yr9ycOHQXppVekIlEXhV4sep01mhWEq7EN8eVMpMqZhw0t8nPrXCWc3304XWeDReEXM0XurBvZHj09AAc3QpdOg0ZNXFRgDNo+WEXhm7U26gYnqdR8F0PPkZN1v7p5/DnYQD3fYVa9Nu8vVw==; bm_sv=E9CC4175A998BE646991AD33CB3A6E5B~YAAQxCkhF2o8luGLAQAAFyi28BXjwdLdaGRAjbVYE3T4xl9i9pm1kgYbuA/Y1O3+Ct0btElOAe7JgVpPFlKODYGjuPbfx8/bJne6eNFxa2v1yd5YP/0YOj8AZSqlP+hR2JNLSd5eb4a+5B981o1JQVoWMjR9sEHWbnpPLCvWeLusqWwW0O/94uBlXxJa+/Sc5IbrsDcY5uKYxJ36upQ0hhih5eU79SCFFAqjhhw6GBIBZv4FH33H4Op+wTvA+Gk=~1; bm_sz=EDE788231412FB1669642DC066D678F4~YAAQxCkhF2s8luGLAQAAFyi28BUsbcQWaMky0JbdYwZ+kK223YeB8J0bLDkW5XkbGnnNQnHLi4RqPStZZcjBZaAf1F3DsboI2vgD1Xkjvf5U1PsqNLk6xZKpL57gc8ktZA4N8WFri6SyLbig52vOn0ZJhcypbT8ec17lSly5t3/XwVYBEhp9y/rLzjoGpO3CxYPpF57aS471C8vJ2XFeCj2h9M4gAhZLYVOAHwjhimFInBDAVeKVqmZRebLVCZ0oKoNoc+lkYjyCfklfYVurasH54Hf2nPN6AjwHd91R9lKc4tUAKy1AvEIlYQq4fYkjTM1i3jZQQI7liqNPwOWZJ15Pd5VqcFlTWElzBTHu4XaFRmOy0Q2eYMBUB4jdSiCBjE3Ls6BmKFN/RFtKyfDn4OLyH4QHnw006zXeDA==~3683376~3617080; PIM-SESSION-ID=KODLNerk0tWEePaQ; mbox=session#cabcdd4927cd4756a91cdbcb38abdfc6#1700552413|PC#cabcdd4927cd4756a91cdbcb38abdfc6.35_0#1763795353; RT=\"z=1&dm=kohls.com&si=ad04a02c-44c5-432e-9df4-90032e6d44c5&ss=lp7zve95&sl=1&tt=9i8&bcn=%2F%2F17de4c12.akstat.io%2F\"; dtSa=-; rxvt=1700552353388|1700550521978; dtPC=14$150553347_964h-vHKACFJCCPMSVWCKACRIACGLNTUQCKJQH-0e0; _abck=CC169C04AF00814B225B42A002C6AB5F~-1~YAAQxCkhF0A9luGLAQAABjC28ApWoPb+lDsP69hpxhq0nLBw4FwEQkXAtJ3WUBUazvVjvA/ewIlBgJlK6CCLrurSSAcw9gMcAIbdQB5s4eJ/wGqjDo8np4YpL6pKatVIiGI1c3M7LB8ZvG5UGF8JK91CJ11cNIeWLo1nDaWGGHh65Vn80B/B3e5KuBZqfnwI6hJA61QCPEmeduj1WgG6f1C+0CYb1+etHTpd4NP91taqsKxNSLc5PS+WqHM2vOmAFGgpv0Ac2yQpOd0bSMBcAqi1ucHAjU/umIvlhV9Te48T134Oml1AywEQjQwv4MK1nCFiRczt4CQ74CYsMsnS8DXsK8m1ATgK48SMZ6jQ+Qfw/awk0dYCIpSNOPHql/+7YPLHl8u6dK212M5uEiWAI0w33/EBEXpbDB8UQ2W9byUw3FK7Zmuu++Y1de/C33ASQ7tT3BzGCn778fWoFP5sRuegmtqM5xAf/imuACWFkMjlRbnqYVkO6Pk5hXBtvCCdwPLk0xUU2+sRRlZL79de8ypN~-1~-1~1700554050
----
--Response 
HTTP/1.1 200
content-type: text/css; charset=UTF-8
accept-ranges: bytes
content-encoding: br
etag: W/\"461-18bcf6ba420\"
last-modified: Wed, 15 Nov 2023 00:18:14 GMT
server: Akamai Resource Optimizer
x-origin-cc: public, max-age=0
x-origin-cc: public, max-age=86400
x-origin-cc: public, max-age=86400
x-origin-cc: public, max-age=86400
x-origin-cc: public, max-age=86400
x-origin-cc: public, max-age=86400
x-origin-ttl: Thu, 16 Nov 2023 00:18:13 GMT
x-origin-ttl: Thu, 16 Nov 2023 00:18:13 GMT
x-origin-ttl: Thu, 16 Nov 2023 00:18:13 GMT
x-origin-ttl: Thu, 16 Nov 2023 00:18:13 GMT
x-origin-ttl: Thu, 16 Nov 2023 00:18:13 GMT
correlation-id: webstore::fd804e1c-04e1-4288-9cf6-96e319f4dc30::1700007483::SNB::snb-ui-7f4d4668-wqtvq::2600:1407:b000:1::17d2:d931
content-length: 346
cache-control: public, max-age=86400
expires: Wed, 22 Nov 2023 07:09:13 GMT
date: Tue, 21 Nov 2023 07:09:13 GMT
set-cookie: _dyid_server=-2796735126378358917; expires=Wed, 20-Nov-2024 07:09:13 GMT; path=/; domain=.kohls.com; secure
set-cookie: _abck=CC169C04AF00814B225B42A002C6AB5F~-1~YAAQxCkhF1I9luGLAQAAETG28ArdTIjMsBlz51l3taV1qr8lmTYhWbmsvnV4IPH5Jzd+iD1WzuZRhUQAMaWOGEJCV2M6V4UtXCBc9ZNK+k6zalouywYQmmUppCIOBoZg1dNG+EvPsSSffXcmAzv5AHYQYntbwcvfl4ZzvufOYtuuKBHuIrSg9zvnkjfjJ2Smy5Hk2dy+NK9ZTSLJvI74lEimAJ/GCgy+sojUlhDMDi5b+8t2U+n00PDRzswIYbOD2mPFPP/Q4aHSSykTPfGEkBfKOegT/XEt9HBveM3u9NdNIGwdqqBnZ8PMtxGYfeP6xFShjZYB8mysxWdgwRBPw9teKUGLuoW3hYf6f+G8dFlNf5dri6I/YKWx5JOKj7me7mNrfcs8uUPTa+XYZ/7RvxtqhrlxJIKfBkp5CrpBrl687H3ING3HxMhh0MWm4wirzUnDhflBKR+Dp8hG+VlTPYY+3z55Qak5sz71IfPnjMYfNYsbGasO/0hgHH6xcjDdrVGKTgvmRUxxclhCqkHXdqfd~-1~-1~1700554050; Domain=.kohls.com; Path=/; Expires=Wed, 20 Nov 2024 07:09:13 GMT; Max-Age=31536000; Secure
server-timing: cdn-cache; desc=HIT
server-timing: edge; dur=1
server-timing: ak_p; desc=\"1700550553844_388049348_666701729_55_27493_14_0_109\";dur=1
strict-transport-security: max-age=15768000 ; preload
----
--Request 
GET https://designsystem.kohls.com/assets/3.18.0/fonts/hfjFonts.css
Host: designsystem.kohls.com
sec-ch-ua: \"Not.A/Brand\";v=\"8\", \"Chromium\";v=\"114\"
sec-ch-ua-mobile: ?0
User-Agent: Mozilla/5.0 (X11; Linux x86_64) AppleWebKit/537.36 (KHTML, like Gecko) Chrome/114.0.0.0 Safari/537.36
sec-ch-ua-platform: \"Linux\"
Accept: text/css,*/*;q=0.1
Sec-Fetch-Site: same-site
Sec-Fetch-Mode: no-cors
Sec-Fetch-Dest: style
Referer: https://www.kohls.com/
Accept-Encoding: gzip, deflate, br
Accept-Language: en-US,en;q=0.9
Cookie: store_location=14201; at_check=true; s_ecid=MCMID%7C79613869088917606480426504271561296302; AMCVS_F0EF5E09512D2CD20A490D4D%40AdobeOrg=1; mboxEdgeCluster=35; AMCV_F0EF5E09512D2CD20A490D4D%40AdobeOrg=1585540135%7CMCIDTS%7C19683%7CMCMID%7C79613869088917606480426504271561296302%7CMCAID%7CNONE%7CMCOPTOUT-1700557721s%7CNONE%7CMCAAMLH-1701155321%7C7%7CMCAAMB-1701155321%7Cj8Odv6LonN4r3an7LhD3WZrU1bUpAkFkkiY1ncBR96t2PTI%7CMCSYNCS%7C1083-19690*1085-19690*1086-19690*1087-19690*1088-19690%7CMCSYNCSOP%7C411-19690%7CvVersion%7C4.4.0; rxVisitor=170055052197696JCFOBUP2E8LGBETNI04FF2IPU7PHBL; _dy_ses_load_seq=84609%3A1700550523022; _dy_csc_ses=t; _dy_c_exps=; gpv_v9=Homepage; s_cc=true; _dycnst=dg; _uetsid=ce3c5ea0883c11ee858a29be7baeeb0f; _uetvid=ce3cb6c0883c11ee9c5d21bc71586f02; _dyid=-2796735126378358917; _dyfs=1700550523505; _dyjsession=cdc731762c4fbfb825c00a0125c71e79; dy_fs_page=www.kohls.com; _dy_lu_ses=cdc731762c4fbfb825c00a0125c71e79%3A1700550523506; _dycst=dk.l.c.ms.; _dy_geo=US.NA.US_MI.US_MI_Detroit; _dy_df_geo=United%20States.Michigan.Detroit; _dy_toffset=0; _rmt_an_idt=0; _cs_c=0; IR_gbd=kohls.com; IR_5349=1700550524310%7C385561%7C1700550524310%7C%7C; _cs_cvars=%7B%221%22%3A%5B%22Page%20Name%22%2C%22Homepage%22%5D%2C%227%22%3A%5B%22Page%20Type%22%2C%22Homepage%22%5D%7D; _cs_id=adc880fd-d93e-ac59-cc5b-3c04e82d2b4b.1700550524.1.1700550524.1700550524.1588866862.1734714524445; IR_PI=cece5d75-883c-11ee-b347-d5b679c63de5%7C1700636924310; _cs_s=1.5.1.1700552324776; _pin_unauth=dWlkPVpEUXlNbU5sWm1JdE1XWmlZaTAwT1RjekxXSTVaakl0TURFNFpEQTJNalJqT0dJNQ; _fbp=fb.1.1700550525180.1119580522; _tt_enable_cookie=1; _ttp=aSHtu_gIQ09zwUi9iOI7iCWyAR-; _scid=1f04d67b-8a21-463f-ac1c-fe88de60033f; _scid_r=1f04d67b-8a21-463f-ac1c-fe88de60033f; _gcl_au=1.1.1181256846.1700550526; _evga_ce07={%22uuid%22:%220e4971bddb246461%22}; _sfid_6ab3={%22anonymousId%22:%220e4971bddb246461%22%2C%22consents%22:[]}; _ga_ZLYRBY87M8=GS1.1.1700550526.1.0.1700550526.60.0.0; __gads=ID=3c394970cb55450f:T=1700550526:RT=1700550526:S=ALNI_MbrJ3X_hGpSImvZMLI5SV9-34drNA; __gpi=UID=00000a00a9f90471:T=1700550526:RT=1700550526:S=ALNI_Ma8ugF9cZmpsonvpd3LpCjHvE5AkQ; _ga=GA1.2.1527107996.1700550526; _gid=GA1.2.1528984642.1700550527; _gat=1; dtCookie=v_4_srv_14_sn_7AE743F52EB51B2E022B722A8C61E6D6_app-3Acf6a6b14e494e621_1_ol_0_perc_100000_mul_1_rcs-3Acss_0; _sctr=1%7C1700546400000; _dpm_ses.f2d1=*; _dpm_id.f2d1=0ef65a2f-e6a7-43f4-a1c7-c0d82ed29395.1700550532.1.1700550532.1700550532.a24e90a1-e57d-4467-afd8-a703310265c8; _li_dcdm_c=.kohls.com; _lc2_fpi=0b10d8358f40--01hfrbbpry1av2w5z5mhth4cen; _lc2_fpi_meta={%22w%22:1700550531870}; _dyid_server=-2796735126378358917; _li_ss=CjYKBQgKEMYWCgYI3QEQxhYKBgiBARDGFgoGCKIBEMYWCgYIiwEQxhYKBgjSARDGFgoFCH4QxhY; _li_ss_meta={%22w%22:1700550532279%2C%22e%22:1703142532279}; _dy_soct=561158.1083346.1700550523*577704.1114257.1700550523*604242.1165732.1700550523*664718.1276830.1700550523*675999.1296928.1700550523*695696.1330231.1700550523*707338.1351316.1700550523*782209.1482111.1700550523*785673.1487461.1700550523*546795.1053981.1700550523*577478.1113986.1700550523*606987.1171916.1700550523*809094.1741367.1700550523*839301.1661807.1700550523*834183.1644438.1700550524*758401.1444085.1700550532; s_sq=kohlscomprod%3D%2526c.%2526a.%2526activitymap.%2526page%253Dhomepage%2526link%253D12%25252074%252520with%25252015%252525%252520off%252520coupon%25252A%252520Sweaters%252520for%252520women%252520and%252520juniors.%252520Select%252520styles.%252520Sale%252520%25252414.99%25252C%252520Reg.%252520%25252430-%25252440.%252520Shop%252520Women%2525E2%252580%252599s%252520%252526%252520Juniors%2525E2%252580%252599%252520Swe%2526region%253Dhp-equity01%2526pageIDType%253D1%2526.activitymap%2526.a%2526.c%2526pid%253DHomepage%2526pidt%253D1%2526oid%253Dhttps%25253A%25252F%25252Fwww.kohls.com%25252Fcatalog%25252Fwomens-sweaters-tops-clothing.jsp%25253FCN%25253DGender%25253AWomens%25252BProduct%25253ASweaters%25252BCa%2526ot%253DA; ak_bmsc=721A085A5E4C790A5F04ACCC015E956A~000000000000000000000000000000~YAAQxCkhF2k8luGLAQAAFyi28BU/65NCRHo8nighFmB8o9sHpbd/Hybfl4QCVNDQvTheKAvvXZGBqzia6xAh1uNwWR82Egg4OvsVRPzr2JB4r65yW6aK82WUxfwiZmuw5tjr0H5FdonnqI7pOAGf31XVNXO1yKOyK53QfIznOdRkaOl405VU0ZHbpNOJDjfqCZnqx1xvEJ8JToSqRH3o2qPo8TtS95WGHphlxJ1dJEZM8G1pwhewcyPxYM3X0gj7gRHlRYAbQ3vcsWf2p+Zf0xNLiGrJSbSEPn5vbMADAFjbHXi68G+vifBv9ysaxwBC6xRhcKtb2NMnjBdjRhD5qu3Sa1ld/NxBzWSzGNKcQorTStLLtZIkCAGv+C2dBy/1eAQ38N7m7OBWrRJfUA2cHzdkwMymQwYLGzNHWfLLEXfjv3GVadBZr1QxJXGoXPZmB3poUdBdtsMpoU8n7k2L9vmuBJf7wlo/SOSK/8TeI3yr9ycOHQXppVekIlEXhV4sep01mhWEq7EN8eVMpMqZhw0t8nPrXCWc3304XWeDReEXM0XurBvZHj09AAc3QpdOg0ZNXFRgDNo+WEXhm7U26gYnqdR8F0PPkZN1v7p5/DnYQD3fYVa9Nu8vVw==; bm_sv=E9CC4175A998BE646991AD33CB3A6E5B~YAAQxCkhF2o8luGLAQAAFyi28BXjwdLdaGRAjbVYE3T4xl9i9pm1kgYbuA/Y1O3+Ct0btElOAe7JgVpPFlKODYGjuPbfx8/bJne6eNFxa2v1yd5YP/0YOj8AZSqlP+hR2JNLSd5eb4a+5B981o1JQVoWMjR9sEHWbnpPLCvWeLusqWwW0O/94uBlXxJa+/Sc5IbrsDcY5uKYxJ36upQ0hhih5eU79SCFFAqjhhw6GBIBZv4FH33H4Op+wTvA+Gk=~1; bm_sz=EDE788231412FB1669642DC066D678F4~YAAQxCkhF2s8luGLAQAAFyi28BUsbcQWaMky0JbdYwZ+kK223YeB8J0bLDkW5XkbGnnNQnHLi4RqPStZZcjBZaAf1F3DsboI2vgD1Xkjvf5U1PsqNLk6xZKpL57gc8ktZA4N8WFri6SyLbig52vOn0ZJhcypbT8ec17lSly5t3/XwVYBEhp9y/rLzjoGpO3CxYPpF57aS471C8vJ2XFeCj2h9M4gAhZLYVOAHwjhimFInBDAVeKVqmZRebLVCZ0oKoNoc+lkYjyCfklfYVurasH54Hf2nPN6AjwHd91R9lKc4tUAKy1AvEIlYQq4fYkjTM1i3jZQQI7liqNPwOWZJ15Pd5VqcFlTWElzBTHu4XaFRmOy0Q2eYMBUB4jdSiCBjE3Ls6BmKFN/RFtKyfDn4OLyH4QHnw006zXeDA==~3683376~3617080; PIM-SESSION-ID=KODLNerk0tWEePaQ; mbox=session#cabcdd4927cd4756a91cdbcb38abdfc6#1700552413|PC#cabcdd4927cd4756a91cdbcb38abdfc6.35_0#1763795353; RT=\"z=1&dm=kohls.com&si=ad04a02c-44c5-432e-9df4-90032e6d44c5&ss=lp7zve95&sl=1&tt=9i8&bcn=%2F%2F17de4c12.akstat.io%2F\"; dtSa=-; rxvt=1700552353388|1700550521978; dtPC=14$150553347_964h-vHKACFJCCPMSVWCKACRIACGLNTUQCKJQH-0e0; _abck=CC169C04AF00814B225B42A002C6AB5F~-1~YAAQxCkhF0A9luGLAQAABjC28ApWoPb+lDsP69hpxhq0nLBw4FwEQkXAtJ3WUBUazvVjvA/ewIlBgJlK6CCLrurSSAcw9gMcAIbdQB5s4eJ/wGqjDo8np4YpL6pKatVIiGI1c3M7LB8ZvG5UGF8JK91CJ11cNIeWLo1nDaWGGHh65Vn80B/B3e5KuBZqfnwI6hJA61QCPEmeduj1WgG6f1C+0CYb1+etHTpd4NP91taqsKxNSLc5PS+WqHM2vOmAFGgpv0Ac2yQpOd0bSMBcAqi1ucHAjU/umIvlhV9Te48T134Oml1AywEQjQwv4MK1nCFiRczt4CQ74CYsMsnS8DXsK8m1ATgK48SMZ6jQ+Qfw/awk0dYCIpSNOPHql/+7YPLHl8u6dK212M5uEiWAI0w33/EBEXpbDB8UQ2W9byUw3FK7Zmuu++Y1de/C33ASQ7tT3BzGCn778fWoFP5sRuegmtqM5xAf/imuACWFkMjlRbnqYVkO6Pk5hXBtvCCdwPLk0xUU2+sRRlZL79de8ypN~-1~-1~1700554050
----
--Response 
HTTP/1.1 200
content-type: text/css
accept-ranges: bytes
content-encoding: br
etag: \"7d3154a261481185ad7fd18076f9aeed:1699885183.464326\"
last-modified: Wed, 15 Nov 2023 04:01:38 GMT
vary: Accept-Encoding
content-length: 139274
cache-control: max-age=75275
date: Tue, 21 Nov 2023 07:08:41 GMT
access-control-allow-methods: GET, OPTIONS
access-control-allow-headers: *
access-control-allow-origin: *
----

