--Request 
POST https://analytics.google.com/g/collect?v=2&tid=G-ZLYRBY87M8&gtm=45je3b81v890339144&_p=1700550617663&gcd=11l1l1l1l1&dma=0&cid=1527107996.1700550526&ul=en-us&sr=1313x575&uaa=x86&uab=64&uafvl=Not.A%252FBrand%3B8.0.0.0%7CChromium%3B114.0.5735.199&uamb=0&uam=&uap=Linux&uapv=5.15.0&uaw=0&_eu=AAg&_s=2&sid=1700550526&sct=1&seg=1&dl=https%3A%2F%2Fwww.kohls.com%2Fcheckout%2Fv2%2Fcheckout.jsp&dr=https%3A%2F%2Fwww.kohls.com%2Fcheckout%2Fshopping_cart.jsp&dt=Checkout%20-%20Kohls.com&en=check_out&_c=1&ep.debug_mode=true&_et=3&tfd=4764
Host: analytics.google.com
sec-ch-ua: \"Not.A/Brand\";v=\"8\", \"Chromium\";v=\"114\"
sec-ch-ua-mobile: ?0
User-Agent: Mozilla/5.0 (X11; Linux x86_64) AppleWebKit/537.36 (KHTML, like Gecko) Chrome/114.0.0.0 Safari/537.36
sec-ch-ua-platform: \"Linux\"
Accept: */*
Origin: https://www.kohls.com
Sec-Fetch-Site: cross-site
Sec-Fetch-Mode: no-cors
Sec-Fetch-Dest: empty
Referer: https://www.kohls.com/
Accept-Encoding: gzip, deflate, br
Accept-Language: en-US,en;q=0.9
----
--Response 
HTTP/1.1 204
access-control-allow-origin: https://www.kohls.com
date: Tue, 21 Nov 2023 07:10:18 GMT
pragma: no-cache
expires: Fri, 01 Jan 1990 00:00:00 GMT
cache-control: no-cache, no-store, must-revalidate
access-control-allow-credentials: true
content-type: text/plain
cross-origin-resource-policy: cross-origin
server: Golfe2
content-length: 0
alt-svc: h3=\":443\"; ma=2592000,h3-29=\":443\"; ma=2592000
----
--Request 
GET https://www.googleadservices.com/pagead/conversion/746851823/?random=1700550618032&cv=9&fst=1700550618032&num=1&npa=1&label=FO9RCN7V-pQYEO-bkOQC&guid=ON&resp=GooglemKTybQhCsO&eid=375603261%2C466465926%2C512247838&u_h=575&u_w=1313&u_ah=575&u_aw=1313&u_cd=24&u_his=6&u_tz=-360&u_java=false&u_nplug=0&u_nmime=0&sendb=1&ig=1&frm=2&url=https%3A%2F%2F8632166.fls.doubleclick.net%2Fddm%2Ffls%2Fr%2Fdc_pre%3DCMiZ_dvE1IIDFdwoigMdacgBUg%3Bsrc%3D8632166%3Btype%3Dlandi0%3Bcat%3Dunive0%3Bord%3D3986163220378%3Bauiddc%3D1181256846.1700550526%3Bu1%3Dnot%2520set%3Bu10%3Dhttps%253A%252F%252Fwww.kohls.com%252Fcheckout%252Fv2%252Fcheckout.jsp%3Bu11%3Dcheckout%3Bu13%3Dnot%2520set%3Bu2%3Dnot%2520set%3Bu23%3DNew%2520Customer%3Bu24%3D79613869088917606480426504271561296302%3Bu25%3Dd38e961d-eee7-4879-8340-ea94827e289a%3Bu5%3D%2525AdOps_Cart_All_NumberOfItems%2525%3Bgtm%3D45fe3b81v9135074177%3Bgcd%3D11l1l1l1l1%3Bdma%3D0%3Buaa%3Dx86%3Buab%3D64%3Buafvl%3DNot.A%25252FBrand%253B8.0.0.0%257&ref=https%3A%2F%2F8632166.fls.doubleclick.net%2F&hn=www.googleadservices.com&rfmt=3&fmt=4
Host: www.googleadservices.com
sec-ch-ua: \"Not.A/Brand\";v=\"8\", \"Chromium\";v=\"114\"
sec-ch-ua-mobile: ?0
User-Agent: Mozilla/5.0 (X11; Linux x86_64) AppleWebKit/537.36 (KHTML, like Gecko) Chrome/114.0.0.0 Safari/537.36
sec-ch-ua-platform: \"Linux\"
Accept: */*
Sec-Fetch-Site: cross-site
Sec-Fetch-Mode: no-cors
Sec-Fetch-Dest: script
Referer: https://8632166.fls.doubleclick.net/
Accept-Encoding: gzip, deflate, br
Accept-Language: en-US,en;q=0.9
----
--Response 
HTTP/1.1 200
p3p: policyref=\"https://www.googleadservices.com/pagead/p3p.xml\", CP=\"NOI DEV PSA PSD IVA IVD OTP OUR OTR IND OTC\"
timing-allow-origin: *
cross-origin-resource-policy: cross-origin
date: Tue, 21 Nov 2023 07:10:18 GMT
pragma: no-cache
expires: Fri, 01 Jan 1990 00:00:00 GMT
cache-control: no-cache, must-revalidate
content-type: text/javascript; charset=UTF-8
x-content-type-options: nosniff
content-disposition: attachment; filename=\"f.txt\"
content-encoding: br
server: cafe
content-length: 1736
x-xss-protection: 0
alt-svc: h3=\":443\"; ma=2592000,h3-29=\":443\"; ma=2592000
----

