--Request 
GET https://network.bazaarvoice.com/id.json?_=i5e1gt&callback=_bvajsonp1
Host: network.bazaarvoice.com
sec-ch-ua: \"Not.A/Brand\";v=\"8\", \"Chromium\";v=\"114\"
sec-ch-ua-mobile: ?0
User-Agent: Mozilla/5.0 (X11; Linux x86_64) AppleWebKit/537.36 (KHTML, like Gecko) Chrome/114.0.0.0 Safari/537.36
sec-ch-ua-platform: \"Linux\"
Accept: */*
Sec-Fetch-Site: cross-site
Sec-Fetch-Mode: no-cors
Sec-Fetch-Dest: script
Referer: https://www.kohls.com/
Accept-Encoding: gzip, deflate, br
Accept-Language: en-US,en;q=0.9
----
--Response 
HTTP/1.1 200
content-type: application/javascript
content-length: 55
date: Tue, 21 Nov 2023 07:09:37 GMT
server: nginx
cache-control: no-cache, no-transform
vary: Accept-Encoding
x-cache: Miss from cloudfront
via: 1.1 8693090c9bc8f44fd1010f18b33c0528.cloudfront.net (CloudFront)
x-amz-cf-pop: CMH68-P1
x-amz-cf-id: Bx4DjbwSgMqWClwaVcrh3-JdJPQwDF7eo3cvdURu1lRhbKVArjOtwA==
----
--Request 
GET https://googleads.g.doubleclick.net/pagead/viewthroughconversion/746851823/?random=1382219911&cv=9&fst=1700550577029&num=1&npa=1&label=FO9RCN7V-pQYEO-bkOQC&guid=ON&resp=GooglemKTybQhCsO&eid=375603261%2C466465926%2C512247839&u_h=575&u_w=1313&u_ah=575&u_aw=1313&u_cd=24&u_his=4&u_tz=-360&u_java=false&u_nplug=0&u_nmime=0&sendb=1&ig=1&frm=2&url=https%3A%2F%2F8632166.fls.doubleclick.net%2Fddm%2Ffls%2Fr%2Fdc_pre%3DCPWetMjE1IIDFfLqKAUdCTUEPg%3Bsrc%3D8632166%3Btype%3Dlandi0%3Bcat%3Dunive0%3Bord%3D5152111489593%3Bauiddc%3D1181256846.1700550526%3Bu1%3D6262123%3Bu2%3Djuniors%27%2520so%25C2%25AE%2520crewneck%2520sweater%3Bu3%3D14.99%3Bu10%3Dhttps%253A%252F%252Fwww.kohls.com%252Fproduct%252Fprd-6262123%252Fjuniors-so-crewneck-sweater.jsp%253Fcolor%253DBlack%2526prdPV%253D1%2526isClearance%253Dfalse%3Bu11%3DJuniors%27%2520SO%25C2%25AE%2520Crewneck%2520Sweater%3Bu13%3Dtops%3Bu23%3DNew%2520Customer%3Bu24%3D79613869088917606480426504271561296302%3Bu25%3Dd38e961d-eee7-4879-8340-ea&ref=https%3A%2F%2F8632166.fls.doubleclick.net%2F&hn=www.googleadservices.com&fmt=3&ct_cookie_present=false&ocp_id=sVdcZYSdA42CoPMPtIOhQA&sscte=1&crd=&pscrd=IhMIxLnFyMTUggMVDQFoCB20QQgI
Host: googleads.g.doubleclick.net
sec-ch-ua: \"Not.A/Brand\";v=\"8\", \"Chromium\";v=\"114\"
sec-ch-ua-mobile: ?0
User-Agent: Mozilla/5.0 (X11; Linux x86_64) AppleWebKit/537.36 (KHTML, like Gecko) Chrome/114.0.0.0 Safari/537.36
sec-ch-ua-platform: \"Linux\"
Accept: image/avif,image/webp,image/apng,image/svg+xml,image/*,*/*;q=0.8
Sec-Fetch-Site: same-site
Sec-Fetch-Mode: no-cors
Sec-Fetch-Dest: image
Referer: https://8632166.fls.doubleclick.net/
Accept-Encoding: gzip, deflate, br
Accept-Language: en-US,en;q=0.9
----
--Response 
HTTP/1.1 302
p3p: policyref=\"https://googleads.g.doubleclick.net/pagead/gcn_p3p_.xml\", CP=\"CURa ADMa DEVa TAIo PSAo PSDo OUR IND UNI PUR INT DEM STA PRE COM NAV OTC NOI DSP COR\"
timing-allow-origin: *
cross-origin-resource-policy: cross-origin
date: Tue, 21 Nov 2023 07:09:37 GMT
pragma: no-cache
expires: Fri, 01 Jan 1990 00:00:00 GMT
cache-control: no-cache, must-revalidate
location: https://www.google.com/pagead/1p-conversion/746851823/?random=1382219911&cv=9&fst=1700550577029&num=1&npa=1&label=FO9RCN7V-pQYEO-bkOQC&guid=ON&resp=GooglemKTybQhCsO&eid=375603261%2C466465926%2C512247839&u_h=575&u_w=1313&u_ah=575&u_aw=1313&u_cd=24&u_his=4&u_tz=-360&u_java=false&u_nplug=0&u_nmime=0&sendb=1&ig=1&frm=2&url=https%3A%2F%2F8632166.fls.doubleclick.net%2Fddm%2Ffls%2Fr%2Fdc_pre%3DCPWetMjE1IIDFfLqKAUdCTUEPg%3Bsrc%3D8632166%3Btype%3Dlandi0%3Bcat%3Dunive0%3Bord%3D5152111489593%3Bauiddc%3D1181256846.1700550526%3Bu1%3D6262123%3Bu2%3Djuniors%27%2520so%25C2%25AE%2520crewneck%2520sweater%3Bu3%3D14.99%3Bu10%3Dhttps%253A%252F%252Fwww.kohls.com%252Fproduct%252Fprd-6262123%252Fjuniors-so-crewneck-sweater.jsp%253Fcolor%253DBlack%2526prdPV%253D1%2526isClearance%253Dfalse%3Bu11%3DJuniors%27%2520SO%25C2%25AE%2520Crewneck%2520Sweater%3Bu13%3Dtops%3Bu23%3DNew%2520Customer%3Bu24%3D79613869088917606480426504271561296302%3Bu25%3Dd38e961d-eee7-4879-8340-ea&ref=https%3A%2F%2F8632166.fls.doubleclick.net%2F&hn=www.googleadservices.com&fmt=3&ct_cookie_present=false&sscte=1&crd=&pscrd=IhMIxLnFyMTUggMVDQFoCB20QQgI&is_vtc=1&ocp_id=sVdcZYSdA42CoPMPtIOhQA&cid=CAQSGwDICaaNPzCctnUdkF7II73TEPs57zJXZUGYsA&random=971887804&resp=GooglemKTybQhCsO
content-type: image/gif
x-content-type-options: nosniff
server: cafe
content-length: 42
x-xss-protection: 0
set-cookie: test_cookie=CheckForPermission; expires=Tue, 21-Nov-2023 07:24:37 GMT; path=/; domain=.doubleclick.net; Secure; SameSite=none
alt-svc: h3=\":443\"; ma=2592000,h3-29=\":443\"; ma=2592000
----
--Request 
GET https://www.google.com/pagead/1p-conversion/746851823/?random=1382219911&cv=9&fst=1700550577029&num=1&npa=1&label=FO9RCN7V-pQYEO-bkOQC&guid=ON&resp=GooglemKTybQhCsO&eid=375603261%2C466465926%2C512247839&u_h=575&u_w=1313&u_ah=575&u_aw=1313&u_cd=24&u_his=4&u_tz=-360&u_java=false&u_nplug=0&u_nmime=0&sendb=1&ig=1&frm=2&url=https%3A%2F%2F8632166.fls.doubleclick.net%2Fddm%2Ffls%2Fr%2Fdc_pre%3DCPWetMjE1IIDFfLqKAUdCTUEPg%3Bsrc%3D8632166%3Btype%3Dlandi0%3Bcat%3Dunive0%3Bord%3D5152111489593%3Bauiddc%3D1181256846.1700550526%3Bu1%3D6262123%3Bu2%3Djuniors%27%2520so%25C2%25AE%2520crewneck%2520sweater%3Bu3%3D14.99%3Bu10%3Dhttps%253A%252F%252Fwww.kohls.com%252Fproduct%252Fprd-6262123%252Fjuniors-so-crewneck-sweater.jsp%253Fcolor%253DBlack%2526prdPV%253D1%2526isClearance%253Dfalse%3Bu11%3DJuniors%27%2520SO%25C2%25AE%2520Crewneck%2520Sweater%3Bu13%3Dtops%3Bu23%3DNew%2520Customer%3Bu24%3D79613869088917606480426504271561296302%3Bu25%3Dd38e961d-eee7-4879-8340-ea&ref=https%3A%2F%2F8632166.fls.doubleclick.net%2F&hn=www.googleadservices.com&fmt=3&ct_cookie_present=false&sscte=1&crd=&pscrd=IhMIxLnFyMTUggMVDQFoCB20QQgI&is_vtc=1&ocp_id=sVdcZYSdA42CoPMPtIOhQA&cid=CAQSGwDICaaNPzCctnUdkF7II73TEPs57zJXZUGYsA&random=971887804&resp=GooglemKTybQhCsO
Host: www.google.com
sec-ch-ua: \"Not.A/Brand\";v=\"8\", \"Chromium\";v=\"114\"
sec-ch-ua-mobile: ?0
User-Agent: Mozilla/5.0 (X11; Linux x86_64) AppleWebKit/537.36 (KHTML, like Gecko) Chrome/114.0.0.0 Safari/537.36
sec-ch-ua-platform: \"Linux\"
Accept: image/avif,image/webp,image/apng,image/svg+xml,image/*,*/*;q=0.8
Sec-Fetch-Site: cross-site
Sec-Fetch-Mode: no-cors
Sec-Fetch-Dest: image
Referer: https://8632166.fls.doubleclick.net/
Accept-Encoding: gzip, deflate, br
Accept-Language: en-US,en;q=0.9
----
--Response 
HTTP/1.1 200
p3p: policyref=\"https://www.googleadservices.com/pagead/p3p.xml\", CP=\"NOI DEV PSA PSD IVA IVD OTP OUR OTR IND OTC\"
timing-allow-origin: *
cross-origin-resource-policy: cross-origin
date: Tue, 21 Nov 2023 07:09:37 GMT
pragma: no-cache
expires: Fri, 01 Jan 1990 00:00:00 GMT
cache-control: no-cache, no-store, must-revalidate
content-type: image/gif
content-security-policy: script-src 'none'; object-src 'none'
x-content-type-options: nosniff
server: cafe
content-length: 42
x-xss-protection: 0
alt-svc: h3=\":443\"; ma=2592000,h3-29=\":443\"; ma=2592000
----
--Request 
GET https://8632166.fls.doubleclick.net/activityi;src=8632166;type=landi0;cat=unive0;ord=8244553646515;auiddc=1181256846.1700550526;u1=6262123;u10=https%3A%2F%2Fwww.kohls.com%2Fproduct%2Fprd-6262123%2Fjuniors-so-crewneck-sweater.jsp%3Fcolor%3DBlack%26prdPV%3D1%26isClearance%3Dfalse;u11=Juniors'%20SO%C2%AE%20Crewneck%20Sweater;u13=not%20set;u2=juniors'%20so%C2%AE%20crewneck%20sweater;u23=New%20Customer;u24=79613869088917606480426504271561296302;u25=d38e961d-eee7-4879-8340-ea94827e289a;u5=%25AdOps_Cart_All_NumberOfItems%25;gtm=45fe3b81v9135074177;gcd=11l1l1l1l1;dma=0;uaa=x86;uab=64;uafvl=Not.A%252FBrand%3B8.0.0.0%7CChromium%3B114.0.5735.199;uamb=0;uam=;uap=Linux;uapv=5.15.0;uaw=0;epver=2;~oref=https%3A%2F%2Fwww.kohls.com%2Fproduct%2Fprd-6262123%2Fjuniors-so-crewneck-sweater.jsp%3Fcolor%3DBlack%26prdPV%3D1%26isClearance%3Dfalse?
Host: 8632166.fls.doubleclick.net
sec-ch-ua: \"Not.A/Brand\";v=\"8\", \"Chromium\";v=\"114\"
sec-ch-ua-mobile: ?0
sec-ch-ua-platform: \"Linux\"
Upgrade-Insecure-Requests: 1
User-Agent: Mozilla/5.0 (X11; Linux x86_64) AppleWebKit/537.36 (KHTML, like Gecko) Chrome/114.0.0.0 Safari/537.36
Accept: text/html,application/xhtml+xml,application/xml;q=0.9,image/avif,image/webp,image/apng,*/*;q=0.8,application/signed-exchange;v=b3;q=0.7
Sec-Fetch-Site: cross-site
Sec-Fetch-Mode: navigate
Sec-Fetch-Dest: iframe
Referer: https://www.kohls.com/
Accept-Encoding: gzip, deflate, br
Accept-Language: en-US,en;q=0.9
----
--Response 
HTTP/1.1 302
p3p: policyref=\"https://googleads.g.doubleclick.net/pagead/gcn_p3p_.xml\", CP=\"CURa ADMa DEVa TAIo PSAo PSDo OUR IND UNI PUR INT DEM STA PRE COM NAV OTC NOI DSP COR\"
timing-allow-origin: *
cross-origin-resource-policy: cross-origin
date: Tue, 21 Nov 2023 07:09:37 GMT
pragma: no-cache
expires: Fri, 01 Jan 1990 00:00:00 GMT
cache-control: no-cache, must-revalidate
follow-only-when-prerender-shown: 1
strict-transport-security: max-age=21600
location: https://8632166.fls.doubleclick.net/activityi;dc_pre=CMaSzcjE1IIDFdknigMd0tEOFQ;src=8632166;type=landi0;cat=unive0;ord=8244553646515;auiddc=1181256846.1700550526;u1=6262123;u10=https%3A%2F%2Fwww.kohls.com%2Fproduct%2Fprd-6262123%2Fjuniors-so-crewneck-sweater.jsp%3Fcolor%3DBlack%26prdPV%3D1%26isClearance%3Dfalse;u11=Juniors'%20SO%C2%AE%20Crewneck%20Sweater;u13=not%20set;u2=juniors'%20so%C2%AE%20crewneck%20sweater;u23=New%20Customer;u24=79613869088917606480426504271561296302;u25=d38e961d-eee7-4879-8340-ea94827e289a;u5=%25AdOps_Cart_All_NumberOfItems%25;gtm=45fe3b81v9135074177;gcd=11l1l1l1l1;dma=0;uaa=x86;uab=64;uafvl=Not.A%252FBrand%3B8.0.0.0%7CChromium%3B114.0.5735.199;uamb=0;uam=;uap=Linux;uapv=5.15.0;uaw=0;epver=2;~oref=https%3A%2F%2Fwww.kohls.com%2Fproduct%2Fprd-6262123%2Fjuniors-so-crewneck-sweater.jsp%3Fcolor%3DBlack%26prdPV%3D1%26isClearance%3Dfalse?
content-type: text/html; charset=UTF-8
x-content-type-options: nosniff
server: cafe
content-length: 0
x-xss-protection: 0
alt-svc: h3=\":443\"; ma=2592000,h3-29=\":443\"; ma=2592000
----
--Request 
GET https://assets.adobedtm.com/6d2e783bbfe3/c0c47c5c96c6/7a8648cd60a8/RCfbb47f656ed2476fa66b53ee5e0ac04f-source.min.js
Host: assets.adobedtm.com
sec-ch-ua: \"Not.A/Brand\";v=\"8\", \"Chromium\";v=\"114\"
sec-ch-ua-mobile: ?0
User-Agent: Mozilla/5.0 (X11; Linux x86_64) AppleWebKit/537.36 (KHTML, like Gecko) Chrome/114.0.0.0 Safari/537.36
sec-ch-ua-platform: \"Linux\"
Accept: */*
Sec-Fetch-Site: cross-site
Sec-Fetch-Mode: no-cors
Sec-Fetch-Dest: script
Referer: https://www.kohls.com/
Accept-Encoding: gzip, deflate, br
Accept-Language: en-US,en;q=0.9
----
--Response 
HTTP/1.1 200
accept-ranges: bytes
content-type: application/x-javascript
etag: \"c3f8eea087eda271fe3a803f1d4cfa06:1700078393.11621\"
last-modified: Wed, 15 Nov 2023 19:59:53 GMT
server: AkamaiNetStorage
vary: Accept-Encoding
content-encoding: gzip
cache-control: max-age=3600
expires: Tue, 21 Nov 2023 08:09:37 GMT
date: Tue, 21 Nov 2023 07:09:37 GMT
content-length: 303
access-control-allow-origin: https://www.kohls.com
timing-allow-origin: *
----
--Request 
GET https://8632166.fls.doubleclick.net/activityi;dc_pre=CMaSzcjE1IIDFdknigMd0tEOFQ;src=8632166;type=landi0;cat=unive0;ord=8244553646515;auiddc=1181256846.1700550526;u1=6262123;u10=https%3A%2F%2Fwww.kohls.com%2Fproduct%2Fprd-6262123%2Fjuniors-so-crewneck-sweater.jsp%3Fcolor%3DBlack%26prdPV%3D1%26isClearance%3Dfalse;u11=Juniors'%20SO%C2%AE%20Crewneck%20Sweater;u13=not%20set;u2=juniors'%20so%C2%AE%20crewneck%20sweater;u23=New%20Customer;u24=79613869088917606480426504271561296302;u25=d38e961d-eee7-4879-8340-ea94827e289a;u5=%25AdOps_Cart_All_NumberOfItems%25;gtm=45fe3b81v9135074177;gcd=11l1l1l1l1;dma=0;uaa=x86;uab=64;uafvl=Not.A%252FBrand%3B8.0.0.0%7CChromium%3B114.0.5735.199;uamb=0;uam=;uap=Linux;uapv=5.15.0;uaw=0;epver=2;~oref=https%3A%2F%2Fwww.kohls.com%2Fproduct%2Fprd-6262123%2Fjuniors-so-crewneck-sweater.jsp%3Fcolor%3DBlack%26prdPV%3D1%26isClearance%3Dfalse?
Host: 8632166.fls.doubleclick.net
Upgrade-Insecure-Requests: 1
User-Agent: Mozilla/5.0 (X11; Linux x86_64) AppleWebKit/537.36 (KHTML, like Gecko) Chrome/114.0.0.0 Safari/537.36
Accept: text/html,application/xhtml+xml,application/xml;q=0.9,image/avif,image/webp,image/apng,*/*;q=0.8,application/signed-exchange;v=b3;q=0.7
Sec-Fetch-Site: cross-site
Sec-Fetch-Mode: navigate
Sec-Fetch-Dest: iframe
sec-ch-ua: \"Not.A/Brand\";v=\"8\", \"Chromium\";v=\"114\"
sec-ch-ua-mobile: ?0
sec-ch-ua-platform: \"Linux\"
Referer: https://www.kohls.com/
Accept-Encoding: gzip, deflate, br
Accept-Language: en-US,en;q=0.9
----
--Response 
HTTP/1.1 200
p3p: policyref=\"https://googleads.g.doubleclick.net/pagead/gcn_p3p_.xml\", CP=\"CURa ADMa DEVa TAIo PSAo PSDo OUR IND UNI PUR INT DEM STA PRE COM NAV OTC NOI DSP COR\"
timing-allow-origin: *
cross-origin-resource-policy: cross-origin
date: Tue, 21 Nov 2023 07:09:37 GMT
expires: Fri, 01 Jan 1990 00:00:00 GMT
cache-control: no-cache, must-revalidate
strict-transport-security: max-age=21600
content-type: text/html; charset=UTF-8
pragma: no-cache
x-content-type-options: nosniff
content-encoding: br
server: cafe
content-length: 592
x-xss-protection: 0
set-cookie: test_cookie=CheckForPermission; expires=Tue, 21-Nov-2023 07:24:37 GMT; path=/; domain=.doubleclick.net; Secure; HttpOnly; SameSite=none
alt-svc: h3=\":443\"; ma=2592000,h3-29=\":443\"; ma=2592000
----
--Request 
GET https://adservice.google.com/ddm/fls/i/dc_pre=CMaSzcjE1IIDFdknigMd0tEOFQ;src=8632166;type=landi0;cat=unive0;ord=8244553646515;auiddc=1181256846.1700550526;u1=6262123;u10=https%3A%2F%2Fwww.kohls.com%2Fproduct%2Fprd-6262123%2Fjuniors-so-crewneck-sweater.jsp%3Fcolor%3DBlack%26prdPV%3D1%26isClearance%3Dfalse;u11=Juniors'%20SO%C2%AE%20Crewneck%20Sweater;u13=not%20set;u2=juniors'%20so%C2%AE%20crewneck%20sweater;u23=New%20Customer;u24=79613869088917606480426504271561296302;u25=d38e961d-eee7-4879-8340-ea94827e289a;u5=%25AdOps_Cart_All_NumberOfItems%25;gtm=45fe3b81v9135074177;gcd=11l1l1l1l1;dma=0;uaa=x86;uab=64;uafvl=Not.A%252FBrand%3B8.0.0.0%7CChromium%3B114.0.5735.199;uamb=0;uam=;uap=Linux;uapv=5.15.0;uaw=0;epver=2;~oref=https%3A%2F%2Fwww.kohls.com%2Fproduct%2Fprd-6262123%2Fjuniors-so-crewneck-sweater.jsp%3Fcolor%3DBlack%26prdPV%3D1%26isClearance%3Dfalse
Host: adservice.google.com
sec-ch-ua: \"Not.A/Brand\";v=\"8\", \"Chromium\";v=\"114\"
sec-ch-ua-mobile: ?0
sec-ch-ua-platform: \"Linux\"
Upgrade-Insecure-Requests: 1
User-Agent: Mozilla/5.0 (X11; Linux x86_64) AppleWebKit/537.36 (KHTML, like Gecko) Chrome/114.0.0.0 Safari/537.36
Accept: text/html,application/xhtml+xml,application/xml;q=0.9,image/avif,image/webp,image/apng,*/*;q=0.8,application/signed-exchange;v=b3;q=0.7
Sec-Fetch-Site: cross-site
Sec-Fetch-Mode: navigate
Sec-Fetch-Dest: iframe
Referer: https://8632166.fls.doubleclick.net/
Accept-Encoding: gzip, deflate, br
Accept-Language: en-US,en;q=0.9
----
--Response 
HTTP/1.1 302
p3p: policyref=\"https://www.googleadservices.com/pagead/p3p.xml\", CP=\"NOI DEV PSA PSD IVA IVD OTP OUR OTR IND OTC\"
timing-allow-origin: *
cross-origin-resource-policy: cross-origin
date: Tue, 21 Nov 2023 07:09:37 GMT
pragma: no-cache
expires: Fri, 01 Jan 1990 00:00:00 GMT
cache-control: no-cache, must-revalidate
location: https://8632166.fls.doubleclick.net/ddm/fls/r/dc_pre=CMaSzcjE1IIDFdknigMd0tEOFQ;src=8632166;type=landi0;cat=unive0;ord=8244553646515;auiddc=1181256846.1700550526;u1=6262123;u10=https%3A%2F%2Fwww.kohls.com%2Fproduct%2Fprd-6262123%2Fjuniors-so-crewneck-sweater.jsp%3Fcolor%3DBlack%26prdPV%3D1%26isClearance%3Dfalse;u11=Juniors'%20SO%C2%AE%20Crewneck%20Sweater;u13=not%20set;u2=juniors'%20so%C2%AE%20crewneck%20sweater;u23=New%20Customer;u24=79613869088917606480426504271561296302;u25=d38e961d-eee7-4879-8340-ea94827e289a;u5=%25AdOps_Cart_All_NumberOfItems%25;gtm=45fe3b81v9135074177;gcd=11l1l1l1l1;dma=0;uaa=x86;uab=64;uafvl=Not.A%252FBrand%3B8.0.0.0%7CChromium%3B114.0.5735.199;uamb=0;uam=;uap=Linux;uapv=5.15.0;uaw=0;epver=2;~oref=https%3A%2F%2Fwww.kohls.com%2Fproduct%2Fprd-6262123%2Fjuniors-so-crewneck-sweater.jsp%3Fcolor%3DBlack%26prdPV%3D1%26isClearance%3Dfalse
content-type: text/html; charset=UTF-8
x-content-type-options: nosniff
server: cafe
content-length: 0
x-xss-protection: 0
alt-svc: h3=\":443\"; ma=2592000,h3-29=\":443\"; ma=2592000
----
--Request 
GET https://securepubads.g.doubleclick.net/gampad/ads?pvsid=2908983359062488&correlator=2241287955120681&eid=31079630%2C31079660%2C31079695%2C31079525%2C31078659&output=ldjh&gdfp_req=1&vrg=202311140101&ptt=17&impl=fifs&iu_parts=17763952%2Cclothing%2Ctops%2Csweaters&enc_prev_ius=%2F0%2F1%2F2%2F3%2C%2F0%2F1%2F2%2F3%2C%2F0%2F1%2F2%2F3%2C%2F0%2F1%2F2%2F3%2C%2F0%2F1%2F2%2F3%2C%2F0%2F1%2F2%2F3&prev_iu_szs=320x50%7C1024x45%7C1024x64%7C1024x128%2C728x90%7C1024x45%7C1024x64%7C1024x128%2C728x90%2C300x250%2C300x250%2C300x250&fluid=height%2C0%2C0%2C0%2C0%2C0&ifi=1&sfv=1-0-40&sc=1&cookie=ID%3D3c394970cb55450f%3AT%3D1700550526%3ART%3D1700550526%3AS%3DALNI_MbrJ3X_hGpSImvZMLI5SV9-34drNA&gpic=UID%3D00000a00a9f90471%3AT%3D1700550526%3ART%3D1700550526%3AS%3DALNI_Ma8ugF9cZmpsonvpd3LpCjHvE5AkQ&abxe=1&dt=1700550577221&lmt=1700550577&adxs=137%2C20%2C20%2C100%2C499%2C899&adys=168%2C4683%2C5082%2C5114%2C5114%2C5114&biw=1298&bih=447&scr_x=0&scr_y=731&btvi=0%7C1%7C2%7C3%7C4%7C5&ucis=1%7C2%7C3%7C4%7C5%7C6&oid=2&u_his=4&u_h=575&u_w=1313&u_ah=575&u_aw=1313&u_cd=24&u_sd=1&u_tz=-360&dmc=8&bc=31&nvt=1&uach=WyJMaW51eCIsIjUuMTUuMCIsIng4NiIsIiIsIjExNC4wLjU3MzUuMTk5IixudWxsLDAsbnVsbCwiNjQiLFtbIk5vdC5BL0JyYW5kIiwiOC4wLjAuMCJdLFsiQ2hyb21pdW0iLCIxMTQuMC41NzM1LjE5OSJdXSwwXQ..&url=https%3A%2F%2Fwww.kohls.com%2Fproduct%2Fprd-6262123%2Fjuniors-so-crewneck-sweater.jsp%3Fcolor%3DBlack%26prdPV%3D1%26isClearance%3Dfalse&vis=1&psz=1298x25%7C1258x0%7C1258x0%7C300x32%7C300x32%7C300x32&msz=1024x25%7C1258x0%7C1258x0%7C300x0%7C300x0%7C300x0&fws=0%2C0%2C0%2C0%2C0%2C0&ohw=0%2C0%2C0%2C0%2C0%2C0&ga_vid=1527107996.1700550526&ga_sid=1700550577&ga_hid=38650888&ga_fc=true&dlt=1700550567125&idt=9295&prev_scp=pos%3Dmarquee%7Cpos%3DPDP_Desktop_MidPage_728x90%7Cpos%3DPDP_Desktop_Footer_728x90%7Cpos%3DPDP_Desktop_Footer_Left_300x250%7Cpos%3DPDP_Desktop_Footer_Middle_300x250%7Cpos%3DPDP_Desktop_Footer_Right_300x250&cust_params=channel%3Ddesktop%26env%3Dprod%26pgtype%3Dpdp&adks=171800777%2C3101993343%2C2787838891%2C2557529597%2C4053714652%2C1823804885&frm=20
Host: securepubads.g.doubleclick.net
sec-ch-ua: \"Not.A/Brand\";v=\"8\", \"Chromium\";v=\"114\"
sec-ch-ua-mobile: ?0
User-Agent: Mozilla/5.0 (X11; Linux x86_64) AppleWebKit/537.36 (KHTML, like Gecko) Chrome/114.0.0.0 Safari/537.36
sec-ch-ua-platform: \"Linux\"
Accept: */*
Origin: https://www.kohls.com
Sec-Fetch-Site: cross-site
Sec-Fetch-Mode: cors
Sec-Fetch-Dest: empty
Referer: https://www.kohls.com/
Accept-Encoding: gzip, deflate, br
Accept-Language: en-US,en;q=0.9
----
--Response 
HTTP/1.1 200
p3p: policyref=\"https://googleads.g.doubleclick.net/pagead/gcn_p3p_.xml\", CP=\"CURa ADMa DEVa TAIo PSAo PSDo OUR IND UNI PUR INT DEM STA PRE COM NAV OTC NOI DSP COR\"
timing-allow-origin: *
cross-origin-resource-policy: cross-origin
access-control-allow-credentials: true
access-control-allow-origin: https://www.kohls.com
observe-browsing-topics: ?1
google-lineitem-id: -2,-2,-2,-2,-2,-2
google-creative-id: -2,-2,-2,-2,-2,-2
google-mediationgroup-id: -2,-2,-2,-2,-2,-2
google-mediationtag-id: -2
date: Tue, 21 Nov 2023 07:09:37 GMT
pragma: no-cache
expires: Fri, 01 Jan 1990 00:00:00 GMT
cache-control: no-cache, must-revalidate
content-type: text/plain; charset=UTF-8
x-content-type-options: nosniff
content-encoding: br
server: cafe
content-length: 353
x-xss-protection: 0
set-cookie: test_cookie=CheckForPermission; expires=Tue, 21-Nov-2023 07:24:37 GMT; path=/; domain=.doubleclick.net; Secure; HttpOnly; SameSite=none
alt-svc: h3=\":443\"; ma=2592000,h3-29=\":443\"; ma=2592000
----
--Request 
GET https://9f45b6b5f7a82f0d06a35117af5bfd61.safeframe.googlesyndication.com/safeframe/1-0-40/html/container.html
Host: 9f45b6b5f7a82f0d06a35117af5bfd61.safeframe.googlesyndication.com
sec-ch-ua: \"Not.A/Brand\";v=\"8\", \"Chromium\";v=\"114\"
sec-ch-ua-mobile: ?0
sec-ch-ua-platform: \"Linux\"
Upgrade-Insecure-Requests: 1
User-Agent: Mozilla/5.0 (X11; Linux x86_64) AppleWebKit/537.36 (KHTML, like Gecko) Chrome/114.0.0.0 Safari/537.36
Accept: text/html,application/xhtml+xml,application/xml;q=0.9,image/avif,image/webp,image/apng,*/*;q=0.8,application/signed-exchange;v=b3;q=0.7
Sec-Fetch-Site: cross-site
Sec-Fetch-Mode: navigate
Sec-Fetch-Dest: iframe
Referer: https://www.kohls.com/
Accept-Encoding: gzip, deflate, br
Accept-Language: en-US,en;q=0.9
----
--Response 
HTTP/1.1 200
accept-ranges: bytes
vary: Accept-Encoding
content-encoding: br
content-type: text/html
cross-origin-resource-policy: cross-origin
cross-origin-opener-policy-report-only: same-origin; report-to=\"ads-gpt-scs\"
report-to: {\"group\":\"ads-gpt-scs\",\"max_age\":2592000,\"endpoints\":[{\"url\":\"https://csp.withgoogle.com/csp/report-to/ads-gpt-scs\"}]}
timing-allow-origin: *
content-length: 2653
date: Tue, 21 Nov 2023 07:09:37 GMT
expires: Wed, 20 Nov 2024 07:09:37 GMT
cache-control: public, immutable, max-age=31536000
last-modified: Thu, 03 Nov 2022 19:10:08 GMT
x-content-type-options: nosniff
server: sffe
x-xss-protection: 0
alt-svc: h3=\":443\"; ma=2592000,h3-29=\":443\"; ma=2592000
----
--Request 
GET https://8632166.fls.doubleclick.net/ddm/fls/r/dc_pre=CMaSzcjE1IIDFdknigMd0tEOFQ;src=8632166;type=landi0;cat=unive0;ord=8244553646515;auiddc=1181256846.1700550526;u1=6262123;u10=https%3A%2F%2Fwww.kohls.com%2Fproduct%2Fprd-6262123%2Fjuniors-so-crewneck-sweater.jsp%3Fcolor%3DBlack%26prdPV%3D1%26isClearance%3Dfalse;u11=Juniors'%20SO%C2%AE%20Crewneck%20Sweater;u13=not%20set;u2=juniors'%20so%C2%AE%20crewneck%20sweater;u23=New%20Customer;u24=79613869088917606480426504271561296302;u25=d38e961d-eee7-4879-8340-ea94827e289a;u5=%25AdOps_Cart_All_NumberOfItems%25;gtm=45fe3b81v9135074177;gcd=11l1l1l1l1;dma=0;uaa=x86;uab=64;uafvl=Not.A%252FBrand%3B8.0.0.0%7CChromium%3B114.0.5735.199;uamb=0;uam=;uap=Linux;uapv=5.15.0;uaw=0;epver=2;~oref=https%3A%2F%2Fwww.kohls.com%2Fproduct%2Fprd-6262123%2Fjuniors-so-crewneck-sweater.jsp%3Fcolor%3DBlack%26prdPV%3D1%26isClearance%3Dfalse
Host: 8632166.fls.doubleclick.net
Upgrade-Insecure-Requests: 1
User-Agent: Mozilla/5.0 (X11; Linux x86_64) AppleWebKit/537.36 (KHTML, like Gecko) Chrome/114.0.0.0 Safari/537.36
Accept: text/html,application/xhtml+xml,application/xml;q=0.9,image/avif,image/webp,image/apng,*/*;q=0.8,application/signed-exchange;v=b3;q=0.7
Sec-Fetch-Site: cross-site
Sec-Fetch-Mode: navigate
Sec-Fetch-Dest: iframe
sec-ch-ua: \"Not.A/Brand\";v=\"8\", \"Chromium\";v=\"114\"
sec-ch-ua-mobile: ?0
sec-ch-ua-platform: \"Linux\"
Referer: https://8632166.fls.doubleclick.net/
Accept-Encoding: gzip, deflate, br
Accept-Language: en-US,en;q=0.9
----
--Response 
HTTP/1.1 200
p3p: policyref=\"https://googleads.g.doubleclick.net/pagead/gcn_p3p_.xml\", CP=\"CURa ADMa DEVa TAIo PSAo PSDo OUR IND UNI PUR INT DEM STA PRE COM NAV OTC NOI DSP COR\"
timing-allow-origin: *
cross-origin-resource-policy: cross-origin
date: Tue, 21 Nov 2023 07:09:37 GMT
expires: Tue, 21 Nov 2023 07:09:37 GMT
cache-control: private, max-age=0
strict-transport-security: max-age=21600
content-type: text/html; charset=UTF-8
x-content-type-options: nosniff
content-encoding: br
server: cafe
content-length: 359
x-xss-protection: 0
set-cookie: test_cookie=CheckForPermission; expires=Tue, 21-Nov-2023 07:24:37 GMT; path=/; domain=.doubleclick.net; Secure; HttpOnly; SameSite=none
alt-svc: h3=\":443\"; ma=2592000,h3-29=\":443\"; ma=2592000
----
--Request 
GET https://www.googleadservices.com/pagead/conversion/746851823/?random=1700550577396&cv=9&fst=1700550577396&num=1&npa=1&label=FO9RCN7V-pQYEO-bkOQC&guid=ON&resp=GooglemKTybQhCsO&eid=375603260%2C466465926%2C512247839&u_h=575&u_w=1313&u_ah=575&u_aw=1313&u_cd=24&u_his=4&u_tz=-360&u_java=false&u_nplug=0&u_nmime=0&sendb=1&ig=1&frm=2&url=https%3A%2F%2F8632166.fls.doubleclick.net%2Fddm%2Ffls%2Fr%2Fdc_pre%3DCMaSzcjE1IIDFdknigMd0tEOFQ%3Bsrc%3D8632166%3Btype%3Dlandi0%3Bcat%3Dunive0%3Bord%3D8244553646515%3Bauiddc%3D1181256846.1700550526%3Bu1%3D6262123%3Bu10%3Dhttps%253A%252F%252Fwww.kohls.com%252Fproduct%252Fprd-6262123%252Fjuniors-so-crewneck-sweater.jsp%253Fcolor%253DBlack%2526prdPV%253D1%2526isClearance%253Dfalse%3Bu11%3DJuniors%27%2520SO%25C2%25AE%2520Crewneck%2520Sweater%3Bu13%3Dnot%2520set%3Bu2%3Djuniors%27%2520so%25C2%25AE%2520crewneck%2520sweater%3Bu23%3DNew%2520Customer%3Bu24%3D79613869088917606480426504271561296302%3Bu25%3Dd38e961d-eee7-4879-8340-ea9482&ref=https%3A%2F%2F8632166.fls.doubleclick.net%2F&hn=www.googleadservices.com&rfmt=3&fmt=4
Host: www.googleadservices.com
sec-ch-ua: \"Not.A/Brand\";v=\"8\", \"Chromium\";v=\"114\"
sec-ch-ua-mobile: ?0
User-Agent: Mozilla/5.0 (X11; Linux x86_64) AppleWebKit/537.36 (KHTML, like Gecko) Chrome/114.0.0.0 Safari/537.36
sec-ch-ua-platform: \"Linux\"
Accept: */*
Sec-Fetch-Site: cross-site
Sec-Fetch-Mode: no-cors
Sec-Fetch-Dest: script
Referer: https://8632166.fls.doubleclick.net/
Accept-Encoding: gzip, deflate, br
Accept-Language: en-US,en;q=0.9
----
--Response 
HTTP/1.1 200
p3p: policyref=\"https://www.googleadservices.com/pagead/p3p.xml\", CP=\"NOI DEV PSA PSD IVA IVD OTP OUR OTR IND OTC\"
timing-allow-origin: *
cross-origin-resource-policy: cross-origin
date: Tue, 21 Nov 2023 07:09:37 GMT
pragma: no-cache
expires: Fri, 01 Jan 1990 00:00:00 GMT
cache-control: no-cache, must-revalidate
content-type: text/javascript; charset=UTF-8
x-content-type-options: nosniff
content-disposition: attachment; filename=\"f.txt\"
content-encoding: br
server: cafe
content-length: 1719
x-xss-protection: 0
alt-svc: h3=\":443\"; ma=2592000,h3-29=\":443\"; ma=2592000
----
--Request 
GET https://acdn.adnxs.com/dmp/async_usersync.html
Host: acdn.adnxs.com
sec-ch-ua: \"Not.A/Brand\";v=\"8\", \"Chromium\";v=\"114\"
sec-ch-ua-mobile: ?0
sec-ch-ua-platform: \"Linux\"
Upgrade-Insecure-Requests: 1
User-Agent: Mozilla/5.0 (X11; Linux x86_64) AppleWebKit/537.36 (KHTML, like Gecko) Chrome/114.0.0.0 Safari/537.36
Accept: text/html,application/xhtml+xml,application/xml;q=0.9,image/avif,image/webp,image/apng,*/*;q=0.8,application/signed-exchange;v=b3;q=0.7
Sec-Fetch-Site: cross-site
Sec-Fetch-Mode: navigate
Sec-Fetch-Dest: iframe
Referer: https://www.kohls.com/
Accept-Encoding: gzip, deflate, br
Accept-Language: en-US,en;q=0.9
----
--Response 
HTTP/1.1 200 OK
Content-Length: 17053
Server: nginx/1.18.0 (Ubuntu)
Content-Type: text/html
Last-Modified: Fri, 25 Mar 2022 16:06:02 GMT
ETag: W/\"623de86a-cf34\"
Expires: Wed, 08 Nov 2023 05:49:52 GMT
Cache-Control: max-age=86402
Access-Control-Allow-Origin: *
Content-Encoding: gzip
Via: 1.1 varnish, 1.1 varnish
Accept-Ranges: bytes
Date: Tue, 21 Nov 2023 07:08:46 GMT
Age: 81064
X-Served-By: cache-lga13626-LGA, cache-nyc-kteb1890053-NYC
X-Cache: HIT, HIT
X-Cache-Hits: 238, 147751
X-Timer: S1700550526.277108,VS0,VE0
Vary: Accept-Encoding
----
--Request 
GET https://googleads.g.doubleclick.net/pagead/viewthroughconversion/746851823/?random=972487881&cv=9&fst=1700550577396&num=1&npa=1&label=FO9RCN7V-pQYEO-bkOQC&guid=ON&resp=GooglemKTybQhCsO&eid=375603260%2C466465926%2C512247839&u_h=575&u_w=1313&u_ah=575&u_aw=1313&u_cd=24&u_his=4&u_tz=-360&u_java=false&u_nplug=0&u_nmime=0&sendb=1&ig=1&frm=2&url=https%3A%2F%2F8632166.fls.doubleclick.net%2Fddm%2Ffls%2Fr%2Fdc_pre%3DCMaSzcjE1IIDFdknigMd0tEOFQ%3Bsrc%3D8632166%3Btype%3Dlandi0%3Bcat%3Dunive0%3Bord%3D8244553646515%3Bauiddc%3D1181256846.1700550526%3Bu1%3D6262123%3Bu10%3Dhttps%253A%252F%252Fwww.kohls.com%252Fproduct%252Fprd-6262123%252Fjuniors-so-crewneck-sweater.jsp%253Fcolor%253DBlack%2526prdPV%253D1%2526isClearance%253Dfalse%3Bu11%3DJuniors%27%2520SO%25C2%25AE%2520Crewneck%2520Sweater%3Bu13%3Dnot%2520set%3Bu2%3Djuniors%27%2520so%25C2%25AE%2520crewneck%2520sweater%3Bu23%3DNew%2520Customer%3Bu24%3D79613869088917606480426504271561296302%3Bu25%3Dd38e961d-eee7-4879-8340-ea9482&ref=https%3A%2F%2F8632166.fls.doubleclick.net%2F&hn=www.googleadservices.com&fmt=3&ct_cookie_present=false&ocp_id=sVdcZZexGYK3oPMPxeCS-AQ&sscte=1&crd=&pscrd=IhMI183byMTUggMVghtoCB1FsARP
Host: googleads.g.doubleclick.net
sec-ch-ua: \"Not.A/Brand\";v=\"8\", \"Chromium\";v=\"114\"
sec-ch-ua-mobile: ?0
User-Agent: Mozilla/5.0 (X11; Linux x86_64) AppleWebKit/537.36 (KHTML, like Gecko) Chrome/114.0.0.0 Safari/537.36
sec-ch-ua-platform: \"Linux\"
Accept: image/avif,image/webp,image/apng,image/svg+xml,image/*,*/*;q=0.8
Sec-Fetch-Site: same-site
Sec-Fetch-Mode: no-cors
Sec-Fetch-Dest: image
Referer: https://8632166.fls.doubleclick.net/
Accept-Encoding: gzip, deflate, br
Accept-Language: en-US,en;q=0.9
----
--Response 
HTTP/1.1 302
p3p: policyref=\"https://googleads.g.doubleclick.net/pagead/gcn_p3p_.xml\", CP=\"CURa ADMa DEVa TAIo PSAo PSDo OUR IND UNI PUR INT DEM STA PRE COM NAV OTC NOI DSP COR\"
timing-allow-origin: *
cross-origin-resource-policy: cross-origin
date: Tue, 21 Nov 2023 07:09:37 GMT
pragma: no-cache
expires: Fri, 01 Jan 1990 00:00:00 GMT
cache-control: no-cache, must-revalidate
location: https://www.google.com/pagead/1p-conversion/746851823/?random=972487881&cv=9&fst=1700550577396&num=1&npa=1&label=FO9RCN7V-pQYEO-bkOQC&guid=ON&resp=GooglemKTybQhCsO&eid=375603260%2C466465926%2C512247839&u_h=575&u_w=1313&u_ah=575&u_aw=1313&u_cd=24&u_his=4&u_tz=-360&u_java=false&u_nplug=0&u_nmime=0&sendb=1&ig=1&frm=2&url=https%3A%2F%2F8632166.fls.doubleclick.net%2Fddm%2Ffls%2Fr%2Fdc_pre%3DCMaSzcjE1IIDFdknigMd0tEOFQ%3Bsrc%3D8632166%3Btype%3Dlandi0%3Bcat%3Dunive0%3Bord%3D8244553646515%3Bauiddc%3D1181256846.1700550526%3Bu1%3D6262123%3Bu10%3Dhttps%253A%252F%252Fwww.kohls.com%252Fproduct%252Fprd-6262123%252Fjuniors-so-crewneck-sweater.jsp%253Fcolor%253DBlack%2526prdPV%253D1%2526isClearance%253Dfalse%3Bu11%3DJuniors%27%2520SO%25C2%25AE%2520Crewneck%2520Sweater%3Bu13%3Dnot%2520set%3Bu2%3Djuniors%27%2520so%25C2%25AE%2520crewneck%2520sweater%3Bu23%3DNew%2520Customer%3Bu24%3D79613869088917606480426504271561296302%3Bu25%3Dd38e961d-eee7-4879-8340-ea9482&ref=https%3A%2F%2F8632166.fls.doubleclick.net%2F&hn=www.googleadservices.com&fmt=3&ct_cookie_present=false&sscte=1&crd=&pscrd=IhMI183byMTUggMVghtoCB1FsARP&is_vtc=1&ocp_id=sVdcZZexGYK3oPMPxeCS-AQ&cid=CAQSGwDICaaNIj8w193TlbM6ZbaQRGwZDWviIz31OQ&random=3428169569&resp=GooglemKTybQhCsO
content-type: image/gif
x-content-type-options: nosniff
server: cafe
content-length: 42
x-xss-protection: 0
set-cookie: test_cookie=CheckForPermission; expires=Tue, 21-Nov-2023 07:24:37 GMT; path=/; domain=.doubleclick.net; Secure; SameSite=none
alt-svc: h3=\":443\"; ma=2592000,h3-29=\":443\"; ma=2592000
----
--Request 
GET https://eus.rubiconproject.com/usync.html
Host: eus.rubiconproject.com
sec-ch-ua: \"Not.A/Brand\";v=\"8\", \"Chromium\";v=\"114\"
sec-ch-ua-mobile: ?0
sec-ch-ua-platform: \"Linux\"
Upgrade-Insecure-Requests: 1
User-Agent: Mozilla/5.0 (X11; Linux x86_64) AppleWebKit/537.36 (KHTML, like Gecko) Chrome/114.0.0.0 Safari/537.36
Accept: text/html,application/xhtml+xml,application/xml;q=0.9,image/avif,image/webp,image/apng,*/*;q=0.8,application/signed-exchange;v=b3;q=0.7
Sec-Fetch-Site: cross-site
Sec-Fetch-Mode: navigate
Sec-Fetch-Dest: iframe
Referer: https://www.kohls.com/
Accept-Encoding: gzip, deflate, br
Accept-Language: en-US,en;q=0.9
----
--Response 
HTTP/1.1 200 OK
Server: Apache/2.2.15 (CentOS)
Last-Modified: Thu, 02 Nov 2023 19:57:23 GMT
ETag: \"280525-119-60930cbd3cec0\"
Accept-Ranges: bytes
Content-Encoding: gzip
Content-Length: 233
Content-Type: text/html; charset=UTF-8
Date: Tue, 21 Nov 2023 07:08:46 GMT
Vary: Accept-Encoding
----
--Request 
GET https://ib.adnxs.com/async_usersync?cbfn=queuePixels
Host: ib.adnxs.com
sec-ch-ua: \"Not.A/Brand\";v=\"8\", \"Chromium\";v=\"114\"
sec-ch-ua-mobile: ?0
User-Agent: Mozilla/5.0 (X11; Linux x86_64) AppleWebKit/537.36 (KHTML, like Gecko) Chrome/114.0.0.0 Safari/537.36
sec-ch-ua-platform: \"Linux\"
Accept: */*
Sec-Fetch-Site: same-site
Sec-Fetch-Mode: no-cors
Sec-Fetch-Dest: script
Referer: https://acdn.adnxs.com/
Accept-Encoding: gzip, deflate, br
Accept-Language: en-US,en;q=0.9
----
--Response 
HTTP/1.1 307
server: nginx/1.21.3
date: Tue, 21 Nov 2023 07:09:37 GMT
content-type: text/html; charset=utf-8
content-length: 0
cache-control: no-store, no-cache, private
pragma: no-cache
expires: Sat, 15 Nov 2008 16:00:00 GMT
p3p: policyref=\"http://cdn.adnxs-simple.com/w3c/policy/p3p.xml\", CP=\"NOI DSP COR ADM PSAo PSDo OURo SAMo UNRo OTRo BUS COM NAV DEM STA PRE\"
x-xss-protection: 0
accept-ch: Sec-CH-UA-Full-Version-List,Sec-CH-UA-Arch,Sec-CH-UA-Model,Sec-CH-UA-Platform-Version,Sec-CH-UA-Bitness
location: https://ib.adnxs.com/bounce?%2Fasync_usersync%3Fcbfn%3DqueuePixels
an-x-request-uuid: 27e80bb4-13d6-43ea-8f53-1aafe0254fdd
set-cookie: uuid2=3756591471884460327; SameSite=None; Path=/; Max-Age=7776000; Expires=Mon, 19-Feb-2024 07:09:37 GMT; Domain=.adnxs.com; Secure; HttpOnly
x-proxy-origin: 192.3.3.250; 192.3.3.250; 582.bm-nginx-loadbalancer.mgmt.nym2.adnexus.net; adnxs.com
----
--Request 
GET https://www.google.com/pagead/1p-conversion/746851823/?random=972487881&cv=9&fst=1700550577396&num=1&npa=1&label=FO9RCN7V-pQYEO-bkOQC&guid=ON&resp=GooglemKTybQhCsO&eid=375603260%2C466465926%2C512247839&u_h=575&u_w=1313&u_ah=575&u_aw=1313&u_cd=24&u_his=4&u_tz=-360&u_java=false&u_nplug=0&u_nmime=0&sendb=1&ig=1&frm=2&url=https%3A%2F%2F8632166.fls.doubleclick.net%2Fddm%2Ffls%2Fr%2Fdc_pre%3DCMaSzcjE1IIDFdknigMd0tEOFQ%3Bsrc%3D8632166%3Btype%3Dlandi0%3Bcat%3Dunive0%3Bord%3D8244553646515%3Bauiddc%3D1181256846.1700550526%3Bu1%3D6262123%3Bu10%3Dhttps%253A%252F%252Fwww.kohls.com%252Fproduct%252Fprd-6262123%252Fjuniors-so-crewneck-sweater.jsp%253Fcolor%253DBlack%2526prdPV%253D1%2526isClearance%253Dfalse%3Bu11%3DJuniors%27%2520SO%25C2%25AE%2520Crewneck%2520Sweater%3Bu13%3Dnot%2520set%3Bu2%3Djuniors%27%2520so%25C2%25AE%2520crewneck%2520sweater%3Bu23%3DNew%2520Customer%3Bu24%3D79613869088917606480426504271561296302%3Bu25%3Dd38e961d-eee7-4879-8340-ea9482&ref=https%3A%2F%2F8632166.fls.doubleclick.net%2F&hn=www.googleadservices.com&fmt=3&ct_cookie_present=false&sscte=1&crd=&pscrd=IhMI183byMTUggMVghtoCB1FsARP&is_vtc=1&ocp_id=sVdcZZexGYK3oPMPxeCS-AQ&cid=CAQSGwDICaaNIj8w193TlbM6ZbaQRGwZDWviIz31OQ&random=3428169569&resp=GooglemKTybQhCsO
Host: www.google.com
sec-ch-ua: \"Not.A/Brand\";v=\"8\", \"Chromium\";v=\"114\"
sec-ch-ua-mobile: ?0
User-Agent: Mozilla/5.0 (X11; Linux x86_64) AppleWebKit/537.36 (KHTML, like Gecko) Chrome/114.0.0.0 Safari/537.36
sec-ch-ua-platform: \"Linux\"
Accept: image/avif,image/webp,image/apng,image/svg+xml,image/*,*/*;q=0.8
Sec-Fetch-Site: cross-site
Sec-Fetch-Mode: no-cors
Sec-Fetch-Dest: image
Referer: https://8632166.fls.doubleclick.net/
Accept-Encoding: gzip, deflate, br
Accept-Language: en-US,en;q=0.9
----
--Response 
HTTP/1.1 200
p3p: policyref=\"https://www.googleadservices.com/pagead/p3p.xml\", CP=\"NOI DEV PSA PSD IVA IVD OTP OUR OTR IND OTC\"
timing-allow-origin: *
cross-origin-resource-policy: cross-origin
date: Tue, 21 Nov 2023 07:09:37 GMT
pragma: no-cache
expires: Fri, 01 Jan 1990 00:00:00 GMT
cache-control: no-cache, no-store, must-revalidate
content-type: image/gif
content-security-policy: script-src 'none'; object-src 'none'
x-content-type-options: nosniff
server: cafe
content-length: 42
x-xss-protection: 0
alt-svc: h3=\":443\"; ma=2592000,h3-29=\":443\"; ma=2592000
----
--Request 
GET https://ads.pubmatic.com/AdServer/js/user_sync.html?kdntuid=1&p=163274
Host: ads.pubmatic.com
sec-ch-ua: \"Not.A/Brand\";v=\"8\", \"Chromium\";v=\"114\"
sec-ch-ua-mobile: ?0
sec-ch-ua-platform: \"Linux\"
Upgrade-Insecure-Requests: 1
User-Agent: Mozilla/5.0 (X11; Linux x86_64) AppleWebKit/537.36 (KHTML, like Gecko) Chrome/114.0.0.0 Safari/537.36
Accept: text/html,application/xhtml+xml,application/xml;q=0.9,image/avif,image/webp,image/apng,*/*;q=0.8,application/signed-exchange;v=b3;q=0.7
Sec-Fetch-Site: cross-site
Sec-Fetch-Mode: navigate
Sec-Fetch-Dest: iframe
Referer: https://www.kohls.com/
Accept-Encoding: gzip, deflate, br
Accept-Language: en-US,en;q=0.9
----
--Response 
HTTP/1.1 200
server: Apache
last-modified: Thu, 16 Nov 2023 09:11:44 GMT
accept-ranges: bytes
content-encoding: gzip
p3p: CP=\"NOI DSP COR LAW CUR ADMo DEVo TAIo PSAo PSDo IVAo IVDo HISo OTPo OUR SAMo BUS UNI COM NAV INT DEM CNT STA PRE LOC\", CP=\"NOI DSP COR LAW CUR ADMo DEVo TAIo PSAo PSDo IVAo IVDo HISo OTPo OUR SAMo BUS UNI COM NAV INT DEM CNT STA PRE LOC\"
content-length: 5622
content-type: text/html
cache-control: max-age=59771
expires: Tue, 21 Nov 2023 23:44:57 GMT
date: Tue, 21 Nov 2023 07:08:46 GMT
vary: Accept-Encoding
----
--Request 
GET https://eb2.3lift.com/sync?
Host: eb2.3lift.com
sec-ch-ua: \"Not.A/Brand\";v=\"8\", \"Chromium\";v=\"114\"
sec-ch-ua-mobile: ?0
sec-ch-ua-platform: \"Linux\"
Upgrade-Insecure-Requests: 1
User-Agent: Mozilla/5.0 (X11; Linux x86_64) AppleWebKit/537.36 (KHTML, like Gecko) Chrome/114.0.0.0 Safari/537.36
Accept: text/html,application/xhtml+xml,application/xml;q=0.9,image/avif,image/webp,image/apng,*/*;q=0.8,application/signed-exchange;v=b3;q=0.7
Sec-Fetch-Site: cross-site
Sec-Fetch-Mode: navigate
Sec-Fetch-Dest: iframe
Referer: https://www.kohls.com/
Accept-Encoding: gzip, deflate, br
Accept-Language: en-US,en;q=0.9
----
--Response 
HTTP/1.1 302
date: Tue, 21 Nov 2023 07:09:37 GMT
content-length: 0
location: /sync?&ld=1
cache-control: no-cache, no-store, must-revalidate
p3p: policyref=\"http://cdn.3lift.com/w3c/p3p.xml\", CP=\"NON DSP COR NID OUR DEL SAM OTR UNR COM NAV INT DEM CNT STA PRE LOC OTC\"
set-cookie: tluid=3441302724651905623228; Path=/; Domain=.3lift.com; Max-Age=7776000; Expires=Mon, 19 Feb 2024 07:09:37 GMT; Secure; SameSite=None
----
--Request 
GET https://js-sec.indexww.com/um/ixmatch.html
Host: js-sec.indexww.com
sec-ch-ua: \"Not.A/Brand\";v=\"8\", \"Chromium\";v=\"114\"
sec-ch-ua-mobile: ?0
sec-ch-ua-platform: \"Linux\"
Upgrade-Insecure-Requests: 1
User-Agent: Mozilla/5.0 (X11; Linux x86_64) AppleWebKit/537.36 (KHTML, like Gecko) Chrome/114.0.0.0 Safari/537.36
Accept: text/html,application/xhtml+xml,application/xml;q=0.9,image/avif,image/webp,image/apng,*/*;q=0.8,application/signed-exchange;v=b3;q=0.7
Sec-Fetch-Site: cross-site
Sec-Fetch-Mode: navigate
Sec-Fetch-Dest: iframe
Referer: https://www.kohls.com/
Accept-Encoding: gzip, deflate, br
Accept-Language: en-US,en;q=0.9
----
--Response 
HTTP/1.1 200
date: Tue, 21 Nov 2023 07:08:46 GMT
content-type: text/html; charset=UTF-8
last-modified: Mon, 25 Jul 2022 19:18:19 GMT
p3p: policyref=\"/w3c/p3p.xml\", CP=\"NOI DSP COR DEVa TAIa OUR BUS UNI\"
cf-cache-status: HIT
age: 261
expires: Tue, 21 Nov 2023 11:08:46 GMT
cache-control: public, max-age=14400
vary: Accept-Encoding
server: cloudflare
cf-ray: 82971a756a63541f-YYZ
content-encoding: gzip
----
--Request 
GET https://eus.rubiconproject.com/usync.js
Host: eus.rubiconproject.com
sec-ch-ua: \"Not.A/Brand\";v=\"8\", \"Chromium\";v=\"114\"
sec-ch-ua-mobile: ?0
User-Agent: Mozilla/5.0 (X11; Linux x86_64) AppleWebKit/537.36 (KHTML, like Gecko) Chrome/114.0.0.0 Safari/537.36
sec-ch-ua-platform: \"Linux\"
Accept: */*
Sec-Fetch-Site: same-origin
Sec-Fetch-Mode: no-cors
Sec-Fetch-Dest: script
Referer: https://eus.rubiconproject.com/usync.html
Accept-Encoding: gzip, deflate, br
Accept-Language: en-US,en;q=0.9
----
--Response 
HTTP/1.1 200 OK
Server: Apache/2.2.15 (CentOS)
X-Powered-By: PHP/5.3.3
p3p: CP=\"NOI CURa ADMa DEVa TAIa OUR # BUS IND UNI COM NAV INT\"
Last-Modified: Tue, 21 Nov 2023 00:58:34 GMT
Content-Encoding: gzip
Content-Length: 13230
Content-Type: text/html; charset=UTF-8
Cache-Control: max-age=64238
Expires: Wed, 22 Nov 2023 00:59:24 GMT
Date: Tue, 21 Nov 2023 07:08:46 GMT
Vary: Accept-Encoding
----
--Request 
GET https://eb2.3lift.com/sync?&ld=1
Host: eb2.3lift.com
Upgrade-Insecure-Requests: 1
User-Agent: Mozilla/5.0 (X11; Linux x86_64) AppleWebKit/537.36 (KHTML, like Gecko) Chrome/114.0.0.0 Safari/537.36
Accept: text/html,application/xhtml+xml,application/xml;q=0.9,image/avif,image/webp,image/apng,*/*;q=0.8,application/signed-exchange;v=b3;q=0.7
Sec-Fetch-Site: cross-site
Sec-Fetch-Mode: navigate
Sec-Fetch-Dest: iframe
sec-ch-ua: \"Not.A/Brand\";v=\"8\", \"Chromium\";v=\"114\"
sec-ch-ua-mobile: ?0
sec-ch-ua-platform: \"Linux\"
Referer: https://www.kohls.com/
Accept-Encoding: gzip, deflate, br
Accept-Language: en-US,en;q=0.9
----
--Response 
HTTP/1.1 200
date: Tue, 21 Nov 2023 07:09:37 GMT
content-type: text/html; charset=utf-8
content-length: 0
cache-control: no-cache, no-store, must-revalidate
----

