--Request 
POST https://www.google-analytics.com/j/collect?v=1&_v=j101&a=38650888&t=pageview&_s=1&dl=https%3A%2F%2Fwww.kohls.com%2Fproduct%2Fprd-6262123%2Fjuniors-so-crewneck-sweater.jsp%3Fcolor%3DBlack%26prdPV%3D1%26isClearance%3Dfalse&ul=en-us&de=UTF-8&dt=Juniors%27%20SO%C2%AE%20Crewneck%20Sweater&sd=24-bit&sr=1313x575&vp=1298x447&je=0&_u=QCCAgAABAAAAACAAI~&jid=&gjid=&cid=1527107996.1700550526&tid=UA-45121696-1&_gid=1528984642.1700550527&_slc=1&cd2=d38e961d-eee7-4879-8340-ea94827e289a&cd4=&z=2056557000
Host: www.google-analytics.com
sec-ch-ua: \"Not.A/Brand\";v=\"8\", \"Chromium\";v=\"114\"
sec-ch-ua-platform: \"Linux\"
sec-ch-ua-mobile: ?0
User-Agent: Mozilla/5.0 (X11; Linux x86_64) AppleWebKit/537.36 (KHTML, like Gecko) Chrome/114.0.0.0 Safari/537.36
Content-Type: text/plain
Accept: */*
Origin: https://www.kohls.com
Sec-Fetch-Site: cross-site
Sec-Fetch-Mode: cors
Sec-Fetch-Dest: empty
Referer: https://www.kohls.com/
Accept-Encoding: gzip, deflate, br
Accept-Language: en-US,en;q=0.9
----
--Response 
HTTP/1.1 200
access-control-allow-origin: https://www.kohls.com
date: Tue, 21 Nov 2023 07:09:38 GMT
pragma: no-cache
expires: Fri, 01 Jan 1990 00:00:00 GMT
cache-control: no-cache, no-store, must-revalidate
last-modified: Sun, 17 May 1998 03:00:00 GMT
access-control-allow-credentials: true
x-content-type-options: nosniff
content-type: text/plain
cross-origin-resource-policy: cross-origin
server: Golfe2
content-length: 3
alt-svc: h3=\":443\"; ma=2592000,h3-29=\":443\"; ma=2592000
----
--Request 
GET https://js.cnnx.link/roi/cnxtag-min.js?id=31851
Host: js.cnnx.link
sec-ch-ua: \"Not.A/Brand\";v=\"8\", \"Chromium\";v=\"114\"
sec-ch-ua-mobile: ?0
User-Agent: Mozilla/5.0 (X11; Linux x86_64) AppleWebKit/537.36 (KHTML, like Gecko) Chrome/114.0.0.0 Safari/537.36
sec-ch-ua-platform: \"Linux\"
Accept: */*
Sec-Fetch-Site: cross-site
Sec-Fetch-Mode: no-cors
Sec-Fetch-Dest: script
Referer: https://www.kohls.com/
Accept-Encoding: gzip, deflate, br
Accept-Language: en-US,en;q=0.9
----
--Response 
HTTP/1.1 200
content-type: text/javascript;charset=UTF-8
cache-control: max-age=600
date: Tue, 21 Nov 2023 07:00:20 GMT
via: 1.1 google, 1.1 38ed7a81ebf68698e87cb5fd9ad4a3b2.cloudfront.net (CloudFront)
content-encoding: gzip
vary: Accept-Encoding
x-cache: Hit from cloudfront
x-amz-cf-pop: CMH68-P4
x-amz-cf-id: cNABBiAx8HGt93FPn2aj_o5Y8ihr7Ik1upeYxlF5NCA0kse3Ajho3g==
age: 507
----
--Request 
GET https://assets.adobedtm.com/6d2e783bbfe3/c0c47c5c96c6/7a8648cd60a8/RC84c0244d63da4c20a6c9df25193b3f80-source.min.js
Host: assets.adobedtm.com
sec-ch-ua: \"Not.A/Brand\";v=\"8\", \"Chromium\";v=\"114\"
sec-ch-ua-mobile: ?0
User-Agent: Mozilla/5.0 (X11; Linux x86_64) AppleWebKit/537.36 (KHTML, like Gecko) Chrome/114.0.0.0 Safari/537.36
sec-ch-ua-platform: \"Linux\"
Accept: */*
Sec-Fetch-Site: cross-site
Sec-Fetch-Mode: no-cors
Sec-Fetch-Dest: script
Referer: https://www.kohls.com/
Accept-Encoding: gzip, deflate, br
Accept-Language: en-US,en;q=0.9
----
--Response 
HTTP/1.1 200
accept-ranges: bytes
content-type: application/x-javascript
etag: \"c3f8eea087eda271fe3a803f1d4cfa06:1700078393.11621\"
last-modified: Wed, 15 Nov 2023 19:59:53 GMT
server: AkamaiNetStorage
vary: Accept-Encoding
content-encoding: gzip
cache-control: max-age=3600
expires: Tue, 21 Nov 2023 08:09:38 GMT
date: Tue, 21 Nov 2023 07:09:38 GMT
content-length: 293
access-control-allow-origin: https://www.kohls.com
timing-allow-origin: *
----
--Request 
GET https://www.google-analytics.com/collect?v=1&_v=j101&a=38650888&t=event&ni=1&_s=2&dl=https%3A%2F%2Fwww.kohls.com%2Fproduct%2Fprd-6262123%2Fjuniors-so-crewneck-sweater.jsp%3Fcolor%3DBlack%26prdPV%3D1%26isClearance%3Dfalse&ul=en-us&de=UTF-8&dt=Juniors%27%20SO%C2%AE%20Crewneck%20Sweater&sd=24-bit&sr=1313x575&vp=1298x447&je=0&ec=DY%20Smart%20Action&ea=%5BDY%20Backend%5D%20Adding%20cookie%20to%20HP%20Deep%20learning%20Recs&el=Experience%201%20(Variation%201)&_u=SCCAgAABAAAAACAAI~&jid=&gjid=&cid=1527107996.1700550526&tid=UA-45121696-1&_gid=1528984642.1700550527&cd2=d38e961d-eee7-4879-8340-ea94827e289a&cd4=&z=750568812
Host: www.google-analytics.com
sec-ch-ua: \"Not.A/Brand\";v=\"8\", \"Chromium\";v=\"114\"
sec-ch-ua-mobile: ?0
User-Agent: Mozilla/5.0 (X11; Linux x86_64) AppleWebKit/537.36 (KHTML, like Gecko) Chrome/114.0.0.0 Safari/537.36
sec-ch-ua-platform: \"Linux\"
Accept: image/avif,image/webp,image/apng,image/svg+xml,image/*,*/*;q=0.8
Sec-Fetch-Site: cross-site
Sec-Fetch-Mode: no-cors
Sec-Fetch-Dest: image
Referer: https://www.kohls.com/
Accept-Encoding: gzip, deflate, br
Accept-Language: en-US,en;q=0.9
----
--Response 
HTTP/1.1 200
access-control-allow-origin: *
pragma: no-cache
x-content-type-options: nosniff
cross-origin-resource-policy: cross-origin
server: Golfe2
content-length: 35
date: Tue, 21 Nov 2023 04:47:31 GMT
expires: Mon, 01 Jan 1990 00:00:00 GMT
cache-control: no-cache, no-store, must-revalidate
age: 8527
last-modified: Sun, 17 May 1998 03:00:00 GMT
content-type: image/gif
alt-svc: h3=\":443\"; ma=2592000,h3-29=\":443\"; ma=2592000
----
--Request 
GET https://www.google-analytics.com/collect?v=1&_v=j101&a=38650888&t=event&ni=1&_s=3&dl=https%3A%2F%2Fwww.kohls.com%2Fproduct%2Fprd-6262123%2Fjuniors-so-crewneck-sweater.jsp%3Fcolor%3DBlack%26prdPV%3D1%26isClearance%3Dfalse&ul=en-us&de=UTF-8&dt=Juniors%27%20SO%C2%AE%20Crewneck%20Sweater&sd=24-bit&sr=1313x575&vp=1298x447&je=0&ec=DY%20Smart%20Action&ea=%5BDY%20Backend%5D%20-%20Event%20for%20Rewards%20Enrollment&el=Experience%201%20(Variation%201)&_u=SCCAgAABAAAAACAAI~&jid=&gjid=&cid=1527107996.1700550526&tid=UA-45121696-1&_gid=1528984642.1700550527&cd2=d38e961d-eee7-4879-8340-ea94827e289a&cd4=&z=1245456065
Host: www.google-analytics.com
sec-ch-ua: \"Not.A/Brand\";v=\"8\", \"Chromium\";v=\"114\"
sec-ch-ua-mobile: ?0
User-Agent: Mozilla/5.0 (X11; Linux x86_64) AppleWebKit/537.36 (KHTML, like Gecko) Chrome/114.0.0.0 Safari/537.36
sec-ch-ua-platform: \"Linux\"
Accept: image/avif,image/webp,image/apng,image/svg+xml,image/*,*/*;q=0.8
Sec-Fetch-Site: cross-site
Sec-Fetch-Mode: no-cors
Sec-Fetch-Dest: image
Referer: https://www.kohls.com/
Accept-Encoding: gzip, deflate, br
Accept-Language: en-US,en;q=0.9
----
--Response 
HTTP/1.1 200
access-control-allow-origin: *
pragma: no-cache
x-content-type-options: nosniff
cross-origin-resource-policy: cross-origin
server: Golfe2
content-length: 35
date: Tue, 21 Nov 2023 04:47:31 GMT
expires: Mon, 01 Jan 1990 00:00:00 GMT
cache-control: no-cache, no-store, must-revalidate
age: 8527
last-modified: Sun, 17 May 1998 03:00:00 GMT
content-type: image/gif
alt-svc: h3=\":443\"; ma=2592000,h3-29=\":443\"; ma=2592000
----
--Request 
GET https://www.google-analytics.com/collect?v=1&_v=j101&a=38650888&t=event&ni=1&_s=4&dl=https%3A%2F%2Fwww.kohls.com%2Fproduct%2Fprd-6262123%2Fjuniors-so-crewneck-sweater.jsp%3Fcolor%3DBlack%26prdPV%3D1%26isClearance%3Dfalse&ul=en-us&de=UTF-8&dt=Juniors%27%20SO%C2%AE%20Crewneck%20Sweater&sd=24-bit&sr=1313x575&vp=1298x447&je=0&ec=DY%20Smart%20Action&ea=%5BDY%20Backend%5D%20-%20Home%20Store%20ID&el=Experience%201%20(Variation%201)&_u=SCCAgAABAAAAACAAI~&jid=&gjid=&cid=1527107996.1700550526&tid=UA-45121696-1&_gid=1528984642.1700550527&cd2=d38e961d-eee7-4879-8340-ea94827e289a&cd4=&z=1581152291
Host: www.google-analytics.com
sec-ch-ua: \"Not.A/Brand\";v=\"8\", \"Chromium\";v=\"114\"
sec-ch-ua-mobile: ?0
User-Agent: Mozilla/5.0 (X11; Linux x86_64) AppleWebKit/537.36 (KHTML, like Gecko) Chrome/114.0.0.0 Safari/537.36
sec-ch-ua-platform: \"Linux\"
Accept: image/avif,image/webp,image/apng,image/svg+xml,image/*,*/*;q=0.8
Sec-Fetch-Site: cross-site
Sec-Fetch-Mode: no-cors
Sec-Fetch-Dest: image
Referer: https://www.kohls.com/
Accept-Encoding: gzip, deflate, br
Accept-Language: en-US,en;q=0.9
----
--Response 
HTTP/1.1 200
access-control-allow-origin: *
pragma: no-cache
x-content-type-options: nosniff
cross-origin-resource-policy: cross-origin
server: Golfe2
content-length: 35
date: Tue, 21 Nov 2023 04:47:31 GMT
expires: Mon, 01 Jan 1990 00:00:00 GMT
cache-control: no-cache, no-store, must-revalidate
age: 8527
last-modified: Sun, 17 May 1998 03:00:00 GMT
content-type: image/gif
alt-svc: h3=\":443\"; ma=2592000,h3-29=\":443\"; ma=2592000
----
--Request 
GET https://www.google-analytics.com/collect?v=1&_v=j101&a=38650888&t=event&ni=1&_s=5&dl=https%3A%2F%2Fwww.kohls.com%2Fproduct%2Fprd-6262123%2Fjuniors-so-crewneck-sweater.jsp%3Fcolor%3DBlack%26prdPV%3D1%26isClearance%3Dfalse&ul=en-us&de=UTF-8&dt=Juniors%27%20SO%C2%AE%20Crewneck%20Sweater&sd=24-bit&sr=1313x575&vp=1298x447&je=0&ec=DY%20Smart%20Action&ea=%5BDY%20Backend%5D%20Sign-in%2FSign-up%20events%20updated&el=Experience%201%20(Variation%201)&_u=SCCAgAABAAAAACAAI~&jid=&gjid=&cid=1527107996.1700550526&tid=UA-45121696-1&_gid=1528984642.1700550527&cd2=d38e961d-eee7-4879-8340-ea94827e289a&cd4=&z=1331183968
Host: www.google-analytics.com
sec-ch-ua: \"Not.A/Brand\";v=\"8\", \"Chromium\";v=\"114\"
sec-ch-ua-mobile: ?0
User-Agent: Mozilla/5.0 (X11; Linux x86_64) AppleWebKit/537.36 (KHTML, like Gecko) Chrome/114.0.0.0 Safari/537.36
sec-ch-ua-platform: \"Linux\"
Accept: image/avif,image/webp,image/apng,image/svg+xml,image/*,*/*;q=0.8
Sec-Fetch-Site: cross-site
Sec-Fetch-Mode: no-cors
Sec-Fetch-Dest: image
Referer: https://www.kohls.com/
Accept-Encoding: gzip, deflate, br
Accept-Language: en-US,en;q=0.9
----
--Response 
HTTP/1.1 200
access-control-allow-origin: *
pragma: no-cache
x-content-type-options: nosniff
cross-origin-resource-policy: cross-origin
server: Golfe2
content-length: 35
date: Tue, 21 Nov 2023 04:47:31 GMT
expires: Mon, 01 Jan 1990 00:00:00 GMT
cache-control: no-cache, no-store, must-revalidate
age: 8527
last-modified: Sun, 17 May 1998 03:00:00 GMT
content-type: image/gif
alt-svc: h3=\":443\"; ma=2592000,h3-29=\":443\"; ma=2592000
----
--Request 
GET https://www.google-analytics.com/collect?v=1&_v=j101&a=38650888&t=event&ni=1&_s=6&dl=https%3A%2F%2Fwww.kohls.com%2Fproduct%2Fprd-6262123%2Fjuniors-so-crewneck-sweater.jsp%3Fcolor%3DBlack%26prdPV%3D1%26isClearance%3Dfalse&ul=en-us&de=UTF-8&dt=Juniors%27%20SO%C2%AE%20Crewneck%20Sweater&sd=24-bit&sr=1313x575&vp=1298x447&je=0&ec=DY%20Smart%20Action&ea=%5Bdy%20backend%5D%20aa%20vs%20dy&el=Experience%201%20(Variation%201)&_u=SCCAgAABAAAAACAAI~&jid=&gjid=&cid=1527107996.1700550526&tid=UA-45121696-1&_gid=1528984642.1700550527&cd2=d38e961d-eee7-4879-8340-ea94827e289a&cd4=&z=2140731217
Host: www.google-analytics.com
sec-ch-ua: \"Not.A/Brand\";v=\"8\", \"Chromium\";v=\"114\"
sec-ch-ua-mobile: ?0
User-Agent: Mozilla/5.0 (X11; Linux x86_64) AppleWebKit/537.36 (KHTML, like Gecko) Chrome/114.0.0.0 Safari/537.36
sec-ch-ua-platform: \"Linux\"
Accept: image/avif,image/webp,image/apng,image/svg+xml,image/*,*/*;q=0.8
Sec-Fetch-Site: cross-site
Sec-Fetch-Mode: no-cors
Sec-Fetch-Dest: image
Referer: https://www.kohls.com/
Accept-Encoding: gzip, deflate, br
Accept-Language: en-US,en;q=0.9
----
--Response 
HTTP/1.1 200
access-control-allow-origin: *
pragma: no-cache
x-content-type-options: nosniff
cross-origin-resource-policy: cross-origin
server: Golfe2
content-length: 35
date: Tue, 21 Nov 2023 04:47:31 GMT
expires: Mon, 01 Jan 1990 00:00:00 GMT
cache-control: no-cache, no-store, must-revalidate
age: 8527
last-modified: Sun, 17 May 1998 03:00:00 GMT
content-type: image/gif
alt-svc: h3=\":443\"; ma=2592000,h3-29=\":443\"; ma=2592000
----
--Request 
GET https://www.google-analytics.com/collect?v=1&_v=j101&a=38650888&t=event&ni=1&_s=7&dl=https%3A%2F%2Fwww.kohls.com%2Fproduct%2Fprd-6262123%2Fjuniors-so-crewneck-sweater.jsp%3Fcolor%3DBlack%26prdPV%3D1%26isClearance%3Dfalse&ul=en-us&de=UTF-8&dt=Juniors%27%20SO%C2%AE%20Crewneck%20Sweater&sd=24-bit&sr=1313x575&vp=1298x447&je=0&ec=DY%20Smart%20Action&ea=%5BDY%20Backend%5D%20Listen%20to%20A2C&el=Experience%201%20(Variation%201)&_u=SCCAgAABAAAAACAAI~&jid=&gjid=&cid=1527107996.1700550526&tid=UA-45121696-1&_gid=1528984642.1700550527&cd2=d38e961d-eee7-4879-8340-ea94827e289a&cd4=&z=278752680
Host: www.google-analytics.com
sec-ch-ua: \"Not.A/Brand\";v=\"8\", \"Chromium\";v=\"114\"
sec-ch-ua-mobile: ?0
User-Agent: Mozilla/5.0 (X11; Linux x86_64) AppleWebKit/537.36 (KHTML, like Gecko) Chrome/114.0.0.0 Safari/537.36
sec-ch-ua-platform: \"Linux\"
Accept: image/avif,image/webp,image/apng,image/svg+xml,image/*,*/*;q=0.8
Sec-Fetch-Site: cross-site
Sec-Fetch-Mode: no-cors
Sec-Fetch-Dest: image
Referer: https://www.kohls.com/
Accept-Encoding: gzip, deflate, br
Accept-Language: en-US,en;q=0.9
----
--Response 
HTTP/1.1 200
access-control-allow-origin: *
pragma: no-cache
x-content-type-options: nosniff
cross-origin-resource-policy: cross-origin
server: Golfe2
content-length: 35
date: Tue, 21 Nov 2023 04:47:31 GMT
expires: Mon, 01 Jan 1990 00:00:00 GMT
cache-control: no-cache, no-store, must-revalidate
age: 8527
last-modified: Sun, 17 May 1998 03:00:00 GMT
content-type: image/gif
alt-svc: h3=\":443\"; ma=2592000,h3-29=\":443\"; ma=2592000
----
--Request 
GET https://www.google-analytics.com/collect?v=1&_v=j101&a=38650888&t=event&ni=1&_s=8&dl=https%3A%2F%2Fwww.kohls.com%2Fproduct%2Fprd-6262123%2Fjuniors-so-crewneck-sweater.jsp%3Fcolor%3DBlack%26prdPV%3D1%26isClearance%3Dfalse&ul=en-us&de=UTF-8&dt=Juniors%27%20SO%C2%AE%20Crewneck%20Sweater&sd=24-bit&sr=1313x575&vp=1298x447&je=0&ec=DY%20Smart%20Action&ea=Previous%20PVs%20over%201%20(for%20audience)&el=Experience%201%20(Variation%201)&_u=SCCAgAABAAAAACAAI~&jid=&gjid=&cid=1527107996.1700550526&tid=UA-45121696-1&_gid=1528984642.1700550527&cd2=d38e961d-eee7-4879-8340-ea94827e289a&cd4=&z=1556595026
Host: www.google-analytics.com
sec-ch-ua: \"Not.A/Brand\";v=\"8\", \"Chromium\";v=\"114\"
sec-ch-ua-mobile: ?0
User-Agent: Mozilla/5.0 (X11; Linux x86_64) AppleWebKit/537.36 (KHTML, like Gecko) Chrome/114.0.0.0 Safari/537.36
sec-ch-ua-platform: \"Linux\"
Accept: image/avif,image/webp,image/apng,image/svg+xml,image/*,*/*;q=0.8
Sec-Fetch-Site: cross-site
Sec-Fetch-Mode: no-cors
Sec-Fetch-Dest: image
Referer: https://www.kohls.com/
Accept-Encoding: gzip, deflate, br
Accept-Language: en-US,en;q=0.9
----
--Response 
HTTP/1.1 200
access-control-allow-origin: *
pragma: no-cache
x-content-type-options: nosniff
cross-origin-resource-policy: cross-origin
server: Golfe2
content-length: 35
date: Tue, 21 Nov 2023 04:47:31 GMT
expires: Mon, 01 Jan 1990 00:00:00 GMT
cache-control: no-cache, no-store, must-revalidate
age: 8527
last-modified: Sun, 17 May 1998 03:00:00 GMT
content-type: image/gif
alt-svc: h3=\":443\"; ma=2592000,h3-29=\":443\"; ma=2592000
----
--Request 
GET https://cdn.taboola.com/libtrc/unip/1456663/tfa.js
Host: cdn.taboola.com
sec-ch-ua: \"Not.A/Brand\";v=\"8\", \"Chromium\";v=\"114\"
sec-ch-ua-mobile: ?0
User-Agent: Mozilla/5.0 (X11; Linux x86_64) AppleWebKit/537.36 (KHTML, like Gecko) Chrome/114.0.0.0 Safari/537.36
sec-ch-ua-platform: \"Linux\"
Accept: */*
Sec-Fetch-Site: cross-site
Sec-Fetch-Mode: no-cors
Sec-Fetch-Dest: script
Referer: https://www.kohls.com/
Accept-Encoding: gzip, deflate, br
Accept-Language: en-US,en;q=0.9
Cookie: t_pt_gid=e1309b8b-4e65-4c76-8ca5-bea736c3ef37-tuctc55dcff
----
--Response 
HTTP/1.1 200
x-amz-id-2: rcEiL3kJWzFOdQOfVAOFVwMrp2H0L7kvfjqfWnOYU1pCd4l/zoupgt6wZ6HBaTgAgGg/4Wnboyk=
x-amz-request-id: R7X1WP67FBFNAC4H
x-amz-replication-status: PENDING
last-modified: Sun, 19 Nov 2023 11:50:48 GMT
etag: \"023406f475def2d13462833c6f9bcafd\"
x-amz-server-side-encryption: AES256
x-amz-version-id: oAlAvmK9b0TWlTgxmZ.6sXCPu6qzRtH9
content-type: application/javascript; charset=utf-8
server: AmazonS3
content-encoding: gzip
accept-ranges: bytes
date: Tue, 21 Nov 2023 07:08:47 GMT
via: 1.1 varnish
age: 118
x-served-by: cache-ewr18142-EWR
x-cache: HIT
x-cache-hits: 1
x-timer: S1700550527.420570,VS0,VE1
cache-control: private,max-age=14401
vary: Accept-Encoding
abp: 71
access-control-allow-origin: *
content-length: 23526
----
--Request 
GET https://bat.bing.com/action/0?ti=4024145&tm=al001&Ver=2&mid=f3b8b0a2-f74b-4120-8c4c-996b3fe170fe&sid=ce3c5ea0883c11ee858a29be7baeeb0f&vid=ce3cb6c0883c11ee9c5d21bc71586f02&vids=0&msclkid=N&prodid=6262123&pagetype=product&en=Y&p=https%3A%2F%2Fwww.kohls.com%2Fproduct%2Fprd-6262123%2Fjuniors-so-crewneck-sweater.jsp&sw=1313&sh=575&sc=24&evt=custom&rn=89370
Host: bat.bing.com
sec-ch-ua: \"Not.A/Brand\";v=\"8\", \"Chromium\";v=\"114\"
sec-ch-ua-mobile: ?0
User-Agent: Mozilla/5.0 (X11; Linux x86_64) AppleWebKit/537.36 (KHTML, like Gecko) Chrome/114.0.0.0 Safari/537.36
sec-ch-ua-platform: \"Linux\"
Accept: image/avif,image/webp,image/apng,image/svg+xml,image/*,*/*;q=0.8
Sec-Fetch-Site: cross-site
Sec-Fetch-Mode: no-cors
Sec-Fetch-Dest: image
Referer: https://www.kohls.com/
Accept-Encoding: gzip, deflate, br
Accept-Language: en-US,en;q=0.9
----
--Response 
HTTP/1.1 204
cache-control: no-cache, must-revalidate
pragma: no-cache
expires: Fri, 01 Jan 1990 00:00:00 GMT
set-cookie: MUID=0BA45287655B62123494415764D16388; domain=.bing.com; expires=Sun, 15-Dec-2024 07:09:38 GMT; path=/; SameSite=None; Secure; Priority=High;
set-cookie: MR=0; domain=bat.bing.com; expires=Tue, 28-Nov-2023 07:09:38 GMT; path=/; SameSite=None; Secure;
strict-transport-security: max-age=31536000; includeSubDomains; preload
access-control-allow-origin: *
x-cache: CONFIG_NOCACHE
accept-ch: Sec-CH-UA-Arch, Sec-CH-UA-Bitness, Sec-CH-UA-Full-Version, Sec-CH-UA-Full-Version-List, Sec-CH-UA-Mobile, Sec-CH-UA-Model, Sec-CH-UA-Platform, Sec-CH-UA-Platform-Version
x-msedge-ref: Ref A: 975C9BA0AB174591B0A90552A4F43871 Ref B: EWR311000103027 Ref C: 2023-11-21T07:09:38Z
date: Tue, 21 Nov 2023 07:09:37 GMT
----
--Request 
GET https://assets.adobedtm.com/6d2e783bbfe3/c0c47c5c96c6/7a8648cd60a8/RC06328aa0bc0c48f29cbfa045675a420b-source.min.js
Host: assets.adobedtm.com
sec-ch-ua: \"Not.A/Brand\";v=\"8\", \"Chromium\";v=\"114\"
sec-ch-ua-mobile: ?0
User-Agent: Mozilla/5.0 (X11; Linux x86_64) AppleWebKit/537.36 (KHTML, like Gecko) Chrome/114.0.0.0 Safari/537.36
sec-ch-ua-platform: \"Linux\"
Accept: */*
Sec-Fetch-Site: cross-site
Sec-Fetch-Mode: no-cors
Sec-Fetch-Dest: script
Referer: https://www.kohls.com/
Accept-Encoding: gzip, deflate, br
Accept-Language: en-US,en;q=0.9
----
--Response 
HTTP/1.1 200
accept-ranges: bytes
content-type: application/x-javascript
etag: \"c3f8eea087eda271fe3a803f1d4cfa06:1700078393.11621\"
last-modified: Wed, 15 Nov 2023 19:59:53 GMT
server: AkamaiNetStorage
vary: Accept-Encoding
content-encoding: gzip
cache-control: max-age=3600
expires: Tue, 21 Nov 2023 08:08:43 GMT
date: Tue, 21 Nov 2023 07:08:43 GMT
content-length: 390
access-control-allow-origin: https://www.kohls.com
timing-allow-origin: *
----
--Request 
GET https://assets.adobedtm.com/6d2e783bbfe3/c0c47c5c96c6/7a8648cd60a8/RCc9206bee094e4fc1ac91cf03b05f4a6e-source.min.js
Host: assets.adobedtm.com
sec-ch-ua: \"Not.A/Brand\";v=\"8\", \"Chromium\";v=\"114\"
sec-ch-ua-mobile: ?0
User-Agent: Mozilla/5.0 (X11; Linux x86_64) AppleWebKit/537.36 (KHTML, like Gecko) Chrome/114.0.0.0 Safari/537.36
sec-ch-ua-platform: \"Linux\"
Accept: */*
Sec-Fetch-Site: cross-site
Sec-Fetch-Mode: no-cors
Sec-Fetch-Dest: script
Referer: https://www.kohls.com/
Accept-Encoding: gzip, deflate, br
Accept-Language: en-US,en;q=0.9
----
--Response 
HTTP/1.1 200
accept-ranges: bytes
content-type: application/x-javascript
etag: \"c3f8eea087eda271fe3a803f1d4cfa06:1700078393.11621\"
last-modified: Wed, 15 Nov 2023 19:59:53 GMT
server: AkamaiNetStorage
vary: Accept-Encoding
content-encoding: gzip
cache-control: max-age=3600
expires: Tue, 21 Nov 2023 08:08:43 GMT
date: Tue, 21 Nov 2023 07:08:43 GMT
content-length: 278
access-control-allow-origin: https://www.kohls.com
timing-allow-origin: *
----
--Request 
GET https://d.impactradius-event.com/A375953-1cd4-4523-a263-b5b3c8c11fb81.js
Host: d.impactradius-event.com
sec-ch-ua: \"Not.A/Brand\";v=\"8\", \"Chromium\";v=\"114\"
sec-ch-ua-mobile: ?0
User-Agent: Mozilla/5.0 (X11; Linux x86_64) AppleWebKit/537.36 (KHTML, like Gecko) Chrome/114.0.0.0 Safari/537.36
sec-ch-ua-platform: \"Linux\"
Accept: */*
Sec-Fetch-Site: cross-site
Sec-Fetch-Mode: no-cors
Sec-Fetch-Dest: script
Referer: https://www.kohls.com/
Accept-Encoding: gzip, deflate, br
Accept-Language: en-US,en;q=0.9
----
--Response 
HTTP/1.1 200
x-guploader-uploadid: ABPtcPqojSS7e4rmwD0TRoLMRyRop4yB-jt_vllOeaoai4G4JuoXoyVlFlEmydDm285xAaR7s9ybevt6uOpcCfQSfQ8CwJhRT1CC
x-goog-generation: 1698771581843852
x-goog-metageneration: 1
x-goog-stored-content-encoding: gzip
x-goog-stored-content-length: 14133
content-encoding: gzip
x-goog-hash: crc32c=1zoUsg==
x-goog-hash: md5=+2/gWIezDh0uOzuPA5NUKw==
x-goog-storage-class: MULTI_REGIONAL
accept-ranges: bytes
content-length: 14133
access-control-allow-origin: *
server: UploadServer
date: Tue, 21 Nov 2023 07:04:55 GMT
expires: Tue, 21 Nov 2023 07:09:55 GMT
cache-control: public,max-age=900,s-maxage=300
age: 229
last-modified: Tue, 31 Oct 2023 16:59:41 GMT
etag: \"fb6fe05887b30e1d2e3b3b8f0393542b\"
content-type: text/javascript; charset=utf-8
vary: Accept-Encoding
alt-svc: h3=\":443\"; ma=2592000,h3-29=\":443\"; ma=2592000
----
--Request 
GET https://trc.taboola.com/1456663/log/3/unip?ce=ecomm&en=PRODUCT_VIEW&ref=null&item-url=https%253A%252F%252Fwww.kohls.com%252Fproduct%252Fprd-6262123%252Fjuniors-so-crewneck-sweater.jsp%253Fcolor%253DBlack%2526prdPV%253D1%2526isClearance%253Dfalse&data=%257B%2522productIds%2522%253A%255B%252249387279%2522%252C%252249387272%2522%252C%252259642705%2522%252C%252249387265%2522%252C%252259642695%2522%252C%252259642725%2522%252C%252249387252%2522%252C%252259642685%2522%252C%252249387259%2522%252C%252259642715%2522%252C%252218820629%2522%252C%252249387280%2522%252C%252259642706%2522%252C%252249387273%2522%252C%252218820630%2522%252C%252249387266%2522%252C%252259642696%2522%252C%252249387260%2522%252C%252259642726%2522%252C%252249387253%2522%252C%252259642686%2522%252C%252259642716%2522%252C%252249387281%2522%252C%252249387274%2522%252C%252259642707%2522%252C%252218820631%2522%252C%252249387268%2522%252C%252249387261%2522%252C%252259642697%2522%252C%252249387254%2522%252C%252259642727%2522%252C%252259642687%2522%252C%252259642717%2522%252C%252249387282%2522%252C%252259642708%2522%252C%252249387275%2522%252C%252218820633%2522%252C%252249387262%2522%252C%252249387269%2522%252C%252259642698%2522%252C%252249387255%2522%252C%252259642728%2522%252C%252259642688%2522%252C%252259642718%2522%252C%252259642709%2522%252C%252249387276%2522%252C%252218820634%2522%252C%252249387270%2522%252C%252249387263%2522%252C%252259642699%2522%252C%252249387256%2522%252C%252259642729%2522%252C%252259642689%2522%252C%252259642719%2522%252C%252249387283%2522%252C%252249387278%2522%252C%252259642704%2522%252C%252218820635%2522%252C%252249387271%2522%252C%252259642734%2522%252C%252249387264%2522%252C%252259642694%2522%252C%252259642724%2522%252C%252249387258%2522%252C%252259642714%2522%252C%252249387284%2522%255D%252C%2522timestamp%2522%253A%252211%252F21%252F2023%2522%252C%2522eventType%2522%253A%2522PRODUCT_VIEW%2522%257D&cnxclid=undefined&tim=1700550578436&mrir=u&vi=1700550578426&sd=v2_064676155c6065c02a6b6a6d67eaf046_e1309b8b-4e65-4c76-8ca5-bea736c3ef37-tuctc55dcff_1700550527_1700550527_CNawjgYQl_RYGNST14W_MSABKAEw4QE4kaQOQNH4DkjKy9kDUPkDWABgAGju_62k_-mUqRZwAQ&ui=e1309b8b-4e65-4c76-8ca5-bea736c3ef37-tuctc55dcff&cv=20231119-2-RELEASE&tos=27039&ssd=2&scd=37&cbp=OneTrust&cbpv=1&cbcd=%2CC005%2CC0001%2CC0003%2CC006%2CC0004%2CC0002%2C
Host: trc.taboola.com
sec-ch-ua: \"Not.A/Brand\";v=\"8\", \"Chromium\";v=\"114\"
sec-ch-ua-mobile: ?0
User-Agent: Mozilla/5.0 (X11; Linux x86_64) AppleWebKit/537.36 (KHTML, like Gecko) Chrome/114.0.0.0 Safari/537.36
sec-ch-ua-platform: \"Linux\"
Accept: */*
Origin: https://www.kohls.com
Sec-Fetch-Site: cross-site
Sec-Fetch-Mode: cors
Sec-Fetch-Dest: empty
Referer: https://www.kohls.com/
Accept-Encoding: gzip, deflate, br
Accept-Language: en-US,en;q=0.9
Cookie: t_pt_gid=e1309b8b-4e65-4c76-8ca5-bea736c3ef37-tuctc55dcff
----
--Response 
HTTP/1.1 204
server: nginx
content-type: image/gif
p3p: policyref=\"http://trc.taboola.com/p3p.xml\", CP=\"NOI DSP COR LAW NID CURa ADMa DEVa PSAa PSDa OUR BUS IND UNI COM NAV INT DEM\"
access-control-allow-origin: https://www.kohls.com
access-control-allow-credentials: true
set-cookie: t_gid=e1309b8b-4e65-4c76-8ca5-bea736c3ef37-tuctc55dcff;Version=1;Path=/;Domain=.taboola.com;Expires=Wed, 20-Nov-2024 07:09:38 GMT;Max-Age=31536000;Secure;SameSite=None
set-cookie: t_pt_gid=e1309b8b-4e65-4c76-8ca5-bea736c3ef37-tuctc55dcff;Version=1;Path=/;Domain=.taboola.com;Expires=Wed, 20-Nov-2024 07:09:38 GMT;Max-Age=31536000;Secure;SameSite=None;Partitioned
cache-control: no-cache
pragma: no-cache
x-fastly-to-nlb-rtt: 19931
accept-ranges: bytes
date: Tue, 21 Nov 2023 07:09:38 GMT
via: 1.1 varnish
x-service-version: v1
x-served-by: cache-ewr18142-EWR
x-cache: MISS
x-cache-hits: 0
x-timer: S1700550579.525470,VS0,VE22
x-vcl-time-ms: 22
----
--Request 
GET https://assets.adobedtm.com/6d2e783bbfe3/c0c47c5c96c6/7a8648cd60a8/RCa497a7c139f540e9ae7e1d8022759087-source.min.js
Host: assets.adobedtm.com
sec-ch-ua: \"Not.A/Brand\";v=\"8\", \"Chromium\";v=\"114\"
sec-ch-ua-mobile: ?0
User-Agent: Mozilla/5.0 (X11; Linux x86_64) AppleWebKit/537.36 (KHTML, like Gecko) Chrome/114.0.0.0 Safari/537.36
sec-ch-ua-platform: \"Linux\"
Accept: */*
Sec-Fetch-Site: cross-site
Sec-Fetch-Mode: no-cors
Sec-Fetch-Dest: script
Referer: https://www.kohls.com/
Accept-Encoding: gzip, deflate, br
Accept-Language: en-US,en;q=0.9
----
--Response 
HTTP/1.1 200
accept-ranges: bytes
content-type: application/x-javascript
etag: \"c3f8eea087eda271fe3a803f1d4cfa06:1700078393.11621\"
last-modified: Wed, 15 Nov 2023 19:59:53 GMT
server: AkamaiNetStorage
vary: Accept-Encoding
content-encoding: gzip
cache-control: max-age=3600
expires: Tue, 21 Nov 2023 08:09:38 GMT
date: Tue, 21 Nov 2023 07:09:38 GMT
content-length: 557
access-control-allow-origin: https://www.kohls.com
timing-allow-origin: *
----

