--Request 
POST https://bf27853irn.bf.dynatrace.com/bf?type=js3&sn=v_4_srv_16_sn_7AE743F52EB51B2E022B722A8C61E6D6_app-3Acf6a6b14e494e621_1_ol_0_perc_100000_mul_1_rcs-3Acss_0&svrid=16&flavor=cors&vi=HKACFJCCPMSVWCKACRIACGLNTUQCKJQH-0&modifiedSince=1700241558551&rf=https%3A%2F%2Fwww.kohls.com%2Fcatalog%2Fwomens-sweaters-tops-clothing.jsp%3FCN%3DGender%3AWomens%2BProduct%3ASweaters%2BCategory%3ATops%2BDepartment%3AClothing%2BAssortment%3AKohls%2520Black%2520Friday%26BST%3D6262123%3A6237310%3A6149518%3A6125449%3A6149518%3A6176056%3A6119381%3A6438581%3A6143395%3A6125326%3A4922640%3A6169493%26icid%3Dhpmf-BF-offer-womenssweaters-vlhd26%26kls_sbp%3D79613869088917606480426504271561296302&bp=3&app=cf6a6b14e494e621&crc=4222141257&en=ldtlho0d&end=1
Host: bf27853irn.bf.dynatrace.com
sec-ch-ua: \"Not.A/Brand\";v=\"8\", \"Chromium\";v=\"114\"
sec-ch-ua-platform: \"Linux\"
sec-ch-ua-mobile: ?0
User-Agent: Mozilla/5.0 (X11; Linux x86_64) AppleWebKit/537.36 (KHTML, like Gecko) Chrome/114.0.0.0 Safari/537.36
Content-Type: text/plain;charset=UTF-8
Accept: */*
Origin: https://www.kohls.com
Sec-Fetch-Site: cross-site
Sec-Fetch-Mode: cors
Sec-Fetch-Dest: empty
Referer: https://www.kohls.com/
Accept-Encoding: gzip, deflate, br
Accept-Language: en-US,en;q=0.9
----
--Response 
HTTP/1.1 200
date: Tue, 21 Nov 2023 07:09:24 GMT
content-type: text/plain;charset=utf-8
content-length: 223
set-cookie: dtCookie=v_4_srv_7_sn_02093BB1B79F614BC303681DC664134F_perc_100000_ol_0_mul_1_app-3Aea7c4b59f27d43eb_1_rcs-3Acss_0; Path=/; Domain=.dynatrace.com
x-oneagent-js-injection: true
access-control-allow-origin: https://www.kohls.com
cache-control: no-cache
----
--Request 
GET https://media.kohlsimg.com/is/image/kohls/6262123_ALT?wid=240&hei=240&op_sharpen=1
Host: media.kohlsimg.com
sec-ch-ua: \"Not.A/Brand\";v=\"8\", \"Chromium\";v=\"114\"
sec-ch-ua-mobile: ?0
User-Agent: Mozilla/5.0 (X11; Linux x86_64) AppleWebKit/537.36 (KHTML, like Gecko) Chrome/114.0.0.0 Safari/537.36
sec-ch-ua-platform: \"Linux\"
Accept: image/avif,image/webp,image/apng,image/svg+xml,image/*,*/*;q=0.8
Sec-Fetch-Site: cross-site
Sec-Fetch-Mode: no-cors
Sec-Fetch-Dest: image
Referer: https://www.kohls.com/
Accept-Encoding: gzip, deflate, br
Accept-Language: en-US,en;q=0.9
----
--Response 
HTTP/1.1 200
access-control-allow-origin: *
last-modified: Wed, 27 Sep 2023 04:43:52 GMT
etag: \"41f272091f887b81775bb24c73222d72\"
-x-adobe-smart-imaging: 2088
timing-allow-origin: *
-x-adobe-assetlist: [kohls/6262123_ALT]
server: Unknown
strict-transport-security: max-age=31536000; includeSubDomains
content-type: image/webp
content-length: 5490
expires: Sat, 25 Nov 2023 11:10:13 GMT
date: Tue, 21 Nov 2023 07:09:25 GMT
akamai-grn: 0.2e10de17.1700550565.407b1a6
----

