--Request 
POST https://analytics.tiktok.com/api/v2/pixel/act
Host: analytics.tiktok.com
sec-ch-ua: \"Not.A/Brand\";v=\"8\", \"Chromium\";v=\"114\"
sec-ch-ua-platform: \"Linux\"
sec-ch-ua-mobile: ?0
User-Agent: Mozilla/5.0 (X11; Linux x86_64) AppleWebKit/537.36 (KHTML, like Gecko) Chrome/114.0.0.0 Safari/537.36
Content-Type: text/plain;charset=UTF-8
Accept: */*
Origin: https://www.kohls.com
Sec-Fetch-Site: cross-site
Sec-Fetch-Mode: no-cors
Sec-Fetch-Dest: empty
Referer: https://www.kohls.com/
Accept-Encoding: gzip, deflate, br
Accept-Language: en-US,en;q=0.9
----
--Response 
HTTP/1.1 200
server: nginx
content-length: 0
access-control-allow-headers: Authorization,*
access-control-allow-methods: GET,POST,PUT,PATCH,DELETE,HEAD,OPTIONS,UPDATE
access-control-allow-origin: *
x-tt-logid: 20231121071005F6109F07EB8A7AEBD64E
x-tt-trace-host: 0108b4541b3bf73b144eb940f80f5a5656e15c1c84ddbaea1eca88d17a13fef1f16fdd93c444ab350e31fe01036da714fe4ca685e7cc38c63c7ccb3b20f8724c4873502425e11c9704cddc10690bc9f0301e0d478157650f44f26b9346aadc4d8f1a0df86aface890a28aaa68a8ef70982
x-origin-response-time: 20,23.48.100.41
x-akamai-request-id: c28a10fb.1142e998
expires: Tue, 21 Nov 2023 07:10:05 GMT
cache-control: max-age=0, no-cache, no-store
pragma: no-cache
date: Tue, 21 Nov 2023 07:10:05 GMT
x-cache: TCP_MISS from a23-208-27-22.deploy.akamaitechnologies.com (AkamaiGHost/11.3.2.1-52518411) (-)
x-cache-remote: TCP_MISS from a23-48-100-41.deploy.akamaitechnologies.com (AkamaiGHost/11.3.2.1-52518411) (-)
x-tt-trace-tag: id=16;cdn-cache=miss;type=dyn
server-timing: cdn-cache; desc=MISS, edge; dur=16, origin; dur=20
server-timing: inner; dur=18
x-parent-response-time: 29,23.208.27.22
----

