--Request 
POST https://analytics.google.com/g/collect?v=2&tid=G-ZLYRBY87M8&gtm=45je3b81v890339144&_p=1700550560726&gcd=11l1l1l1l1&dma=0&cid=1527107996.1700550526&ul=en-us&sr=1313x575&uaa=x86&uab=64&uafvl=Not.A%252FBrand%3B8.0.0.0%7CChromium%3B114.0.5735.199&uamb=0&uam=&uap=Linux&uapv=5.15.0&uaw=0&_s=2&sid=1700550526&sct=1&seg=1&dl=https%3A%2F%2Fwww.kohls.com%2Fcatalog%2Fwomens-sweaters-tops-clothing.jsp%3FCN%3DGender%3AWomens%2BProduct%3ASweaters%2BCategory%3ATops%2BDepartment%3AClothing%2BAssortment%3AKohls%2520Black%2520Friday%26BST%3D6262123%3A6237310%3A6149518%3A6125449%3A6149518%3A6176056%3A6119381%3A6438581%3A6143395%3A6125326%3A4922640%3A6169493%26icid%3Dhpmf-BF-offer-womenssweaters-vlhd26%26kls_sbp%3D79613869088917606480426504271561296302&dr=https%3A%2F%2Fwww.kohls.com%2F&dt=Womens%20Sweaters%20-%20Tops%2C%20Clothing%20%7C%20Kohl%27s&en=user_engagement&ep.debug_mode=true&_et=5109&tfd=16464
Host: analytics.google.com
sec-ch-ua: \"Not.A/Brand\";v=\"8\", \"Chromium\";v=\"114\"
sec-ch-ua-mobile: ?0
User-Agent: Mozilla/5.0 (X11; Linux x86_64) AppleWebKit/537.36 (KHTML, like Gecko) Chrome/114.0.0.0 Safari/537.36
sec-ch-ua-platform: \"Linux\"
Accept: */*
Origin: https://www.kohls.com
Sec-Fetch-Site: cross-site
Sec-Fetch-Mode: no-cors
Sec-Fetch-Dest: empty
Referer: https://www.kohls.com/
Accept-Encoding: gzip, deflate, br
Accept-Language: en-US,en;q=0.9
----
--Response 
HTTP/1.1 204
access-control-allow-origin: https://www.kohls.com
date: Tue, 21 Nov 2023 07:09:27 GMT
pragma: no-cache
expires: Fri, 01 Jan 1990 00:00:00 GMT
cache-control: no-cache, no-store, must-revalidate
access-control-allow-credentials: true
content-type: text/plain
cross-origin-resource-policy: cross-origin
server: Golfe2
content-length: 0
alt-svc: h3=\":443\"; ma=2592000,h3-29=\":443\"; ma=2592000
----

