--Request 
POST https://analytics.tiktok.com/api/v2/pixel/act
Host: analytics.tiktok.com
sec-ch-ua: \"Not.A/Brand\";v=\"8\", \"Chromium\";v=\"114\"
sec-ch-ua-platform: \"Linux\"
sec-ch-ua-mobile: ?0
User-Agent: Mozilla/5.0 (X11; Linux x86_64) AppleWebKit/537.36 (KHTML, like Gecko) Chrome/114.0.0.0 Safari/537.36
Content-Type: text/plain;charset=UTF-8
Accept: */*
Origin: https://www.kohls.com
Sec-Fetch-Site: cross-site
Sec-Fetch-Mode: no-cors
Sec-Fetch-Dest: empty
Referer: https://www.kohls.com/
Accept-Encoding: gzip, deflate, br
Accept-Language: en-US,en;q=0.9
----
--Response 
HTTP/1.1 200
server: nginx
content-length: 0
access-control-allow-headers: Authorization,*
access-control-allow-methods: GET,POST,PUT,PATCH,DELETE,HEAD,OPTIONS,UPDATE
access-control-allow-origin: *
x-tt-logid: 202311210709262661E72F1D4E649D300D
server-timing: inner; dur=24
server-timing: cdn-cache; desc=MISS, edge; dur=9, origin; dur=32
x-tt-trace-host: 0108b4541b3bf73b144eb940f80f5a56568810cd8446c719b87581fa430c3a66360d46585964fc28777b9bddcdd21164331cb2a9df63f9996599aa2eb2ea8b36f693fb8306533a20da06f291cb65d4bf7162be3ed09aada912d7c6ff7d593ae747
expires: Tue, 21 Nov 2023 07:09:26 GMT
cache-control: max-age=0, no-cache, no-store
pragma: no-cache
date: Tue, 21 Nov 2023 07:09:26 GMT
x-cache: TCP_MISS from a23-208-27-22.deploy.akamaitechnologies.com (AkamaiGHost/11.3.2.1-52518411) (-)
x-tt-trace-tag: id=16;cdn-cache=miss;type=dyn
x-origin-response-time: 34,23.208.27.22
x-akamai-request-id: 1142c233
----

