--Request 
POST https://d9.flashtalking.com/lgc
Host: d9.flashtalking.com
sec-ch-ua: \"Not.A/Brand\";v=\"8\", \"Chromium\";v=\"114\"
sec-ch-ua-platform: \"Linux\"
sec-ch-ua-mobile: ?0
User-Agent: Mozilla/5.0 (X11; Linux x86_64) AppleWebKit/537.36 (KHTML, like Gecko) Chrome/114.0.0.0 Safari/537.36
Content-Type: application/x-www-form-urlencoded
Accept: */*
Origin: https://servedby.flashtalking.com
Sec-Fetch-Site: same-site
Sec-Fetch-Mode: cors
Sec-Fetch-Dest: empty
Referer: https://servedby.flashtalking.com/
Accept-Encoding: gzip, deflate, br
Accept-Language: en-US,en;q=0.9
----
--Response 
HTTP/1.1 200
Access-Control-Allow-Credentials: true
Access-Control-Allow-Methods: GET,POST,SERVER
Access-Control-Allow-Origin: https://servedby.flashtalking.com
Content-Type: application/json;charset=ISO-8859-1
Date: Tue, 21 Nov 2023 07:10:05 GMT
P3P: policyref=\"localhost/w3c/D9_p3p_.xml\", CP=\"NON DSP ADM DEV PSD IVDo OTPi OUR IND STP PHY PRE NAV UNI\"
Server: Apache/2.4.52 () OpenSSL/1.0.2k-fips
set-cookie: _D9J=9a89e2bf96464efdba1642792e40bdfb; path=/; Max-Age=31536000; Expires=Wed, 20-Nov-2024 07:10:06 UTC; SameSite=None;Secure;Domain=flashtalking.com
Content-Length: 103
Connection: keep-alive
----
--Request 
GET https://trc.taboola.com/1456663/trc/3/json?tim=1700550606161&data=%7B%22id%22%3A303%2C%22ii%22%3A%22%2Fcheckout%2Fshopping_cart.jsp%22%2C%22it%22%3A%22video%22%2C%22sd%22%3A%22v2_064676155c6065c02a6b6a6d67eaf046_e1309b8b-4e65-4c76-8ca5-bea736c3ef37-tuctc55dcff_1700550527_1700550527_CNawjgYQl_RYGNST14W_MSABKAEw4QE4kaQOQNH4DkjKy9kDUPkDWABgAGju_62k_-mUqRZwAQ%22%2C%22ui%22%3A%22e1309b8b-4e65-4c76-8ca5-bea736c3ef37-tuctc55dcff%22%2C%22vi%22%3A1700550606146%2C%22cv%22%3A%2220231119-2-RELEASE%22%2C%22uiv%22%3A%22default%22%2C%22u%22%3A%22https%3A%2F%2Fwww.kohls.com%2Fcheckout%2Fshopping_cart.jsp%3F%22%2C%22e%22%3A%22https%3A%2F%2Fwww.kohls.com%2Fproduct%2Fprd-6262123%2Fjuniors-so-crewneck-sweater.jsp%3Fcolor%3DBlack%26prdPV%3D1%26isClearance%3Dfalse%22%2C%22cb%22%3A%22TFASC.trkCallback%22%2C%22qs%22%3A%22%22%2C%22r%22%3A%5B%7B%22li%22%3A%22rbox-tracking%22%2C%22s%22%3A0%2C%22uim%22%3A%22rbox-tracking%3Apub%3Dkohlsnew-sccnx%3Aabp%3D0%22%2C%22uip%22%3A%22rbox-tracking%22%2C%22orig_uip%22%3A%22rbox-tracking%22%7D%5D%2C%22cbp%22%3A%22OneTrust%22%2C%22cbpv%22%3A%221%22%2C%22cbcd%22%3A%22%2CC005%2CC0001%2CC0003%2CC006%2CC0004%2CC0002%2C%22%2C%22mpvd%22%3A%7B%22en%22%3A%22page_view%22%2C%22item-url%22%3A%22https%3A%2F%2Fwww.kohls.com%2Fcheckout%2Fshopping_cart.jsp%22%2C%22tim%22%3A1700550606155%2C%22ref%22%3A%22https%3A%2F%2Fwww.kohls.com%2Fproduct%2Fprd-6262123%2Fjuniors-so-crewneck-sweater.jsp%3Fcolor%3DBlack%26prdPV%3D1%26isClearance%3Dfalse%22%2C%22tos%22%3A45497%2C%22ssd%22%3A2%2C%22scd%22%3A37%7D%7D&pubit=i
Host: trc.taboola.com
sec-ch-ua: \"Not.A/Brand\";v=\"8\", \"Chromium\";v=\"114\"
sec-ch-ua-mobile: ?0
User-Agent: Mozilla/5.0 (X11; Linux x86_64) AppleWebKit/537.36 (KHTML, like Gecko) Chrome/114.0.0.0 Safari/537.36
sec-ch-ua-platform: \"Linux\"
Accept: */*
Sec-Fetch-Site: cross-site
Sec-Fetch-Mode: no-cors
Sec-Fetch-Dest: script
Referer: https://www.kohls.com/
Accept-Encoding: gzip, deflate, br
Accept-Language: en-US,en;q=0.9
Cookie: t_pt_gid=e1309b8b-4e65-4c76-8ca5-bea736c3ef37-tuctc55dcff
----
--Response 
HTTP/1.1 200
server: nginx
content-type: application/javascript; charset=utf-8
p3p: policyref=\"http://trc.taboola.com/p3p.xml\", CP=\"NOI DSP COR LAW NID CURa ADMa DEVa PSAa PSDa OUR BUS IND UNI COM NAV INT DEM\"
access-control-allow-origin: *
access-control-allow-credentials: true
set-cookie: t_gid=e1309b8b-4e65-4c76-8ca5-bea736c3ef37-tuctc55dcff;Version=1;Path=/;Domain=.taboola.com;Expires=Wed, 20-Nov-2024 07:10:06 GMT;Max-Age=31536000;Secure;SameSite=None
set-cookie: t_pt_gid=e1309b8b-4e65-4c76-8ca5-bea736c3ef37-tuctc55dcff;Version=1;Path=/;Domain=.taboola.com;Expires=Wed, 20-Nov-2024 07:10:06 GMT;Max-Age=31536000;Secure;SameSite=None;Partitioned
set-cookie: taboola_session_id=v2_064676155c6065c02a6b6a6d67eaf046_e1309b8b-4e65-4c76-8ca5-bea736c3ef37-tuctc55dcff_1700550527_1700550606_CNawjgYQl_RYGML624W_MSACKAEw4QE4kaQOQNH4DkjKy9kDUPkDWABgAGju_62k_-mUqRZwAQ;Version=1;Path=/kohlsnew-sccnx/;Domain=.taboola.com;Secure;SameSite=None
cpu: 0.19999999999999998
x-fastly-to-nlb-rtt: 19845
content-encoding: gzip
x-log-content-encoding: gzip
accept-ranges: bytes
date: Tue, 21 Nov 2023 07:10:06 GMT
via: 1.1 varnish
x-service-version: v1
x-served-by: cache-ewr18142-EWR
x-cache: MISS
x-cache-hits: 0
x-timer: S1700550606.185596,VS0,VE30
vary: Accept-Encoding
x-vcl-time-ms: 30
----
--Request 
GET https://servedby.flashtalking.com/track/11971;1479;403;17005506-0612-879F-B8E2-8A08942CA6B2/?ft_data=d9:53f4b842bef745acae01973a7831ddaa;d9s:53f4b842bef745acae01973a7831ddaa&cachebuster=783768.307471416
Host: servedby.flashtalking.com
sec-ch-ua: \"Not.A/Brand\";v=\"8\", \"Chromium\";v=\"114\"
sec-ch-ua-mobile: ?0
User-Agent: Mozilla/5.0 (X11; Linux x86_64) AppleWebKit/537.36 (KHTML, like Gecko) Chrome/114.0.0.0 Safari/537.36
sec-ch-ua-platform: \"Linux\"
Accept: image/avif,image/webp,image/apng,image/svg+xml,image/*,*/*;q=0.8
Sec-Fetch-Site: same-origin
Sec-Fetch-Mode: no-cors
Sec-Fetch-Dest: image
Referer: https://servedby.flashtalking.com/container/1638;11971;1479;iframe/?spotName=Shopping_Cart&U3=79613869088917606480426504271561296302&U4=6262123&U6=14.99&U7=d38e961d-eee7-4879-8340-ea94827e289a&U10=14201&cachebuster=75155
Accept-Encoding: gzip, deflate, br
Accept-Language: en-US,en;q=0.9
----
--Response 
HTTP/1.1 200 OK
Content-Type: image/gif
Content-Length: 42
Server: prod-xre-app25.ash11
Expires: Tue, 21 Nov 2023 07:10:06 GMT
Cache-Control: max-age=0, no-cache, no-store
Pragma: no-cache
Date: Tue, 21 Nov 2023 07:10:06 GMT
Connection: keep-alive
Strict-Transport-Security: max-age=86400
----

