--Request 
GET https://www.kohls.com/content/shipping-banner.html
Host: www.kohls.com
sec-ch-ua: \"Not.A/Brand\";v=\"8\", \"Chromium\";v=\"114\"
Accept: text/html, */*; q=0.01
X-Requested-With: XMLHttpRequest
sec-ch-ua-mobile: ?0
User-Agent: Mozilla/5.0 (X11; Linux x86_64) AppleWebKit/537.36 (KHTML, like Gecko) Chrome/114.0.0.0 Safari/537.36
sec-ch-ua-platform: \"Linux\"
Sec-Fetch-Site: same-origin
Sec-Fetch-Mode: cors
Sec-Fetch-Dest: empty
Referer: https://www.kohls.com/catalog/womens-sweaters-tops-clothing.jsp?CN=Gender:Womens+Product:Sweaters+Category:Tops+Department:Clothing+Assortment:Kohls%20Black%20Friday&BST=6262123:6237310:6149518:6125449:6149518:6176056:6119381:6438581:6143395:6125326:4922640:6169493&icid=hpmf-BF-offer-womenssweaters-vlhd26&kls_sbp=79613869088917606480426504271561296302
Accept-Encoding: gzip, deflate, br
Accept-Language: en-US,en;q=0.9
Cookie: store_location=14201; akaalb_aem_homepage=~op=aem_production:aem_production|~rv=79~m=aem_production:0|~os=554fb49c1bda6073578f281b62264a0e~id=e5d8d097120eff09512a425189fcc66f; AKA_HP2Redesign=True; AKA_PIQ=True; AKA_ACM=True; AKA_CDP2=True; AKA_STP=false; AKA_PDP2=True; AKA_HP2=True; AKA_CNC2=True; AKA_RV6=12; AKA_RV8=72; AKA_RV4=57; AKA_RV5=23; AKA_RV3=95; AKA_RV=96; AKA_RV2=35; akacd_www-kohls-com-mosaic-p2=2177452799~rv=61~id=f2bfd608ff6bd75e278febb90f5bdcd7; at_check=true; s_ecid=MCMID%7C79613869088917606480426504271561296302; AMCVS_F0EF5E09512D2CD20A490D4D%40AdobeOrg=1; mboxEdgeCluster=35; AMCV_F0EF5E09512D2CD20A490D4D%40AdobeOrg=1585540135%7CMCIDTS%7C19683%7CMCMID%7C79613869088917606480426504271561296302%7CMCAID%7CNONE%7CMCOPTOUT-1700557721s%7CNONE%7CMCAAMLH-1701155321%7C7%7CMCAAMB-1701155321%7Cj8Odv6LonN4r3an7LhD3WZrU1bUpAkFkkiY1ncBR96t2PTI%7CMCSYNCS%7C1083-19690*1085-19690*1086-19690*1087-19690*1088-19690%7CMCSYNCSOP%7C411-19690%7CvVersion%7C4.4.0; rxVisitor=170055052197696JCFOBUP2E8LGBETNI04FF2IPU7PHBL; X-SESSIONID=d38e961d-eee7-4879-8340-ea94827e289a; VisitorId=d38e961d-eee7-4879-8340-ea94827e289a; K_favstore=14216|1306|BUFFALO|geo|sephora; spa=4; _dy_csc_ses=t; _dy_c_exps=; gpv_v9=Homepage; s_cc=true; _dycnst=dg; _uetsid=ce3c5ea0883c11ee858a29be7baeeb0f; _uetvid=ce3cb6c0883c11ee9c5d21bc71586f02; fp_client={%22id%22:%2229475071191700550523%22}; fp_session={%22i%22:%2288215330731700550523%22%2C%22d%22:1}; _dyid=-2796735126378358917; _dyfs=1700550523505; _dyjsession=cdc731762c4fbfb825c00a0125c71e79; dy_fs_page=www.kohls.com; _dy_lu_ses=cdc731762c4fbfb825c00a0125c71e79%3A1700550523506; _dycst=dk.l.c.ms.; _dy_geo=US.NA.US_MI.US_MI_Detroit; _dy_df_geo=United%20States.Michigan.Detroit; _dy_toffset=0; _rmt_an_idt=0; _mibhv=anon-1700550524031-5332320748_8212; _cs_c=0; IR_gbd=kohls.com; IR_5349=1700550524310%7C385561%7C1700550524310%7C%7C; _cs_cvars=%7B%221%22%3A%5B%22Page%20Name%22%2C%22Homepage%22%5D%2C%227%22%3A%5B%22Page%20Type%22%2C%22Homepage%22%5D%7D; _cs_id=adc880fd-d93e-ac59-cc5b-3c04e82d2b4b.1700550524.1.1700550524.1700550524.1588866862.1734714524445; IR_PI=cece5d75-883c-11ee-b347-d5b679c63de5%7C1700636924310; _cs_s=1.5.1.1700552324776; _pin_unauth=dWlkPVpEUXlNbU5sWm1JdE1XWmlZaTAwT1RjekxXSTVaakl0TURFNFpEQTJNalJqT0dJNQ; _fbp=fb.1.1700550525180.1119580522; _tt_enable_cookie=1; _ttp=aSHtu_gIQ09zwUi9iOI7iCWyAR-; _scid=1f04d67b-8a21-463f-ac1c-fe88de60033f; _scid_r=1f04d67b-8a21-463f-ac1c-fe88de60033f; _gcl_au=1.1.1181256846.1700550526; _evga_ce07={%22uuid%22:%220e4971bddb246461%22}; _sfid_6ab3={%22anonymousId%22:%220e4971bddb246461%22%2C%22consents%22:[]}; _ga_ZLYRBY87M8=GS1.1.1700550526.1.0.1700550526.60.0.0; __gads=ID=3c394970cb55450f:T=1700550526:RT=1700550526:S=ALNI_MbrJ3X_hGpSImvZMLI5SV9-34drNA; __gpi=UID=00000a00a9f90471:T=1700550526:RT=1700550526:S=ALNI_Ma8ugF9cZmpsonvpd3LpCjHvE5AkQ; _ga=GA1.2.1527107996.1700550526; _gid=GA1.2.1528984642.1700550527; _gat=1; _sctr=1%7C1700546400000; _dpm_ses.f2d1=*; _dpm_id.f2d1=0ef65a2f-e6a7-43f4-a1c7-c0d82ed29395.1700550532.1.1700550532.1700550532.a24e90a1-e57d-4467-afd8-a703310265c8; _li_dcdm_c=.kohls.com; _lc2_fpi=0b10d8358f40--01hfrbbpry1av2w5z5mhth4cen; _lc2_fpi_meta={%22w%22:1700550531870}; _dyid_server=-2796735126378358917; _li_ss=CjYKBQgKEMYWCgYI3QEQxhYKBgiBARDGFgoGCKIBEMYWCgYIiwEQxhYKBgjSARDGFgoFCH4QxhY; _li_ss_meta={%22w%22:1700550532279%2C%22e%22:1703142532279}; s_sq=kohlscomprod%3D%2526c.%2526a.%2526activitymap.%2526page%253Dhomepage%2526link%253D12%25252074%252520with%25252015%252525%252520off%252520coupon%25252A%252520Sweaters%252520for%252520women%252520and%252520juniors.%252520Select%252520styles.%252520Sale%252520%25252414.99%25252C%252520Reg.%252520%25252430-%25252440.%252520Shop%252520Women%2525E2%252580%252599s%252520%252526%252520Juniors%2525E2%252580%252599%252520Swe%2526region%253Dhp-equity01%2526pageIDType%253D1%2526.activitymap%2526.a%2526.c%2526pid%253DHomepage%2526pidt%253D1%2526oid%253Dhttps%25253A%25252F%25252Fwww.kohls.com%25252Fcatalog%25252Fwomens-sweaters-tops-clothing.jsp%25253FCN%25253DGender%25253AWomens%25252BProduct%25253ASweaters%25252BCa%2526ot%253DA; kls_p=true; 362fd180cb7a77f64919ee892a4d9d35=7191fc42ec960804587d38331d7dd83d; ak_bmsc=721A085A5E4C790A5F04ACCC015E956A~000000000000000000000000000000~YAAQxCkhF2k8luGLAQAAFyi28BU/65NCRHo8nighFmB8o9sHpbd/Hybfl4QCVNDQvTheKAvvXZGBqzia6xAh1uNwWR82Egg4OvsVRPzr2JB4r65yW6aK82WUxfwiZmuw5tjr0H5FdonnqI7pOAGf31XVNXO1yKOyK53QfIznOdRkaOl405VU0ZHbpNOJDjfqCZnqx1xvEJ8JToSqRH3o2qPo8TtS95WGHphlxJ1dJEZM8G1pwhewcyPxYM3X0gj7gRHlRYAbQ3vcsWf2p+Zf0xNLiGrJSbSEPn5vbMADAFjbHXi68G+vifBv9ysaxwBC6xRhcKtb2NMnjBdjRhD5qu3Sa1ld/NxBzWSzGNKcQorTStLLtZIkCAGv+C2dBy/1eAQ38N7m7OBWrRJfUA2cHzdkwMymQwYLGzNHWfLLEXfjv3GVadBZr1QxJXGoXPZmB3poUdBdtsMpoU8n7k2L9vmuBJf7wlo/SOSK/8TeI3yr9ycOHQXppVekIlEXhV4sep01mhWEq7EN8eVMpMqZhw0t8nPrXCWc3304XWeDReEXM0XurBvZHj09AAc3QpdOg0ZNXFRgDNo+WEXhm7U26gYnqdR8F0PPkZN1v7p5/DnYQD3fYVa9Nu8vVw==; bm_sz=EDE788231412FB1669642DC066D678F4~YAAQxCkhF2s8luGLAQAAFyi28BUsbcQWaMky0JbdYwZ+kK223YeB8J0bLDkW5XkbGnnNQnHLi4RqPStZZcjBZaAf1F3DsboI2vgD1Xkjvf5U1PsqNLk6xZKpL57gc8ktZA4N8WFri6SyLbig52vOn0ZJhcypbT8ec17lSly5t3/XwVYBEhp9y/rLzjoGpO3CxYPpF57aS471C8vJ2XFeCj2h9M4gAhZLYVOAHwjhimFInBDAVeKVqmZRebLVCZ0oKoNoc+lkYjyCfklfYVurasH54Hf2nPN6AjwHd91R9lKc4tUAKy1AvEIlYQq4fYkjTM1i3jZQQI7liqNPwOWZJ15Pd5VqcFlTWElzBTHu4XaFRmOy0Q2eYMBUB4jdSiCBjE3Ls6BmKFN/RFtKyfDn4OLyH4QHnw006zXeDA==~3683376~3617080; PIM-SESSION-ID=KODLNerk0tWEePaQ; mbox=session#cabcdd4927cd4756a91cdbcb38abdfc6#1700552413|PC#cabcdd4927cd4756a91cdbcb38abdfc6.35_0#1763795353; dtSa=-; rxvt=1700552353388|1700550521978; dtPC=14$150553347_964h-vHKACFJCCPMSVWCKACRIACGLNTUQCKJQH-0e0; RT=\"z=1&dm=kohls.com&si=ad04a02c-44c5-432e-9df4-90032e6d44c5&ss=lp7zve95&sl=2&tt=bd7&bcn=%2F%2F17de4c12.akstat.io%2F&ld=rbv\"; dtCookie=v_4_srv_16_sn_9FF4AA6B2CB0C1A259066B6C735B233C_perc_100000_ol_0_mul_1_rcs-3Acss_0; akavpau_www=1700550854~id=e4bd7b7115bbf7d8e898c7df66c89c77; _abck=CC169C04AF00814B225B42A002C6AB5F~-1~YAAQxCkhF4E9luGLAQAAkjO28Arg4dci3lM63Z+qAFuBxELG09KlbMP/rfrBPXY1yDJ9voiJUDwB0NgjR1/XlaAOHfn/b/hJhMmqJIfRg7ZTn1JOOSQpkxSkcNKQ/U2DWNq05trPePCwFBg0/KaGig4WRHDr0vDCQ/m4gahQjnP4LiLZLcWLL+1IM1RFlr84PcB30bwhGGnz/lDE/JTuqvTh6LJYoOLVNmbBWHjZY27jRITyFECTxbfY//dhu/C9DNVXNc8+Bb4kfjqb5TcpsBJuD/J1gj4w+0lz3xKHmeCSgQ5YlOdgxIRzNzjl4gUcbydIA1O5vnV4Brer+pdLPy7sZfBZOwBwmNzcTBwaVkxNZrOpsml61Ltc3fiJTgI/Lia0bOOmXQHhv4vR1B0txqe5ZsjPp6s0Fllu1Cdxf9ffKYYJrSo0m5L+juh0SL0YLmHTqiJPRu4lfxHoAKa4SbqLUmT3J9y3pAk8/SZhm50Q6gS8GZ9E/yI+YpfP4Tq4Ma9aq9kZPBmbs/6nsrfBT8Wb~-1~-1~1700554122; bm_sv=E9CC4175A998BE646991AD33CB3A6E5B~YAAQxCkhF4I9luGLAQAAkjO28BWRKqSnZDpriKA1ThJ6vKHu5QEdo0Sn/fcxRHpAeQj4XzkvuiOyaVjtdtb1etVSnz9qn88NiI07cpqDmfAzy+Ex9AoQy+jhz1Fpn8kOJPBPP+X6KcWiTCH52VcofeeEErmQvIbtNyk0JFs26hqe80DDe6FRp0VlwT18674CxXMob3OCTYajhKRTDYuOwZH4bIiquSnAFDPBgtUfGRzp4mX6MYmVDSrLIy1hdhPH~1; OptanonConsent=isGpcEnabled=0&datestamp=Tue+Nov+21+2023+01%3A09%3A14+GMT-0600+(Central+Standard+Time)&version=202306.1.0&browserGpcFlag=0&isIABGlobal=false&hosts=&consentId=2b091aa3-a2d0-44ef-8ec1-29c13ea7ca72&interactionCount=0&landingPath=https%3A%2F%2Fwww.kohls.com%2Fcatalog%2Fwomens-sweaters-tops-clothing.jsp%3FCN%3DGender%3AWomens+Product%3ASweaters+Category%3ATops+Department%3AClothing+Assortment%3AKohls%2520Black%2520Friday%26BST%3D6262123%3A6237310%3A6149518%3A6125449%3A6149518%3A6176056%3A6119381%3A6438581%3A6143395%3A6125326%3A4922640%3A6169493%26icid%3Dhpmf-BF-offer-womenssweaters-vlhd26%26kls_sbp%3D79613869088917606480426504271561296302&groups=C005%3A1%2CC0001%3A1%2CC0003%3A1%2CC006%3A1%2CC0004%3A1%2CC0002%3A1; _dy_ses_load_seq=84609%3A1700550554594; _dy_c_att_exps=; _dy_soct=561158.1083346.1700550523*577704.1114257.1700550523*785673.1487461.1700550523*577478.1113986.1700550523*839301.1661807.1700550523*604242.1165732.1700550554*606987.1171916.1700550554*664718.1276830.1700550554*675999.1296928.1700550554*695696.1330231.1700550554*707338.1351316.1700550554*546795.1053981.1700550554; evarRefinementValues=; pdpUrl=
----
--Response 
HTTP/1.1 200
content-type: text/html;charset=utf-8
set-cookie: _abck=CC169C04AF00814B225B42A002C6AB5F~-1~YAAQxCkhF5o9luGLAQAA+DS28Aobmpt0n++IRx1T356mWgSXSkLja8cyzYmKOdgYDBY9PNoVXuh6G9oPdu3TwvJp/pf/tnL0ezJ8lIhZVv4JPBYBMRxvYf2VNdMMpIHmzNliCY+u495+SclphUSF6kAl/2QAC6u5DTmScxDPGOQ4Gg4U6Z5MP1Gz+qa6hS7gASRRrDqZO7EkUiEUKWHeI4MS9v+4ZKd9jvySiF1JBhJXFbthqq0aqPBV4hhoCteSqGeGDck9wVNlll/ZhcEznpOjblEj7Bbf0q6GLIFJPP2j4ZEc9NnndCoWO5ANBZ/iBaxtF9hsrpXy6tRKhbGxKKoz2Bu4LILTA8aHiYZzq8pOiE93Zmp1Lm4NYE94rWeStjO3/fYUPRPKGUSV9GBIn0jT+8qJirWwJKq0kbdEoprn7BDc43F9Zcd/n0sy9IeSBvF/FQ6OT37iN+j0cyjI5zj7++5mIJcpDQhQQhqULJpO+pouVBjA2w0lt6geYCsVhyEYLdHwfiJvXxqWFwsmu0Qx~-1~-1~1700554122; Domain=.kohls.com; Path=/; Expires=Wed, 20 Nov 2024 07:09:14 GMT; Max-Age=31536000; Secure
set-cookie: bm_sv=E9CC4175A998BE646991AD33CB3A6E5B~YAAQxCkhF5s9luGLAQAA+TS28BXwFntOL5/3fGgh86EL9iGtkkExyz/oli2ZBMCGYGUTXEU6NYNP/slUnREuWciIZvp6+amij1TDCUfzp5Zn+AkMhx/2d8wmWiGGpNkU6+Xaw1LL/G2QwcLXurZvhMWBo4JTOw16c8IfwTdXDAQBysLP9PII2TVS/kYVQbZs8+1uqaoBRC3yLQ9ylBO7eHYjdAv0j9PHB0reshVyWr+WZHaK+OdWNhVlp809Fk7i~1; Domain=.kohls.com; Path=/; Expires=Tue, 21 Nov 2023 09:08:42 GMT; Max-Age=7168; Secure
etag: W/\"dbc-60aa4272885c7-gzip\"
strict-transport-security: max-age=15768000 ; preload
x-origin-ttl: Wed, 22 Nov 2023 05:59:59 GMT
x-origin-ttl: Wed, 22 Nov 2023 05:59:59 GMT
x-origin-ttl: Wed, 22 Nov 2023 05:59:59 GMT
x-frame-options: SAMEORIGIN
content-security-policy: block-all-mixed-content; script-src 'self' 'unsafe-inline' 'unsafe-eval' blob: *.kohls.com *.licdn.com *.pubmatic.com *.rubiconproject.com *.doubleclick.net *.iesnare.com www.youtube.com *.fontawesome.com kohlsblog.wpengine.com app.collectivevoice.com *.flippenterprise.net *.kohlslocal.com *.media.net *.syndigo.com *.syndigo.cloud *.rewardstyle.com *.adnxs-simple.com media.adcanvas.com *.loudcrowd.com *.2mdn.net c.tvpixel.com *.3lift.com *.flashtalking.com *.ampproject.org *.scorecardresearch.com *.evgnet.com survey.vovici.com *.casalemedia.com cdn.cookielaw.org app.contentsquare.com pixel.fohr.co cdnjs.cloudflare.com *.yahoo.com cdn.js7k.com *.doubleverify.com *.adnxs.com *.adsafeprotected.com kohls.sspinc.io *.webcollage.net cdns.brsrvr.com *.pinterest.com edge.curalate.com *.googleapis.com *.dynatrace.com *.snapchat.com *.go-mpulse.net *.adobedtm.com *.dynatrace.com *.coherentpath.com *.igodigital.com *.bing.com *.google.com *.paypalobjects.com *.braintreegateway.com *.dynamicyield.com *.gstatic.com *.paypal.com *.micpn.com *.clicktale.net *.yimg.com *.liadm.com *.ads-twitter.com *.pinimg.com *.facebook.net *.tiktok.com *.vibescm.com sc-static.net *.googletagmanager.com *.snapchat.com *.google-analytics.com *.cnnx.link *.taboola.com *.impactradius-event.com *.ada.support *.googletagservices.com *.indexww.com *.googlesyndication.com *.bazaarvoice.com *.stylitics.com *.tagdelivery.com *.bambuser.com *.googleadservices.com *.rokt.com *.fohr.co www.recaptcha.net; style-src 'self' 'unsafe-inline' *.kohls.com *.licdn.com kohlsblog.wpengine.com cdn.honey.io *.flippenterprise.net *.fontawesome.com *.kohlslocal.com *.loudcrowd.com *.quantcount.com fonts.googleapis.com *.bazaarvoice.com *.stylitics.com *.dynamicyield.com; img-src 'self' blob: data: *.kohls.com *.adsensecustomsearchads.com *.doubleclick.net *.licdn.com *.scorecardresearch.com *.adnxs.com *.clicktale.net cdn.honey.io media.kohlsimg.com *.casalemedia.com *.yahoo.com *.fontawesome.com *.loudcrowd.com lookaside.fbsbx.com kohlsblog.wpengine.com *.syndigo.com *.syndigo.cloud *.adcanvas.com *.googleadservices.com *.quantserve.com *.vibescm.com *.quantcount.com www.ojrq.net *.flippenterprise.net *.liadm.com *.rlcdn.com *.media.net us-u.openx.net *.rubiconproject.com *.demdex.net *.everesttech.net prodeastusmappscreative.azureedge.net *.pubmatic.com s.yimg.com *.kohlslocal.com *.gstatic.com *.doubleverify.com *.flashtalking.com *.advertising.com chart.googleapis.com cdn.cookielaw.org pixel.fohr.co *.webcollage.net *.adsafeprotected.com edge.curalate.com *.3lift.com *.dynamicyield.com content.stylitics.com dpm.demdex.net *.micpn.com cm.everesttech.net maps.googleapis.com www.googletagmanager.com services.postcodeanywhere.co.uk *.bing.com *.paypal.com *.doubleclick.net *.google.com t.co *.twitter.com *.clicktale.net *.pinterest.com *.facebook.com *.google-analytics.com *.taboola.com *.2mdn.net *.admedia.com *.admarketplace.net *.igodigital.com trkn.us *.4cinsights.com *.bazaarvoice.com *.tagdelivery.com *.bizrate.com *.googlesyndication.com *.adxcel-ec2.com *.kohlsimg.com *.fohr.co; connect-src 'self' *.kohls.com *.domdog.io *.evergage.com *.casalemedia.com *.iesnare.com *.syndigo.com *.syndigo.cloud *.adeptmind.ai endpoint.dlp-webservices.prod.dlp.adeptmind.net plausible.io *.loudcrowd.com *.fontawesome.com *.flippenterprise.net *.flipp.com *.flippback.com *.ampproject.org s.update.ib.adnxs.net *.kohlslocal.com *.google-analytics.com *.flashtalking.com *.onetrust.com cdn.cookielaw.org pixel.fohr.co p.tvpixel.com *.tagdelivery.com *.doubleverify.com *.adnxs.com edge.curalate.com *.googleapis.com hb.emxdgt.com *.pubmatic.com *.gstatic.com api.rlcdn.com *.google.com *.yahoo.com *.facebook.com *.akstat.io *.rubiconproject.com *.3lift.com *.snapchat.com *.tiktok.com *.bing.com *.paypal.com *.techlab-cdn.com *.omtrdc.net *.go-mpulse.net *.dynatrace.com *.dynamicyield.com *.yimg.com *.liadm.com *.clicktale.net *.pinterest.com *.taboola.com *.braintree-api.com *.braintreegateway.com *.paypal.com *.addressy.com dpm.demdex.net *.ada.support *.doubleclick.net *.googlesyndication.com *.bazaarvoice.com *.stylitics.com kohls.sjv.io *.coherentpath.com *.fohr.co *.contentsquare.net; frame-src 'self' survey.vovici.com *.indexww.com *.brealtime.com *.2mdn.net *.adnxs.com *.rewardstyle.com *.googletagservices.com app.collectivevoice.com secure.opinionlab.com *.casalemedia.com player.vimeo.com www.youtube.com *.syndigo.com *.syndigo.cloud *.bambuser.com *.bazaarvoice.com eus.rubiconproject.com *.3lift.com contextual.media.net *.pubmatic.com core-gp.firstinsight.com tsdtocl.com tr.snapchat.com apps.rokt.com *.google.com *.liadm.com *.pinterest.com *.doubleclick.net kohls.demdex.net *.paypal.com *.facebook.com kohls.ada.support *.rlcdn.com *.googlesyndication.com *.flashtalking.com www.recaptcha.net; worker-src 'self' blob:; font-src 'self' data: cdn.honey.io cdnjs.cloudflare.com *.syndigo.com *.bazaarvoice.com *.syndigo.cloud *.fontawesome.com *.kohlslocal.com *.gstatic.com *.stylitics.com *.paypalobjects.com *.rakuten.com; form-action 'self' *.kohls.com *.facebook.com *.bazaarvoice.com secure.opinionlab.com *.snapchat.com *.pinterest.com; base-uri 'self' *.kohls.com; frame-ancestors 'self'; manifest-src 'self' *.kohls.com *.bazaarvoice.com; media-src 'self' blob: *.kohlsimg.com *.iesnare.com *.bazaarvoice.com *.loudcrowd.com lookaside.fbsbx.com www.bing.com *.syndigo.com *.syndigo.cloud edge.curalate.com; object-src 'self' *.bazaarvoice.com; report-uri https://csp38.domdog.io/report-uri/a9a6fb14-365a-4648-b17b-2e47930f8b49/1/1-42/block;
access-control-allow-origin: *
access-control-allow-headers: *
access-control-allow-methods: GET,POST,OPTIONS
access-control-allow-credentials: false
access-control-max-age: 86400
esi_status: ENABLED
server-timing: edge; dur=1
server-timing: cdn-cache; desc=HIT
server-timing: ak_p; desc=\"1700550554838_388049348_666702132_61_31576_11_0_219\";dur=1
x-akamai-transformed: 9 - 0 pmb=mTOE,1mRUM,3
vary: Accept-Encoding
x-timer: S1700550008.265559,VS0,VS0,VE81
x-served-by: cache-fty21358-FTY
x-content-type-options: nosniff
cmshost: aem
x-vhost: publish
content-encoding: gzip
cache-control: private, max-age=600
expires: Tue, 21 Nov 2023 07:19:14 GMT
date: Tue, 21 Nov 2023 07:09:14 GMT
content-length: 1089
----
--Request 
GET https://www.kohls.com/snb/media/kds-web-core/assets/sephora/tags/small-k.svg
Host: www.kohls.com
sec-ch-ua: \"Not.A/Brand\";v=\"8\", \"Chromium\";v=\"114\"
sec-ch-ua-mobile: ?0
User-Agent: Mozilla/5.0 (X11; Linux x86_64) AppleWebKit/537.36 (KHTML, like Gecko) Chrome/114.0.0.0 Safari/537.36
sec-ch-ua-platform: \"Linux\"
Accept: image/avif,image/webp,image/apng,image/svg+xml,image/*,*/*;q=0.8
Sec-Fetch-Site: same-origin
Sec-Fetch-Mode: no-cors
Sec-Fetch-Dest: image
Referer: https://www.kohls.com/catalog/womens-sweaters-tops-clothing.jsp?CN=Gender:Womens+Product:Sweaters+Category:Tops+Department:Clothing+Assortment:Kohls%20Black%20Friday&BST=6262123:6237310:6149518:6125449:6149518:6176056:6119381:6438581:6143395:6125326:4922640:6169493&icid=hpmf-BF-offer-womenssweaters-vlhd26&kls_sbp=79613869088917606480426504271561296302
Accept-Encoding: gzip, deflate, br
Accept-Language: en-US,en;q=0.9
Cookie: store_location=14201; akaalb_aem_homepage=~op=aem_production:aem_production|~rv=79~m=aem_production:0|~os=554fb49c1bda6073578f281b62264a0e~id=e5d8d097120eff09512a425189fcc66f; AKA_HP2Redesign=True; AKA_PIQ=True; AKA_ACM=True; AKA_CDP2=True; AKA_STP=false; AKA_PDP2=True; AKA_HP2=True; AKA_CNC2=True; AKA_RV6=12; AKA_RV8=72; AKA_RV4=57; AKA_RV5=23; AKA_RV3=95; AKA_RV=96; AKA_RV2=35; akacd_www-kohls-com-mosaic-p2=2177452799~rv=61~id=f2bfd608ff6bd75e278febb90f5bdcd7; at_check=true; s_ecid=MCMID%7C79613869088917606480426504271561296302; AMCVS_F0EF5E09512D2CD20A490D4D%40AdobeOrg=1; mboxEdgeCluster=35; AMCV_F0EF5E09512D2CD20A490D4D%40AdobeOrg=1585540135%7CMCIDTS%7C19683%7CMCMID%7C79613869088917606480426504271561296302%7CMCAID%7CNONE%7CMCOPTOUT-1700557721s%7CNONE%7CMCAAMLH-1701155321%7C7%7CMCAAMB-1701155321%7Cj8Odv6LonN4r3an7LhD3WZrU1bUpAkFkkiY1ncBR96t2PTI%7CMCSYNCS%7C1083-19690*1085-19690*1086-19690*1087-19690*1088-19690%7CMCSYNCSOP%7C411-19690%7CvVersion%7C4.4.0; rxVisitor=170055052197696JCFOBUP2E8LGBETNI04FF2IPU7PHBL; X-SESSIONID=d38e961d-eee7-4879-8340-ea94827e289a; VisitorId=d38e961d-eee7-4879-8340-ea94827e289a; K_favstore=14216|1306|BUFFALO|geo|sephora; spa=4; _dy_csc_ses=t; _dy_c_exps=; gpv_v9=Homepage; s_cc=true; _dycnst=dg; _uetsid=ce3c5ea0883c11ee858a29be7baeeb0f; _uetvid=ce3cb6c0883c11ee9c5d21bc71586f02; fp_client={%22id%22:%2229475071191700550523%22}; fp_session={%22i%22:%2288215330731700550523%22%2C%22d%22:1}; _dyid=-2796735126378358917; _dyfs=1700550523505; _dyjsession=cdc731762c4fbfb825c00a0125c71e79; dy_fs_page=www.kohls.com; _dy_lu_ses=cdc731762c4fbfb825c00a0125c71e79%3A1700550523506; _dycst=dk.l.c.ms.; _dy_geo=US.NA.US_MI.US_MI_Detroit; _dy_df_geo=United%20States.Michigan.Detroit; _dy_toffset=0; _rmt_an_idt=0; _mibhv=anon-1700550524031-5332320748_8212; _cs_c=0; IR_gbd=kohls.com; IR_5349=1700550524310%7C385561%7C1700550524310%7C%7C; _cs_cvars=%7B%221%22%3A%5B%22Page%20Name%22%2C%22Homepage%22%5D%2C%227%22%3A%5B%22Page%20Type%22%2C%22Homepage%22%5D%7D; _cs_id=adc880fd-d93e-ac59-cc5b-3c04e82d2b4b.1700550524.1.1700550524.1700550524.1588866862.1734714524445; IR_PI=cece5d75-883c-11ee-b347-d5b679c63de5%7C1700636924310; _cs_s=1.5.1.1700552324776; _pin_unauth=dWlkPVpEUXlNbU5sWm1JdE1XWmlZaTAwT1RjekxXSTVaakl0TURFNFpEQTJNalJqT0dJNQ; _fbp=fb.1.1700550525180.1119580522; _tt_enable_cookie=1; _ttp=aSHtu_gIQ09zwUi9iOI7iCWyAR-; _scid=1f04d67b-8a21-463f-ac1c-fe88de60033f; _scid_r=1f04d67b-8a21-463f-ac1c-fe88de60033f; _gcl_au=1.1.1181256846.1700550526; _evga_ce07={%22uuid%22:%220e4971bddb246461%22}; _sfid_6ab3={%22anonymousId%22:%220e4971bddb246461%22%2C%22consents%22:[]}; _ga_ZLYRBY87M8=GS1.1.1700550526.1.0.1700550526.60.0.0; __gads=ID=3c394970cb55450f:T=1700550526:RT=1700550526:S=ALNI_MbrJ3X_hGpSImvZMLI5SV9-34drNA; __gpi=UID=00000a00a9f90471:T=1700550526:RT=1700550526:S=ALNI_Ma8ugF9cZmpsonvpd3LpCjHvE5AkQ; _ga=GA1.2.1527107996.1700550526; _gid=GA1.2.1528984642.1700550527; _gat=1; _sctr=1%7C1700546400000; _dpm_ses.f2d1=*; _dpm_id.f2d1=0ef65a2f-e6a7-43f4-a1c7-c0d82ed29395.1700550532.1.1700550532.1700550532.a24e90a1-e57d-4467-afd8-a703310265c8; _li_dcdm_c=.kohls.com; _lc2_fpi=0b10d8358f40--01hfrbbpry1av2w5z5mhth4cen; _lc2_fpi_meta={%22w%22:1700550531870}; _dyid_server=-2796735126378358917; _li_ss=CjYKBQgKEMYWCgYI3QEQxhYKBgiBARDGFgoGCKIBEMYWCgYIiwEQxhYKBgjSARDGFgoFCH4QxhY; _li_ss_meta={%22w%22:1700550532279%2C%22e%22:1703142532279}; s_sq=kohlscomprod%3D%2526c.%2526a.%2526activitymap.%2526page%253Dhomepage%2526link%253D12%25252074%252520with%25252015%252525%252520off%252520coupon%25252A%252520Sweaters%252520for%252520women%252520and%252520juniors.%252520Select%252520styles.%252520Sale%252520%25252414.99%25252C%252520Reg.%252520%25252430-%25252440.%252520Shop%252520Women%2525E2%252580%252599s%252520%252526%252520Juniors%2525E2%252580%252599%252520Swe%2526region%253Dhp-equity01%2526pageIDType%253D1%2526.activitymap%2526.a%2526.c%2526pid%253DHomepage%2526pidt%253D1%2526oid%253Dhttps%25253A%25252F%25252Fwww.kohls.com%25252Fcatalog%25252Fwomens-sweaters-tops-clothing.jsp%25253FCN%25253DGender%25253AWomens%25252BProduct%25253ASweaters%25252BCa%2526ot%253DA; kls_p=true; 362fd180cb7a77f64919ee892a4d9d35=7191fc42ec960804587d38331d7dd83d; ak_bmsc=721A085A5E4C790A5F04ACCC015E956A~000000000000000000000000000000~YAAQxCkhF2k8luGLAQAAFyi28BU/65NCRHo8nighFmB8o9sHpbd/Hybfl4QCVNDQvTheKAvvXZGBqzia6xAh1uNwWR82Egg4OvsVRPzr2JB4r65yW6aK82WUxfwiZmuw5tjr0H5FdonnqI7pOAGf31XVNXO1yKOyK53QfIznOdRkaOl405VU0ZHbpNOJDjfqCZnqx1xvEJ8JToSqRH3o2qPo8TtS95WGHphlxJ1dJEZM8G1pwhewcyPxYM3X0gj7gRHlRYAbQ3vcsWf2p+Zf0xNLiGrJSbSEPn5vbMADAFjbHXi68G+vifBv9ysaxwBC6xRhcKtb2NMnjBdjRhD5qu3Sa1ld/NxBzWSzGNKcQorTStLLtZIkCAGv+C2dBy/1eAQ38N7m7OBWrRJfUA2cHzdkwMymQwYLGzNHWfLLEXfjv3GVadBZr1QxJXGoXPZmB3poUdBdtsMpoU8n7k2L9vmuBJf7wlo/SOSK/8TeI3yr9ycOHQXppVekIlEXhV4sep01mhWEq7EN8eVMpMqZhw0t8nPrXCWc3304XWeDReEXM0XurBvZHj09AAc3QpdOg0ZNXFRgDNo+WEXhm7U26gYnqdR8F0PPkZN1v7p5/DnYQD3fYVa9Nu8vVw==; bm_sz=EDE788231412FB1669642DC066D678F4~YAAQxCkhF2s8luGLAQAAFyi28BUsbcQWaMky0JbdYwZ+kK223YeB8J0bLDkW5XkbGnnNQnHLi4RqPStZZcjBZaAf1F3DsboI2vgD1Xkjvf5U1PsqNLk6xZKpL57gc8ktZA4N8WFri6SyLbig52vOn0ZJhcypbT8ec17lSly5t3/XwVYBEhp9y/rLzjoGpO3CxYPpF57aS471C8vJ2XFeCj2h9M4gAhZLYVOAHwjhimFInBDAVeKVqmZRebLVCZ0oKoNoc+lkYjyCfklfYVurasH54Hf2nPN6AjwHd91R9lKc4tUAKy1AvEIlYQq4fYkjTM1i3jZQQI7liqNPwOWZJ15Pd5VqcFlTWElzBTHu4XaFRmOy0Q2eYMBUB4jdSiCBjE3Ls6BmKFN/RFtKyfDn4OLyH4QHnw006zXeDA==~3683376~3617080; PIM-SESSION-ID=KODLNerk0tWEePaQ; mbox=session#cabcdd4927cd4756a91cdbcb38abdfc6#1700552413|PC#cabcdd4927cd4756a91cdbcb38abdfc6.35_0#1763795353; dtSa=-; rxvt=1700552353388|1700550521978; dtPC=14$150553347_964h-vHKACFJCCPMSVWCKACRIACGLNTUQCKJQH-0e0; RT=\"z=1&dm=kohls.com&si=ad04a02c-44c5-432e-9df4-90032e6d44c5&ss=lp7zve95&sl=2&tt=bd7&bcn=%2F%2F17de4c12.akstat.io%2F&ld=rbv\"; dtCookie=v_4_srv_16_sn_9FF4AA6B2CB0C1A259066B6C735B233C_perc_100000_ol_0_mul_1_rcs-3Acss_0; akavpau_www=1700550854~id=e4bd7b7115bbf7d8e898c7df66c89c77; _abck=CC169C04AF00814B225B42A002C6AB5F~-1~YAAQxCkhF4E9luGLAQAAkjO28Arg4dci3lM63Z+qAFuBxELG09KlbMP/rfrBPXY1yDJ9voiJUDwB0NgjR1/XlaAOHfn/b/hJhMmqJIfRg7ZTn1JOOSQpkxSkcNKQ/U2DWNq05trPePCwFBg0/KaGig4WRHDr0vDCQ/m4gahQjnP4LiLZLcWLL+1IM1RFlr84PcB30bwhGGnz/lDE/JTuqvTh6LJYoOLVNmbBWHjZY27jRITyFECTxbfY//dhu/C9DNVXNc8+Bb4kfjqb5TcpsBJuD/J1gj4w+0lz3xKHmeCSgQ5YlOdgxIRzNzjl4gUcbydIA1O5vnV4Brer+pdLPy7sZfBZOwBwmNzcTBwaVkxNZrOpsml61Ltc3fiJTgI/Lia0bOOmXQHhv4vR1B0txqe5ZsjPp6s0Fllu1Cdxf9ffKYYJrSo0m5L+juh0SL0YLmHTqiJPRu4lfxHoAKa4SbqLUmT3J9y3pAk8/SZhm50Q6gS8GZ9E/yI+YpfP4Tq4Ma9aq9kZPBmbs/6nsrfBT8Wb~-1~-1~1700554122; bm_sv=E9CC4175A998BE646991AD33CB3A6E5B~YAAQxCkhF4I9luGLAQAAkjO28BWRKqSnZDpriKA1ThJ6vKHu5QEdo0Sn/fcxRHpAeQj4XzkvuiOyaVjtdtb1etVSnz9qn88NiI07cpqDmfAzy+Ex9AoQy+jhz1Fpn8kOJPBPP+X6KcWiTCH52VcofeeEErmQvIbtNyk0JFs26hqe80DDe6FRp0VlwT18674CxXMob3OCTYajhKRTDYuOwZH4bIiquSnAFDPBgtUfGRzp4mX6MYmVDSrLIy1hdhPH~1; OptanonConsent=isGpcEnabled=0&datestamp=Tue+Nov+21+2023+01%3A09%3A14+GMT-0600+(Central+Standard+Time)&version=202306.1.0&browserGpcFlag=0&isIABGlobal=false&hosts=&consentId=2b091aa3-a2d0-44ef-8ec1-29c13ea7ca72&interactionCount=0&landingPath=https%3A%2F%2Fwww.kohls.com%2Fcatalog%2Fwomens-sweaters-tops-clothing.jsp%3FCN%3DGender%3AWomens+Product%3ASweaters+Category%3ATops+Department%3AClothing+Assortment%3AKohls%2520Black%2520Friday%26BST%3D6262123%3A6237310%3A6149518%3A6125449%3A6149518%3A6176056%3A6119381%3A6438581%3A6143395%3A6125326%3A4922640%3A6169493%26icid%3Dhpmf-BF-offer-womenssweaters-vlhd26%26kls_sbp%3D79613869088917606480426504271561296302&groups=C005%3A1%2CC0001%3A1%2CC0003%3A1%2CC006%3A1%2CC0004%3A1%2CC0002%3A1; _dy_ses_load_seq=84609%3A1700550554594; _dy_c_att_exps=; _dy_soct=561158.1083346.1700550523*577704.1114257.1700550523*785673.1487461.1700550523*577478.1113986.1700550523*839301.1661807.1700550523*604242.1165732.1700550554*606987.1171916.1700550554*664718.1276830.1700550554*675999.1296928.1700550554*695696.1330231.1700550554*707338.1351316.1700550554*546795.1053981.1700550554; evarRefinementValues=; pdpUrl=
----
--Response 
HTTP/1.1 200
content-type: image/svg+xml
accept-ranges: bytes
content-encoding: gzip
etag: W/\"c90-18b00665788\"
last-modified: Thu, 05 Oct 2023 18:14:00 GMT
server: Akamai Resource Optimizer
x-origin-cc: public, max-age=0
x-origin-cc: public, max-age=86400
x-origin-cc: public, max-age=86400
x-origin-cc: public, max-age=86400
x-origin-cc: public, max-age=86400
x-origin-cc: public, max-age=86400
x-origin-cc: public, max-age=86400
x-origin-cc: public, max-age=86400
x-origin-ttl: Fri, 06 Oct 2023 18:13:59 GMT
x-origin-ttl: Fri, 06 Oct 2023 18:13:59 GMT
x-origin-ttl: Fri, 06 Oct 2023 18:13:59 GMT
x-origin-ttl: Fri, 06 Oct 2023 18:13:59 GMT
x-origin-ttl: Fri, 06 Oct 2023 18:13:59 GMT
x-origin-ttl: Fri, 06 Oct 2023 18:13:59 GMT
x-origin-ttl: Fri, 06 Oct 2023 18:13:59 GMT
correlation-id: webstore::a20b9254-3585-4acf-869e-5e02cc8d170f::1696529622::SNB::snb-ui-f96b854fc-qwjlx::23.210.217.40
content-length: 1243
cache-control: public, max-age=86400
expires: Wed, 22 Nov 2023 07:09:14 GMT
date: Tue, 21 Nov 2023 07:09:14 GMT
vary: Accept-Encoding
set-cookie: _dyid_server=-2796735126378358917; expires=Wed, 20-Nov-2024 07:09:14 GMT; path=/; domain=.kohls.com; secure
set-cookie: _abck=CC169C04AF00814B225B42A002C6AB5F~-1~YAAQxCkhF5c9luGLAQAA9DS28AqA4hwON8EAgD4EtqjpgqgfGL1Z4KBqJl127WUIiqD5L0DBQllSpUFFuNabLKwqhhLWLTM1pj2GqwtoRYsPezZI40HbaSgo8dA81Njwn2cSUXj49QABVsGRYdDQ0ycC4wDYryO4i2sRMYr8oI2KNSeo9+0J1YwH8QXfH8FzjzhCCaVeaW2cTRubIB50svOniu46fJRfQEb6hB+MMwon0yea/qY8degtT+nQH3OjultwKwk1J1o9yfWCry79cqsLwn9GYrHB2+jYZmdm4KeneeU1cLM2wTe/Sy0cVwwJU5K5DfCwZ5PoTDtSO1VNS48CPtKXzwAOj7DllKGvRcKLa3NC6Iy3j/x1QePhnv69a1nKnZZzEReidDJ60vu67rNGINgyZk3R3rZduLqQvho02OfYzjmzMuT59pRF4glqVE6n2O7Ow08dUNg6CuuvgejqQCMxa7iU8NYxtCJnGL36nw9pkD/4zTISsRhXbVJETwagMISZCV4NnTSHCrE/VTg5~-1~-1~1700554122; Domain=.kohls.com; Path=/; Expires=Wed, 20 Nov 2024 07:09:14 GMT; Max-Age=31536000; Secure
server-timing: cdn-cache; desc=HIT
server-timing: edge; dur=1
server-timing: ak_p; desc=\"1700550554838_388049348_666702133_88_28272_11_0_146\";dur=1
strict-transport-security: max-age=15768000 ; preload
----
--Request 
GET https://cdn.dynamicyield.com/scripts/1.213.0/dy-coll-nojq-min.js
Host: cdn.dynamicyield.com
sec-ch-ua: \"Not.A/Brand\";v=\"8\", \"Chromium\";v=\"114\"
sec-ch-ua-mobile: ?0
User-Agent: Mozilla/5.0 (X11; Linux x86_64) AppleWebKit/537.36 (KHTML, like Gecko) Chrome/114.0.0.0 Safari/537.36
sec-ch-ua-platform: \"Linux\"
Accept: */*
Sec-Fetch-Site: cross-site
Sec-Fetch-Mode: no-cors
Sec-Fetch-Dest: script
Referer: https://www.kohls.com/
Accept-Encoding: gzip, deflate, br
Accept-Language: en-US,en;q=0.9
----
--Response 
HTTP/1.1 200
content-type: application/javascript
date: Mon, 16 Oct 2023 06:55:04 GMT
last-modified: Sun, 15 Oct 2023 07:23:38 GMT
etag: W/\"31949d58649dc92ad662ada9f4e45f97\"
x-amz-server-side-encryption: AES256
cache-control: max-age=31536000
server: DYCDN
content-encoding: gzip
vary: Accept-Encoding
via: 1.1 ea4a33625617615e13496b292edda6d6.cloudfront.net (CloudFront)
age: 3111220
link: <//st.dynamicyield.com>; rel=\"dns-prefetch\", <//st.dynamicyield.com>; rel=\"preconnect\", <//rcom.dynamicyield.com>; rel=\"dns-prefetch\", <//rcom.dynamicyield.com>; rel=\"preconnect\", <//async-px.dynamicyield.com>; rel=\"dns-prefetch\", <//async-px.dynamicyield.com>; rel=\"preconnect\"
x-cache: Hit from cloudfront
x-amz-cf-pop: CMH68-P1
x-amz-cf-id: fNsr7eu8PVkRjsxtTz3DNSbbG2h3TAW9L1tKxld8ex3PqqmM2pNuCQ==
----
--Request 
GET https://track.coherentpath.com/v1/track.js
Host: track.coherentpath.com
sec-ch-ua: \"Not.A/Brand\";v=\"8\", \"Chromium\";v=\"114\"
sec-ch-ua-mobile: ?0
User-Agent: Mozilla/5.0 (X11; Linux x86_64) AppleWebKit/537.36 (KHTML, like Gecko) Chrome/114.0.0.0 Safari/537.36
sec-ch-ua-platform: \"Linux\"
Accept: */*
Sec-Fetch-Site: cross-site
Sec-Fetch-Mode: no-cors
Sec-Fetch-Dest: script
Referer: https://www.kohls.com/
Accept-Encoding: gzip, deflate, br
Accept-Language: en-US,en;q=0.9
----
--Response 
HTTP/1.1 200
access-control-allow-origin: *
content-length: 64479
cross-origin-resource-policy: cross-origin
server: Cowboy
x-content-type-options: nosniff
via: 1.1 google
date: Tue, 21 Nov 2023 06:58:19 GMT
content-type: application/javascript
age: 624
cache-control: max-age=3600,public
alt-svc: h3=\":443\"; ma=2592000,h3-29=\":443\"; ma=2592000
----
--Request 
GET https://bat.bing.com/bat.js
Host: bat.bing.com
sec-ch-ua: \"Not.A/Brand\";v=\"8\", \"Chromium\";v=\"114\"
sec-ch-ua-mobile: ?0
User-Agent: Mozilla/5.0 (X11; Linux x86_64) AppleWebKit/537.36 (KHTML, like Gecko) Chrome/114.0.0.0 Safari/537.36
sec-ch-ua-platform: \"Linux\"
Accept: */*
Sec-Fetch-Site: cross-site
Sec-Fetch-Mode: no-cors
Sec-Fetch-Dest: script
Referer: https://www.kohls.com/
Accept-Encoding: gzip, deflate, br
Accept-Language: en-US,en;q=0.9
----
--Response 
HTTP/1.1 200
cache-control: private,max-age=1800
content-length: 13175
content-type: application/javascript
content-encoding: gzip
last-modified: Fri, 10 Nov 2023 20:09:55 GMT
accept-ranges: bytes
etag: \"80abcdf1114da1:0\"
vary: Accept-Encoding
x-cache: CONFIG_NOCACHE
accept-ch: Sec-CH-UA-Arch, Sec-CH-UA-Bitness, Sec-CH-UA-Full-Version, Sec-CH-UA-Full-Version-List, Sec-CH-UA-Mobile, Sec-CH-UA-Model, Sec-CH-UA-Platform, Sec-CH-UA-Platform-Version
x-msedge-ref: Ref A: DD70503289734D308F884929160B787B Ref B: EWR311000103027 Ref C: 2023-11-21T07:08:43Z
date: Tue, 21 Nov 2023 07:08:42 GMT
----
--Request 
GET https://pixel.fohr.co/lib.js?ci=ETZV2Z60L5
Host: pixel.fohr.co
sec-ch-ua: \"Not.A/Brand\";v=\"8\", \"Chromium\";v=\"114\"
sec-ch-ua-mobile: ?0
User-Agent: Mozilla/5.0 (X11; Linux x86_64) AppleWebKit/537.36 (KHTML, like Gecko) Chrome/114.0.0.0 Safari/537.36
sec-ch-ua-platform: \"Linux\"
Accept: */*
Sec-Fetch-Site: cross-site
Sec-Fetch-Mode: no-cors
Sec-Fetch-Dest: script
Referer: https://www.kohls.com/
Accept-Encoding: gzip, deflate, br
Accept-Language: en-US,en;q=0.9
----
--Response 
HTTP/1.1 200
date: Tue, 21 Nov 2023 07:08:43 GMT
content-type: text/javascript
cf-bgj: minify
content-security-policy: frame-ancestors https://*.fohr.co;
permissions-policy: accelerometer=(), autoplay=(), camera=(), cross-origin-isolated=(), display-capture=(), document-domain=(), encrypted-media=(), fullscreen=(), geolocation=(self), gyroscope=(), keyboard-map=(), magnetometer=(), microphone=(), midi=(), payment=(), picture-in-picture=(), publickey-credentials-get=(), screen-wake-lock=(), sync-xhr=(), usb=(), xr-spatial-tracking=()
referrer-policy: same-origin
vary: Accept-Encoding
x-content-type-options: nosniff
x-frame-options: deny
x-xss-protection: 1; mode=block
last-modified: Tue, 21 Nov 2023 05:49:53 GMT
cache-control: max-age=14400
cf-cache-status: HIT
age: 1313
report-to: {\"endpoints\":[{\"url\":\"https:\\/\\/a.nel.cloudflare.com\\/report\\/v3?s=BBN22AX7bJxVPRA%2FOPLxTteOJwQNeE4dSJ4V5LfJJBjlK3fsAdFZfPKJR8XvzaM22TaifvYqCjR8bFeC4sAlSkCMYPgmL7%2FuDqVmHs88TRcwQttIRVSoAOU%2F4QcBaK8%3D\"}],\"group\":\"cf-nel\",\"max_age\":604800}
nel: {\"success_fraction\":0,\"report_to\":\"cf-nel\",\"max_age\":604800}
server: cloudflare
cf-ray: 82971a62aea836fe-YYZ
content-encoding: br
alt-svc: h3=\":443\"; ma=86400
----
--Request 
GET https://assets.adobedtm.com/6d2e783bbfe3/c0c47c5c96c6/7a8648cd60a8/RCcfcaac291d4d44dfbc6557465dc145e7-source.min.js
Host: assets.adobedtm.com
sec-ch-ua: \"Not.A/Brand\";v=\"8\", \"Chromium\";v=\"114\"
sec-ch-ua-mobile: ?0
User-Agent: Mozilla/5.0 (X11; Linux x86_64) AppleWebKit/537.36 (KHTML, like Gecko) Chrome/114.0.0.0 Safari/537.36
sec-ch-ua-platform: \"Linux\"
Accept: */*
Sec-Fetch-Site: cross-site
Sec-Fetch-Mode: no-cors
Sec-Fetch-Dest: script
Referer: https://www.kohls.com/
Accept-Encoding: gzip, deflate, br
Accept-Language: en-US,en;q=0.9
----
--Response 
HTTP/1.1 200
accept-ranges: bytes
content-type: application/x-javascript
etag: \"c3f8eea087eda271fe3a803f1d4cfa06:1700078393.11621\"
last-modified: Wed, 15 Nov 2023 19:59:53 GMT
server: AkamaiNetStorage
vary: Accept-Encoding
content-encoding: gzip
cache-control: max-age=3600
expires: Tue, 21 Nov 2023 08:08:43 GMT
date: Tue, 21 Nov 2023 07:08:43 GMT
content-length: 519
access-control-allow-origin: https://www.kohls.com
timing-allow-origin: *
----
--Request 
GET https://assets.adobedtm.com/6d2e783bbfe3/c0c47c5c96c6/7a8648cd60a8/RC8ceaea1fd94a499eb45113af297edb25-source.min.js
Host: assets.adobedtm.com
sec-ch-ua: \"Not.A/Brand\";v=\"8\", \"Chromium\";v=\"114\"
sec-ch-ua-mobile: ?0
User-Agent: Mozilla/5.0 (X11; Linux x86_64) AppleWebKit/537.36 (KHTML, like Gecko) Chrome/114.0.0.0 Safari/537.36
sec-ch-ua-platform: \"Linux\"
Accept: */*
Sec-Fetch-Site: cross-site
Sec-Fetch-Mode: no-cors
Sec-Fetch-Dest: script
Referer: https://www.kohls.com/
Accept-Encoding: gzip, deflate, br
Accept-Language: en-US,en;q=0.9
----
--Response 
HTTP/1.1 200
accept-ranges: bytes
content-type: application/x-javascript
etag: \"c3f8eea087eda271fe3a803f1d4cfa06:1700078393.11621\"
last-modified: Wed, 15 Nov 2023 19:59:53 GMT
server: AkamaiNetStorage
vary: Accept-Encoding
content-encoding: gzip
cache-control: max-age=3600
expires: Tue, 21 Nov 2023 08:08:51 GMT
date: Tue, 21 Nov 2023 07:08:51 GMT
content-length: 311
access-control-allow-origin: https://www.kohls.com
timing-allow-origin: *
----
--Request 
GET https://www.kohls.com/snb/media/images/pmp_imgs/up.svg
Host: www.kohls.com
sec-ch-ua: \"Not.A/Brand\";v=\"8\", \"Chromium\";v=\"114\"
sec-ch-ua-mobile: ?0
User-Agent: Mozilla/5.0 (X11; Linux x86_64) AppleWebKit/537.36 (KHTML, like Gecko) Chrome/114.0.0.0 Safari/537.36
sec-ch-ua-platform: \"Linux\"
Accept: image/avif,image/webp,image/apng,image/svg+xml,image/*,*/*;q=0.8
Sec-Fetch-Site: same-origin
Sec-Fetch-Mode: no-cors
Sec-Fetch-Dest: image
Referer: https://www.kohls.com/catalog/womens-sweaters-tops-clothing.jsp?CN=Gender:Womens+Product:Sweaters+Category:Tops+Department:Clothing+Assortment:Kohls%20Black%20Friday&BST=6262123:6237310:6149518:6125449:6149518:6176056:6119381:6438581:6143395:6125326:4922640:6169493&icid=hpmf-BF-offer-womenssweaters-vlhd26&kls_sbp=79613869088917606480426504271561296302
Accept-Encoding: gzip, deflate, br
Accept-Language: en-US,en;q=0.9
Cookie: store_location=14201; akaalb_aem_homepage=~op=aem_production:aem_production|~rv=79~m=aem_production:0|~os=554fb49c1bda6073578f281b62264a0e~id=e5d8d097120eff09512a425189fcc66f; AKA_HP2Redesign=True; AKA_PIQ=True; AKA_ACM=True; AKA_CDP2=True; AKA_STP=false; AKA_PDP2=True; AKA_HP2=True; AKA_CNC2=True; AKA_RV6=12; AKA_RV8=72; AKA_RV4=57; AKA_RV5=23; AKA_RV3=95; AKA_RV=96; AKA_RV2=35; akacd_www-kohls-com-mosaic-p2=2177452799~rv=61~id=f2bfd608ff6bd75e278febb90f5bdcd7; at_check=true; s_ecid=MCMID%7C79613869088917606480426504271561296302; AMCVS_F0EF5E09512D2CD20A490D4D%40AdobeOrg=1; mboxEdgeCluster=35; AMCV_F0EF5E09512D2CD20A490D4D%40AdobeOrg=1585540135%7CMCIDTS%7C19683%7CMCMID%7C79613869088917606480426504271561296302%7CMCAID%7CNONE%7CMCOPTOUT-1700557721s%7CNONE%7CMCAAMLH-1701155321%7C7%7CMCAAMB-1701155321%7Cj8Odv6LonN4r3an7LhD3WZrU1bUpAkFkkiY1ncBR96t2PTI%7CMCSYNCS%7C1083-19690*1085-19690*1086-19690*1087-19690*1088-19690%7CMCSYNCSOP%7C411-19690%7CvVersion%7C4.4.0; rxVisitor=170055052197696JCFOBUP2E8LGBETNI04FF2IPU7PHBL; X-SESSIONID=d38e961d-eee7-4879-8340-ea94827e289a; VisitorId=d38e961d-eee7-4879-8340-ea94827e289a; K_favstore=14216|1306|BUFFALO|geo|sephora; spa=4; _dy_csc_ses=t; _dy_c_exps=; gpv_v9=Homepage; s_cc=true; _dycnst=dg; _uetsid=ce3c5ea0883c11ee858a29be7baeeb0f; _uetvid=ce3cb6c0883c11ee9c5d21bc71586f02; fp_client={%22id%22:%2229475071191700550523%22}; fp_session={%22i%22:%2288215330731700550523%22%2C%22d%22:1}; _dyid=-2796735126378358917; _dyfs=1700550523505; _dyjsession=cdc731762c4fbfb825c00a0125c71e79; dy_fs_page=www.kohls.com; _dy_lu_ses=cdc731762c4fbfb825c00a0125c71e79%3A1700550523506; _dycst=dk.l.c.ms.; _dy_geo=US.NA.US_MI.US_MI_Detroit; _dy_df_geo=United%20States.Michigan.Detroit; _dy_toffset=0; _rmt_an_idt=0; _mibhv=anon-1700550524031-5332320748_8212; _cs_c=0; IR_gbd=kohls.com; IR_5349=1700550524310%7C385561%7C1700550524310%7C%7C; _cs_cvars=%7B%221%22%3A%5B%22Page%20Name%22%2C%22Homepage%22%5D%2C%227%22%3A%5B%22Page%20Type%22%2C%22Homepage%22%5D%7D; _cs_id=adc880fd-d93e-ac59-cc5b-3c04e82d2b4b.1700550524.1.1700550524.1700550524.1588866862.1734714524445; IR_PI=cece5d75-883c-11ee-b347-d5b679c63de5%7C1700636924310; _cs_s=1.5.1.1700552324776; _pin_unauth=dWlkPVpEUXlNbU5sWm1JdE1XWmlZaTAwT1RjekxXSTVaakl0TURFNFpEQTJNalJqT0dJNQ; _fbp=fb.1.1700550525180.1119580522; _tt_enable_cookie=1; _ttp=aSHtu_gIQ09zwUi9iOI7iCWyAR-; _scid=1f04d67b-8a21-463f-ac1c-fe88de60033f; _scid_r=1f04d67b-8a21-463f-ac1c-fe88de60033f; _gcl_au=1.1.1181256846.1700550526; _evga_ce07={%22uuid%22:%220e4971bddb246461%22}; _sfid_6ab3={%22anonymousId%22:%220e4971bddb246461%22%2C%22consents%22:[]}; _ga_ZLYRBY87M8=GS1.1.1700550526.1.0.1700550526.60.0.0; __gads=ID=3c394970cb55450f:T=1700550526:RT=1700550526:S=ALNI_MbrJ3X_hGpSImvZMLI5SV9-34drNA; __gpi=UID=00000a00a9f90471:T=1700550526:RT=1700550526:S=ALNI_Ma8ugF9cZmpsonvpd3LpCjHvE5AkQ; _ga=GA1.2.1527107996.1700550526; _gid=GA1.2.1528984642.1700550527; _gat=1; _sctr=1%7C1700546400000; _dpm_ses.f2d1=*; _dpm_id.f2d1=0ef65a2f-e6a7-43f4-a1c7-c0d82ed29395.1700550532.1.1700550532.1700550532.a24e90a1-e57d-4467-afd8-a703310265c8; _li_dcdm_c=.kohls.com; _lc2_fpi=0b10d8358f40--01hfrbbpry1av2w5z5mhth4cen; _lc2_fpi_meta={%22w%22:1700550531870}; _dyid_server=-2796735126378358917; _li_ss=CjYKBQgKEMYWCgYI3QEQxhYKBgiBARDGFgoGCKIBEMYWCgYIiwEQxhYKBgjSARDGFgoFCH4QxhY; _li_ss_meta={%22w%22:1700550532279%2C%22e%22:1703142532279}; s_sq=kohlscomprod%3D%2526c.%2526a.%2526activitymap.%2526page%253Dhomepage%2526link%253D12%25252074%252520with%25252015%252525%252520off%252520coupon%25252A%252520Sweaters%252520for%252520women%252520and%252520juniors.%252520Select%252520styles.%252520Sale%252520%25252414.99%25252C%252520Reg.%252520%25252430-%25252440.%252520Shop%252520Women%2525E2%252580%252599s%252520%252526%252520Juniors%2525E2%252580%252599%252520Swe%2526region%253Dhp-equity01%2526pageIDType%253D1%2526.activitymap%2526.a%2526.c%2526pid%253DHomepage%2526pidt%253D1%2526oid%253Dhttps%25253A%25252F%25252Fwww.kohls.com%25252Fcatalog%25252Fwomens-sweaters-tops-clothing.jsp%25253FCN%25253DGender%25253AWomens%25252BProduct%25253ASweaters%25252BCa%2526ot%253DA; kls_p=true; 362fd180cb7a77f64919ee892a4d9d35=7191fc42ec960804587d38331d7dd83d; ak_bmsc=721A085A5E4C790A5F04ACCC015E956A~000000000000000000000000000000~YAAQxCkhF2k8luGLAQAAFyi28BU/65NCRHo8nighFmB8o9sHpbd/Hybfl4QCVNDQvTheKAvvXZGBqzia6xAh1uNwWR82Egg4OvsVRPzr2JB4r65yW6aK82WUxfwiZmuw5tjr0H5FdonnqI7pOAGf31XVNXO1yKOyK53QfIznOdRkaOl405VU0ZHbpNOJDjfqCZnqx1xvEJ8JToSqRH3o2qPo8TtS95WGHphlxJ1dJEZM8G1pwhewcyPxYM3X0gj7gRHlRYAbQ3vcsWf2p+Zf0xNLiGrJSbSEPn5vbMADAFjbHXi68G+vifBv9ysaxwBC6xRhcKtb2NMnjBdjRhD5qu3Sa1ld/NxBzWSzGNKcQorTStLLtZIkCAGv+C2dBy/1eAQ38N7m7OBWrRJfUA2cHzdkwMymQwYLGzNHWfLLEXfjv3GVadBZr1QxJXGoXPZmB3poUdBdtsMpoU8n7k2L9vmuBJf7wlo/SOSK/8TeI3yr9ycOHQXppVekIlEXhV4sep01mhWEq7EN8eVMpMqZhw0t8nPrXCWc3304XWeDReEXM0XurBvZHj09AAc3QpdOg0ZNXFRgDNo+WEXhm7U26gYnqdR8F0PPkZN1v7p5/DnYQD3fYVa9Nu8vVw==; bm_sz=EDE788231412FB1669642DC066D678F4~YAAQxCkhF2s8luGLAQAAFyi28BUsbcQWaMky0JbdYwZ+kK223YeB8J0bLDkW5XkbGnnNQnHLi4RqPStZZcjBZaAf1F3DsboI2vgD1Xkjvf5U1PsqNLk6xZKpL57gc8ktZA4N8WFri6SyLbig52vOn0ZJhcypbT8ec17lSly5t3/XwVYBEhp9y/rLzjoGpO3CxYPpF57aS471C8vJ2XFeCj2h9M4gAhZLYVOAHwjhimFInBDAVeKVqmZRebLVCZ0oKoNoc+lkYjyCfklfYVurasH54Hf2nPN6AjwHd91R9lKc4tUAKy1AvEIlYQq4fYkjTM1i3jZQQI7liqNPwOWZJ15Pd5VqcFlTWElzBTHu4XaFRmOy0Q2eYMBUB4jdSiCBjE3Ls6BmKFN/RFtKyfDn4OLyH4QHnw006zXeDA==~3683376~3617080; PIM-SESSION-ID=KODLNerk0tWEePaQ; mbox=session#cabcdd4927cd4756a91cdbcb38abdfc6#1700552413|PC#cabcdd4927cd4756a91cdbcb38abdfc6.35_0#1763795353; dtSa=-; rxvt=1700552353388|1700550521978; dtPC=14$150553347_964h-vHKACFJCCPMSVWCKACRIACGLNTUQCKJQH-0e0; RT=\"z=1&dm=kohls.com&si=ad04a02c-44c5-432e-9df4-90032e6d44c5&ss=lp7zve95&sl=2&tt=bd7&bcn=%2F%2F17de4c12.akstat.io%2F&ld=rbv\"; dtCookie=v_4_srv_16_sn_9FF4AA6B2CB0C1A259066B6C735B233C_perc_100000_ol_0_mul_1_rcs-3Acss_0; akavpau_www=1700550854~id=e4bd7b7115bbf7d8e898c7df66c89c77; OptanonConsent=isGpcEnabled=0&datestamp=Tue+Nov+21+2023+01%3A09%3A14+GMT-0600+(Central+Standard+Time)&version=202306.1.0&browserGpcFlag=0&isIABGlobal=false&hosts=&consentId=2b091aa3-a2d0-44ef-8ec1-29c13ea7ca72&interactionCount=0&landingPath=https%3A%2F%2Fwww.kohls.com%2Fcatalog%2Fwomens-sweaters-tops-clothing.jsp%3FCN%3DGender%3AWomens+Product%3ASweaters+Category%3ATops+Department%3AClothing+Assortment%3AKohls%2520Black%2520Friday%26BST%3D6262123%3A6237310%3A6149518%3A6125449%3A6149518%3A6176056%3A6119381%3A6438581%3A6143395%3A6125326%3A4922640%3A6169493%26icid%3Dhpmf-BF-offer-womenssweaters-vlhd26%26kls_sbp%3D79613869088917606480426504271561296302&groups=C005%3A1%2CC0001%3A1%2CC0003%3A1%2CC006%3A1%2CC0004%3A1%2CC0002%3A1; _dy_ses_load_seq=84609%3A1700550554594; _dy_c_att_exps=; _dy_soct=561158.1083346.1700550523*577704.1114257.1700550523*785673.1487461.1700550523*577478.1113986.1700550523*839301.1661807.1700550523*604242.1165732.1700550554*606987.1171916.1700550554*664718.1276830.1700550554*675999.1296928.1700550554*695696.1330231.1700550554*707338.1351316.1700550554*546795.1053981.1700550554; evarRefinementValues=; pdpUrl=; _abck=CC169C04AF00814B225B42A002C6AB5F~-1~YAAQxCkhF5o9luGLAQAA+DS28Aobmpt0n++IRx1T356mWgSXSkLja8cyzYmKOdgYDBY9PNoVXuh6G9oPdu3TwvJp/pf/tnL0ezJ8lIhZVv4JPBYBMRxvYf2VNdMMpIHmzNliCY+u495+SclphUSF6kAl/2QAC6u5DTmScxDPGOQ4Gg4U6Z5MP1Gz+qa6hS7gASRRrDqZO7EkUiEUKWHeI4MS9v+4ZKd9jvySiF1JBhJXFbthqq0aqPBV4hhoCteSqGeGDck9wVNlll/ZhcEznpOjblEj7Bbf0q6GLIFJPP2j4ZEc9NnndCoWO5ANBZ/iBaxtF9hsrpXy6tRKhbGxKKoz2Bu4LILTA8aHiYZzq8pOiE93Zmp1Lm4NYE94rWeStjO3/fYUPRPKGUSV9GBIn0jT+8qJirWwJKq0kbdEoprn7BDc43F9Zcd/n0sy9IeSBvF/FQ6OT37iN+j0cyjI5zj7++5mIJcpDQhQQhqULJpO+pouVBjA2w0lt6geYCsVhyEYLdHwfiJvXxqWFwsmu0Qx~-1~-1~1700554122; bm_sv=E9CC4175A998BE646991AD33CB3A6E5B~YAAQxCkhF5s9luGLAQAA+TS28BXwFntOL5/3fGgh86EL9iGtkkExyz/oli2ZBMCGYGUTXEU6NYNP/slUnREuWciIZvp6+amij1TDCUfzp5Zn+AkMhx/2d8wmWiGGpNkU6+Xaw1LL/G2QwcLXurZvhMWBo4JTOw16c8IfwTdXDAQBysLP9PII2TVS/kYVQbZs8+1uqaoBRC3yLQ9ylBO7eHYjdAv0j9PHB0reshVyWr+WZHaK+OdWNhVlp809Fk7i~1
----
--Response 
HTTP/1.1 200
content-type: image/svg+xml
accept-ranges: bytes
content-encoding: gzip
etag: W/\"126-18b0066a5a8\"
last-modified: Thu, 05 Oct 2023 18:34:24 GMT
server: Akamai Resource Optimizer
x-origin-cc: public, max-age=0
x-origin-cc: public, max-age=86400
x-origin-cc: public, max-age=86400
x-origin-cc: public, max-age=86400
x-origin-cc: public, max-age=86400
x-origin-cc: public, max-age=86400
x-origin-ttl: Fri, 06 Oct 2023 18:34:23 GMT
x-origin-ttl: Fri, 06 Oct 2023 18:34:23 GMT
x-origin-ttl: Fri, 06 Oct 2023 18:34:23 GMT
x-origin-ttl: Fri, 06 Oct 2023 18:34:23 GMT
x-origin-ttl: Fri, 06 Oct 2023 18:34:23 GMT
correlation-id: webstore::b5c8d923-762a-4e18-a1bd-c17a0da4bff0::1696530863::SNB::snb-ui-f96b854fc-5k8v4::2.23.3.113
content-length: 212
cache-control: public, max-age=86400
expires: Wed, 22 Nov 2023 07:09:15 GMT
date: Tue, 21 Nov 2023 07:09:15 GMT
vary: Accept-Encoding
set-cookie: _dyid_server=-2796735126378358917; expires=Wed, 20-Nov-2024 07:09:15 GMT; path=/; domain=.kohls.com; secure
set-cookie: _abck=CC169C04AF00814B225B42A002C6AB5F~-1~YAAQxCkhF6k9luGLAQAArDW28Ao6VFzxj+0O3HOg7MYtIyow0fCByDuPoEMMu/0af0ZOlhTrf5H6eX6+/cCPhlNGelmnrHSkF4U7dZM9lDhQ+UNsJ80hzHEYAdhJcMSFKkV3tl82eRoYrn4GUe+vkeTtJLCaeap8qnztODFIZCMcAg7iTSjULE85BUl5rW0UBjUmrDBr7VeTnfiCETNHeN5Xnjg6wO1FHY7j+tSSr4n0mnQTLLYrabZlW7NZlA+8SSirLNHs4Wc508RPGgAacNhFvcYClzqCHfdU0OC+WQnQd+LBUgNO5vKTxHgdzIgIpbC7OVltybgYYWQLZ4BaB7bGrnWWptPhohoNbJsjJGBHpTNWcJ64gSkWmMQ0HqMuRc91lF0/wIDNxoOzUFIh89hqcQjDviA3SluTABeFuqVHcEdszkwY8y1CBoqPyfZ+53uVrnKBFLlRqFHTb9mMsmFWHQRijhbVcauWR31oPUKN1MHJjLlkEZXiSwzEGUXD2kRRONx8mlrTJrd+UwR6hrIB~-1~-1~1700554122; Domain=.kohls.com; Path=/; Expires=Wed, 20 Nov 2024 07:09:14 GMT; Max-Age=31535999; Secure
server-timing: cdn-cache; desc=HIT
server-timing: edge; dur=1
server-timing: ak_p; desc=\"1700550555023_388049348_666702202_63_27753_11_0_146\";dur=1
strict-transport-security: max-age=15768000 ; preload
----
--Request 
GET https://www.kohls.com/catalog/undefined
Host: www.kohls.com
sec-ch-ua: \"Not.A/Brand\";v=\"8\", \"Chromium\";v=\"114\"
sec-ch-ua-mobile: ?0
User-Agent: Mozilla/5.0 (X11; Linux x86_64) AppleWebKit/537.36 (KHTML, like Gecko) Chrome/114.0.0.0 Safari/537.36
sec-ch-ua-platform: \"Linux\"
Accept: image/avif,image/webp,image/apng,image/svg+xml,image/*,*/*;q=0.8
Sec-Fetch-Site: same-origin
Sec-Fetch-Mode: no-cors
Sec-Fetch-Dest: image
Referer: https://www.kohls.com/catalog/womens-sweaters-tops-clothing.jsp?CN=Gender:Womens+Product:Sweaters+Category:Tops+Department:Clothing+Assortment:Kohls%20Black%20Friday&BST=6262123:6237310:6149518:6125449:6149518:6176056:6119381:6438581:6143395:6125326:4922640:6169493&icid=hpmf-BF-offer-womenssweaters-vlhd26&kls_sbp=79613869088917606480426504271561296302
Accept-Encoding: gzip, deflate, br
Accept-Language: en-US,en;q=0.9
Cookie: store_location=14201; akaalb_aem_homepage=~op=aem_production:aem_production|~rv=79~m=aem_production:0|~os=554fb49c1bda6073578f281b62264a0e~id=e5d8d097120eff09512a425189fcc66f; AKA_HP2Redesign=True; AKA_PIQ=True; AKA_ACM=True; AKA_CDP2=True; AKA_STP=false; AKA_PDP2=True; AKA_HP2=True; AKA_CNC2=True; AKA_RV6=12; AKA_RV8=72; AKA_RV4=57; AKA_RV5=23; AKA_RV3=95; AKA_RV=96; AKA_RV2=35; akacd_www-kohls-com-mosaic-p2=2177452799~rv=61~id=f2bfd608ff6bd75e278febb90f5bdcd7; at_check=true; s_ecid=MCMID%7C79613869088917606480426504271561296302; AMCVS_F0EF5E09512D2CD20A490D4D%40AdobeOrg=1; mboxEdgeCluster=35; AMCV_F0EF5E09512D2CD20A490D4D%40AdobeOrg=1585540135%7CMCIDTS%7C19683%7CMCMID%7C79613869088917606480426504271561296302%7CMCAID%7CNONE%7CMCOPTOUT-1700557721s%7CNONE%7CMCAAMLH-1701155321%7C7%7CMCAAMB-1701155321%7Cj8Odv6LonN4r3an7LhD3WZrU1bUpAkFkkiY1ncBR96t2PTI%7CMCSYNCS%7C1083-19690*1085-19690*1086-19690*1087-19690*1088-19690%7CMCSYNCSOP%7C411-19690%7CvVersion%7C4.4.0; rxVisitor=170055052197696JCFOBUP2E8LGBETNI04FF2IPU7PHBL; X-SESSIONID=d38e961d-eee7-4879-8340-ea94827e289a; VisitorId=d38e961d-eee7-4879-8340-ea94827e289a; K_favstore=14216|1306|BUFFALO|geo|sephora; spa=4; _dy_csc_ses=t; _dy_c_exps=; gpv_v9=Homepage; s_cc=true; _dycnst=dg; _uetsid=ce3c5ea0883c11ee858a29be7baeeb0f; _uetvid=ce3cb6c0883c11ee9c5d21bc71586f02; fp_client={%22id%22:%2229475071191700550523%22}; fp_session={%22i%22:%2288215330731700550523%22%2C%22d%22:1}; _dyid=-2796735126378358917; _dyfs=1700550523505; _dyjsession=cdc731762c4fbfb825c00a0125c71e79; dy_fs_page=www.kohls.com; _dy_lu_ses=cdc731762c4fbfb825c00a0125c71e79%3A1700550523506; _dycst=dk.l.c.ms.; _dy_geo=US.NA.US_MI.US_MI_Detroit; _dy_df_geo=United%20States.Michigan.Detroit; _dy_toffset=0; _rmt_an_idt=0; _mibhv=anon-1700550524031-5332320748_8212; _cs_c=0; IR_gbd=kohls.com; IR_5349=1700550524310%7C385561%7C1700550524310%7C%7C; _cs_cvars=%7B%221%22%3A%5B%22Page%20Name%22%2C%22Homepage%22%5D%2C%227%22%3A%5B%22Page%20Type%22%2C%22Homepage%22%5D%7D; _cs_id=adc880fd-d93e-ac59-cc5b-3c04e82d2b4b.1700550524.1.1700550524.1700550524.1588866862.1734714524445; IR_PI=cece5d75-883c-11ee-b347-d5b679c63de5%7C1700636924310; _cs_s=1.5.1.1700552324776; _pin_unauth=dWlkPVpEUXlNbU5sWm1JdE1XWmlZaTAwT1RjekxXSTVaakl0TURFNFpEQTJNalJqT0dJNQ; _fbp=fb.1.1700550525180.1119580522; _tt_enable_cookie=1; _ttp=aSHtu_gIQ09zwUi9iOI7iCWyAR-; _scid=1f04d67b-8a21-463f-ac1c-fe88de60033f; _scid_r=1f04d67b-8a21-463f-ac1c-fe88de60033f; _gcl_au=1.1.1181256846.1700550526; _evga_ce07={%22uuid%22:%220e4971bddb246461%22}; _sfid_6ab3={%22anonymousId%22:%220e4971bddb246461%22%2C%22consents%22:[]}; _ga_ZLYRBY87M8=GS1.1.1700550526.1.0.1700550526.60.0.0; __gads=ID=3c394970cb55450f:T=1700550526:RT=1700550526:S=ALNI_MbrJ3X_hGpSImvZMLI5SV9-34drNA; __gpi=UID=00000a00a9f90471:T=1700550526:RT=1700550526:S=ALNI_Ma8ugF9cZmpsonvpd3LpCjHvE5AkQ; _ga=GA1.2.1527107996.1700550526; _gid=GA1.2.1528984642.1700550527; _gat=1; _sctr=1%7C1700546400000; _dpm_ses.f2d1=*; _dpm_id.f2d1=0ef65a2f-e6a7-43f4-a1c7-c0d82ed29395.1700550532.1.1700550532.1700550532.a24e90a1-e57d-4467-afd8-a703310265c8; _li_dcdm_c=.kohls.com; _lc2_fpi=0b10d8358f40--01hfrbbpry1av2w5z5mhth4cen; _lc2_fpi_meta={%22w%22:1700550531870}; _dyid_server=-2796735126378358917; _li_ss=CjYKBQgKEMYWCgYI3QEQxhYKBgiBARDGFgoGCKIBEMYWCgYIiwEQxhYKBgjSARDGFgoFCH4QxhY; _li_ss_meta={%22w%22:1700550532279%2C%22e%22:1703142532279}; s_sq=kohlscomprod%3D%2526c.%2526a.%2526activitymap.%2526page%253Dhomepage%2526link%253D12%25252074%252520with%25252015%252525%252520off%252520coupon%25252A%252520Sweaters%252520for%252520women%252520and%252520juniors.%252520Select%252520styles.%252520Sale%252520%25252414.99%25252C%252520Reg.%252520%25252430-%25252440.%252520Shop%252520Women%2525E2%252580%252599s%252520%252526%252520Juniors%2525E2%252580%252599%252520Swe%2526region%253Dhp-equity01%2526pageIDType%253D1%2526.activitymap%2526.a%2526.c%2526pid%253DHomepage%2526pidt%253D1%2526oid%253Dhttps%25253A%25252F%25252Fwww.kohls.com%25252Fcatalog%25252Fwomens-sweaters-tops-clothing.jsp%25253FCN%25253DGender%25253AWomens%25252BProduct%25253ASweaters%25252BCa%2526ot%253DA; kls_p=true; 362fd180cb7a77f64919ee892a4d9d35=7191fc42ec960804587d38331d7dd83d; ak_bmsc=721A085A5E4C790A5F04ACCC015E956A~000000000000000000000000000000~YAAQxCkhF2k8luGLAQAAFyi28BU/65NCRHo8nighFmB8o9sHpbd/Hybfl4QCVNDQvTheKAvvXZGBqzia6xAh1uNwWR82Egg4OvsVRPzr2JB4r65yW6aK82WUxfwiZmuw5tjr0H5FdonnqI7pOAGf31XVNXO1yKOyK53QfIznOdRkaOl405VU0ZHbpNOJDjfqCZnqx1xvEJ8JToSqRH3o2qPo8TtS95WGHphlxJ1dJEZM8G1pwhewcyPxYM3X0gj7gRHlRYAbQ3vcsWf2p+Zf0xNLiGrJSbSEPn5vbMADAFjbHXi68G+vifBv9ysaxwBC6xRhcKtb2NMnjBdjRhD5qu3Sa1ld/NxBzWSzGNKcQorTStLLtZIkCAGv+C2dBy/1eAQ38N7m7OBWrRJfUA2cHzdkwMymQwYLGzNHWfLLEXfjv3GVadBZr1QxJXGoXPZmB3poUdBdtsMpoU8n7k2L9vmuBJf7wlo/SOSK/8TeI3yr9ycOHQXppVekIlEXhV4sep01mhWEq7EN8eVMpMqZhw0t8nPrXCWc3304XWeDReEXM0XurBvZHj09AAc3QpdOg0ZNXFRgDNo+WEXhm7U26gYnqdR8F0PPkZN1v7p5/DnYQD3fYVa9Nu8vVw==; bm_sz=EDE788231412FB1669642DC066D678F4~YAAQxCkhF2s8luGLAQAAFyi28BUsbcQWaMky0JbdYwZ+kK223YeB8J0bLDkW5XkbGnnNQnHLi4RqPStZZcjBZaAf1F3DsboI2vgD1Xkjvf5U1PsqNLk6xZKpL57gc8ktZA4N8WFri6SyLbig52vOn0ZJhcypbT8ec17lSly5t3/XwVYBEhp9y/rLzjoGpO3CxYPpF57aS471C8vJ2XFeCj2h9M4gAhZLYVOAHwjhimFInBDAVeKVqmZRebLVCZ0oKoNoc+lkYjyCfklfYVurasH54Hf2nPN6AjwHd91R9lKc4tUAKy1AvEIlYQq4fYkjTM1i3jZQQI7liqNPwOWZJ15Pd5VqcFlTWElzBTHu4XaFRmOy0Q2eYMBUB4jdSiCBjE3Ls6BmKFN/RFtKyfDn4OLyH4QHnw006zXeDA==~3683376~3617080; PIM-SESSION-ID=KODLNerk0tWEePaQ; mbox=session#cabcdd4927cd4756a91cdbcb38abdfc6#1700552413|PC#cabcdd4927cd4756a91cdbcb38abdfc6.35_0#1763795353; dtSa=-; rxvt=1700552353388|1700550521978; dtPC=14$150553347_964h-vHKACFJCCPMSVWCKACRIACGLNTUQCKJQH-0e0; RT=\"z=1&dm=kohls.com&si=ad04a02c-44c5-432e-9df4-90032e6d44c5&ss=lp7zve95&sl=2&tt=bd7&bcn=%2F%2F17de4c12.akstat.io%2F&ld=rbv\"; dtCookie=v_4_srv_16_sn_9FF4AA6B2CB0C1A259066B6C735B233C_perc_100000_ol_0_mul_1_rcs-3Acss_0; akavpau_www=1700550854~id=e4bd7b7115bbf7d8e898c7df66c89c77; OptanonConsent=isGpcEnabled=0&datestamp=Tue+Nov+21+2023+01%3A09%3A14+GMT-0600+(Central+Standard+Time)&version=202306.1.0&browserGpcFlag=0&isIABGlobal=false&hosts=&consentId=2b091aa3-a2d0-44ef-8ec1-29c13ea7ca72&interactionCount=0&landingPath=https%3A%2F%2Fwww.kohls.com%2Fcatalog%2Fwomens-sweaters-tops-clothing.jsp%3FCN%3DGender%3AWomens+Product%3ASweaters+Category%3ATops+Department%3AClothing+Assortment%3AKohls%2520Black%2520Friday%26BST%3D6262123%3A6237310%3A6149518%3A6125449%3A6149518%3A6176056%3A6119381%3A6438581%3A6143395%3A6125326%3A4922640%3A6169493%26icid%3Dhpmf-BF-offer-womenssweaters-vlhd26%26kls_sbp%3D79613869088917606480426504271561296302&groups=C005%3A1%2CC0001%3A1%2CC0003%3A1%2CC006%3A1%2CC0004%3A1%2CC0002%3A1; _dy_ses_load_seq=84609%3A1700550554594; _dy_c_att_exps=; _dy_soct=561158.1083346.1700550523*577704.1114257.1700550523*785673.1487461.1700550523*577478.1113986.1700550523*839301.1661807.1700550523*604242.1165732.1700550554*606987.1171916.1700550554*664718.1276830.1700550554*675999.1296928.1700550554*695696.1330231.1700550554*707338.1351316.1700550554*546795.1053981.1700550554; evarRefinementValues=; pdpUrl=; _abck=CC169C04AF00814B225B42A002C6AB5F~-1~YAAQxCkhF5o9luGLAQAA+DS28Aobmpt0n++IRx1T356mWgSXSkLja8cyzYmKOdgYDBY9PNoVXuh6G9oPdu3TwvJp/pf/tnL0ezJ8lIhZVv4JPBYBMRxvYf2VNdMMpIHmzNliCY+u495+SclphUSF6kAl/2QAC6u5DTmScxDPGOQ4Gg4U6Z5MP1Gz+qa6hS7gASRRrDqZO7EkUiEUKWHeI4MS9v+4ZKd9jvySiF1JBhJXFbthqq0aqPBV4hhoCteSqGeGDck9wVNlll/ZhcEznpOjblEj7Bbf0q6GLIFJPP2j4ZEc9NnndCoWO5ANBZ/iBaxtF9hsrpXy6tRKhbGxKKoz2Bu4LILTA8aHiYZzq8pOiE93Zmp1Lm4NYE94rWeStjO3/fYUPRPKGUSV9GBIn0jT+8qJirWwJKq0kbdEoprn7BDc43F9Zcd/n0sy9IeSBvF/FQ6OT37iN+j0cyjI5zj7++5mIJcpDQhQQhqULJpO+pouVBjA2w0lt6geYCsVhyEYLdHwfiJvXxqWFwsmu0Qx~-1~-1~1700554122; bm_sv=E9CC4175A998BE646991AD33CB3A6E5B~YAAQxCkhF5s9luGLAQAA+TS28BXwFntOL5/3fGgh86EL9iGtkkExyz/oli2ZBMCGYGUTXEU6NYNP/slUnREuWciIZvp6+amij1TDCUfzp5Zn+AkMhx/2d8wmWiGGpNkU6+Xaw1LL/G2QwcLXurZvhMWBo4JTOw16c8IfwTdXDAQBysLP9PII2TVS/kYVQbZs8+1uqaoBRC3yLQ9ylBO7eHYjdAv0j9PHB0reshVyWr+WZHaK+OdWNhVlp809Fk7i~1
----
--Response 
HTTP/1.1 301
server: AkamaiGHost
content-length: 0
location: https://www.kohls.com/
expires: Tue, 21 Nov 2023 07:09:15 GMT
cache-control: max-age=0, no-cache, no-store
pragma: no-cache
date: Tue, 21 Nov 2023 07:09:15 GMT
set-cookie: AKA_STP=false; expires=Wed, 20-Nov-2024 07:09:15 GMT; path=/; secure
set-cookie: _dyid_server=-2796735126378358917; expires=Wed, 20-Nov-2024 07:09:15 GMT; path=/; domain=.kohls.com; secure
set-cookie: _abck=CC169C04AF00814B225B42A002C6AB5F~-1~YAAQxCkhF6w9luGLAQAA0DW28AoCvq+2eS4JlofZ9qGaauK/W3mL4E+LKxCqws9yC0IaTOKmAjb4B9qkP+/mFfLAH9+ezCed5wLHeFn1UdzOffyQhSc/c2IcF07qlKHSK3zhr07ByQaTcc3FzqJ6W/KTpa5yWD+ey02dDsPk8NLhJo0j5om64rN3foBUANkC7N8Bm8KSOjggHbWHjbcECPILZ/y00t3CalLkV6Lo94w1a7OTLKNwX4VtdqQfWgweRVz6kPcnDZVmwokqn9cwzyjbtLZQ5NEBJNEoPLkM0bwNBSJBEPm6FBvfUG3ldteSYW9oifo6U23UCbaQwg8rSJV6aQ16ZuWVuxNOtSgL4Kz+YlKqNKIQeydTZL97cCce21VDqtiGJ1EyOz8ivqgu0qlTUPOULNjbETbFSAVBYnUBb755LET4LdDrRO74itUuLvekHG+bUmftqiEUp2oGK6unTTx/w2PE8onbyIkUH1y6E9Df5dvubNfPd0Rz/hXOEMjU8wI/RqWgfCcaOzA7ownv~-1~-1~1700554122; Domain=.kohls.com; Path=/; Expires=Wed, 20 Nov 2024 07:09:14 GMT; Max-Age=31535999; Secure
server-timing: cdn-cache; desc=HIT
server-timing: edge; dur=1
server-timing: ak_p; desc=\"1700550555054_388049348_666702206_166_33092_14_0_146\";dur=1
strict-transport-security: max-age=15768000 ; preload
----

