--Request 
POST https://bf27853irn.bf.dynatrace.com/bf?type=js3&sn=v_4_srv_16_sn_7AE743F52EB51B2E022B722A8C61E6D6_perc_100000_ol_0_mul_1_rcs-3Acss_0&svrid=16&flavor=cors&vi=HKACFJCCPMSVWCKACRIACGLNTUQCKJQH-0&modifiedSince=1700241558551&rf=https%3A%2F%2Fwww.kohls.com%2Fcatalog%2Fwomens-sweaters-tops-clothing.jsp%3FCN%3DGender%3AWomens%2BProduct%3ASweaters%2BCategory%3ATops%2BDepartment%3AClothing%2BAssortment%3AKohls%2520Black%2520Friday%26BST%3D6262123%3A6237310%3A6149518%3A6125449%3A6149518%3A6176056%3A6119381%3A6438581%3A6143395%3A6125326%3A4922640%3A6169493%26icid%3Dhpmf-BF-offer-womenssweaters-vlhd26%26kls_sbp%3D79613869088917606480426504271561296302&bp=3&app=cf6a6b14e494e621&crc=3188919068&en=ldtlho0d&end=1
Host: bf27853irn.bf.dynatrace.com
sec-ch-ua: \"Not.A/Brand\";v=\"8\", \"Chromium\";v=\"114\"
sec-ch-ua-platform: \"Linux\"
sec-ch-ua-mobile: ?0
User-Agent: Mozilla/5.0 (X11; Linux x86_64) AppleWebKit/537.36 (KHTML, like Gecko) Chrome/114.0.0.0 Safari/537.36
Content-Type: text/plain;charset=UTF-8
Accept: */*
Origin: https://www.kohls.com
Sec-Fetch-Site: cross-site
Sec-Fetch-Mode: cors
Sec-Fetch-Dest: empty
Referer: https://www.kohls.com/
Accept-Encoding: gzip, deflate, br
Accept-Language: en-US,en;q=0.9
----
--Response 
HTTP/1.1 200
date: Tue, 21 Nov 2023 07:09:16 GMT
content-type: text/plain;charset=utf-8
content-length: 223
set-cookie: dtCookie=v_4_srv_8_sn_60AB145BEC1DE73330899F2055FFA080_perc_100000_ol_0_mul_1_app-3Aea7c4b59f27d43eb_1_rcs-3Acss_0; Path=/; Domain=.dynatrace.com
x-oneagent-js-injection: true
access-control-allow-origin: https://www.kohls.com
cache-control: no-cache
----
--Request 
GET https://async-px.dynamicyield.com/var?cnst=1&_=434058&uid=-2796735126378358917&sec=8776374&t=ri&e=1488485&p=2&ve=12229162&va=%5B27920389%5D&ses=5d0e8cd2dde4c6e754f17773f6a628da&expSes=84609&aud=1408117.1438654.1476022.1899869.1910576.1955486.2028982.1362540.1362542.1468187.2013139&expVisitId=3724873483355478896&mech=1&smech=null&eri=1&tsrc=Direct&reqts=1700550555648&rri=9057576
Host: async-px.dynamicyield.com
sec-ch-ua: \"Not.A/Brand\";v=\"8\", \"Chromium\";v=\"114\"
sec-ch-ua-mobile: ?0
User-Agent: Mozilla/5.0 (X11; Linux x86_64) AppleWebKit/537.36 (KHTML, like Gecko) Chrome/114.0.0.0 Safari/537.36
sec-ch-ua-platform: \"Linux\"
Accept: */*
Origin: https://www.kohls.com
Sec-Fetch-Site: cross-site
Sec-Fetch-Mode: cors
Sec-Fetch-Dest: empty
Referer: https://www.kohls.com/
Accept-Encoding: gzip, deflate, br
Accept-Language: en-US,en;q=0.9
----
--Response 
HTTP/1.1 200
content-length: 0
date: Tue, 21 Nov 2023 07:09:16 GMT
access-control-allow-origin: *
access-control-allow-methods: POST, GET, OPTIONS
access-control-allow-headers: Content-Type, Authorization, Content-Length, X-Requested-With
cache-control: no-cache, no-store, must-revalidate
pragma: no-cache
expires: 0
x-cache: Miss from cloudfront
via: 1.1 03093c003b20d410ed3ec3e4bb2d569c.cloudfront.net (CloudFront)
x-amz-cf-pop: CMH68-P4
x-amz-cf-id: r882Zo9yw0PsTSJUWGbAbdRHT2Mzj-zRxs6FLYeN0_vNlCdLyC_pBg==
----
--Request 
GET https://async-px.dynamicyield.com/var?cnst=1&_=283553&uid=-2796735126378358917&sec=8776374&t=ri&e=1490806&p=2&ve=12226297&va=%5B27927795%5D&ses=5d0e8cd2dde4c6e754f17773f6a628da&expSes=84609&aud=1408117.1438654.1476022.1899869.1910576.1955486.2028982.1362540.1362542.1468187.2013139&expVisitId=3724873484794581864&mech=1&smech=null&eri=1&tsrc=Direct&reqts=1700550555650&rri=433828
Host: async-px.dynamicyield.com
sec-ch-ua: \"Not.A/Brand\";v=\"8\", \"Chromium\";v=\"114\"
sec-ch-ua-mobile: ?0
User-Agent: Mozilla/5.0 (X11; Linux x86_64) AppleWebKit/537.36 (KHTML, like Gecko) Chrome/114.0.0.0 Safari/537.36
sec-ch-ua-platform: \"Linux\"
Accept: */*
Origin: https://www.kohls.com
Sec-Fetch-Site: cross-site
Sec-Fetch-Mode: cors
Sec-Fetch-Dest: empty
Referer: https://www.kohls.com/
Accept-Encoding: gzip, deflate, br
Accept-Language: en-US,en;q=0.9
----
--Response 
HTTP/1.1 200
content-length: 0
date: Tue, 21 Nov 2023 07:09:16 GMT
access-control-allow-origin: *
access-control-allow-methods: POST, GET, OPTIONS
access-control-allow-headers: Content-Type, Authorization, Content-Length, X-Requested-With
cache-control: no-cache, no-store, must-revalidate
pragma: no-cache
expires: 0
x-cache: Miss from cloudfront
via: 1.1 03093c003b20d410ed3ec3e4bb2d569c.cloudfront.net (CloudFront)
x-amz-cf-pop: CMH68-P4
x-amz-cf-id: E09PZmx4h4zxhRU2MBmWQpAyF05t-sEOvk5Ls5eOBoPHHN2W_fh3Pg==
----
--Request 
OPTIONS https://endpoint.dlp.retail.adeptmind.ai/interlinks
Host: endpoint.dlp.retail.adeptmind.ai
Accept: */*
Access-Control-Request-Method: POST
Access-Control-Request-Headers: content-type
Origin: https://www.kohls.com
User-Agent: Mozilla/5.0 (X11; Linux x86_64) AppleWebKit/537.36 (KHTML, like Gecko) Chrome/114.0.0.0 Safari/537.36
Sec-Fetch-Mode: cors
Sec-Fetch-Site: cross-site
Sec-Fetch-Dest: empty
Referer: https://www.kohls.com/
Accept-Encoding: gzip, deflate, br
Accept-Language: en-US,en;q=0.9
----
--Response 
HTTP/1.1 200
date: Tue, 21 Nov 2023 07:09:16 GMT
server: istio-envoy
vary: Origin
access-control-allow-methods: GET, POST, OPTIONS
access-control-max-age: 600
access-control-allow-credentials: true
access-control-allow-origin: https://www.kohls.com
access-control-allow-headers: content-type
content-length: 2
content-type: text/plain; charset=utf-8
x-envoy-upstream-service-time: 2
x-envoy-decorator-operation: dlpws-endpoint.dlp-webservices-prod.svc.cluster.local:80/*
via: 1.1 google
alt-svc: h3=\":443\"; ma=2592000,h3-29=\":443\"; ma=2592000
----

