--Request 
POST https://bf27853irn.bf.dynatrace.com/bf?type=js3&sn=v_4_srv_5_sn_7AE743F52EB51B2E022B722A8C61E6D6_app-3Acf6a6b14e494e621_1_ol_0_perc_100000_mul_1_rcs-3Acss_0&svrid=5&flavor=cors&vi=HKACFJCCPMSVWCKACRIACGLNTUQCKJQH-0&modifiedSince=1700241558551&rf=https%3A%2F%2Fwww.kohls.com%2Fcheckout%2Fshopping_cart.jsp&bp=3&app=cf6a6b14e494e621&crc=3093991325&en=ldtlho0d&end=1
Host: bf27853irn.bf.dynatrace.com
sec-ch-ua: \"Not.A/Brand\";v=\"8\", \"Chromium\";v=\"114\"
sec-ch-ua-platform: \"Linux\"
sec-ch-ua-mobile: ?0
User-Agent: Mozilla/5.0 (X11; Linux x86_64) AppleWebKit/537.36 (KHTML, like Gecko) Chrome/114.0.0.0 Safari/537.36
Content-Type: text/plain;charset=UTF-8
Accept: */*
Origin: https://www.kohls.com
Sec-Fetch-Site: cross-site
Sec-Fetch-Mode: cors
Sec-Fetch-Dest: empty
Referer: https://www.kohls.com/
Accept-Encoding: gzip, deflate, br
Accept-Language: en-US,en;q=0.9
----
--Response 
HTTP/1.1 200
date: Tue, 21 Nov 2023 07:10:05 GMT
content-type: text/plain;charset=utf-8
content-length: 222
set-cookie: dtCookie=v_4_srv_14_sn_84D6A3AB2FE6CFAC42F656F9E73F3535_perc_100000_ol_0_mul_1_app-3Aea7c4b59f27d43eb_1_rcs-3Acss_0; Path=/; Domain=.dynatrace.com
x-oneagent-js-injection: true
access-control-allow-origin: https://www.kohls.com
cache-control: no-cache
----
--Request 
GET https://www.googleadservices.com/pagead/conversion/746851823/?random=1700550605459&cv=9&fst=1700550605459&num=1&npa=1&label=FO9RCN7V-pQYEO-bkOQC&guid=ON&resp=GooglemKTybQhCsO&eid=375603260%2C466465925%2C512247838&u_h=575&u_w=1313&u_ah=575&u_aw=1313&u_cd=24&u_his=5&u_tz=-360&u_java=false&u_nplug=0&u_nmime=0&sendb=1&ig=1&frm=2&url=https%3A%2F%2F8632166.fls.doubleclick.net%2Fddm%2Ffls%2Fr%2Fdc_pre%3DCPTp_NXE1IIDFRPyKAUdKGYAUw%3Bsrc%3D8632166%3Btype%3Dlandi0%3Bcat%3Dunive0%3Bord%3D4995151454488%3Bauiddc%3D1181256846.1700550526%3Bu1%3DAdOps_Cart_All_Product%2520IDs%3Bu2%3D%2525AdOps_Cart_All_ProductName%2525%3Bu5%3D%2525AdOps_Cart_All_NumberOfItems%2525%3Bu10%3Dhttps%253A%252F%252Fwww.kohls.com%252Fcheckout%252Fshopping_cart.jsp%3Bu11%3Dshopping_cart%3Bu13%3DValue%3Bu23%3DNew%2520Customer%3Bu24%3D79613869088917606480426504271561296302%3Bu25%3Dd38e961d-eee7-4879-8340-ea94827e289a%3Bgtm%3D45fe3b81v9135074177%3Bgcd%3D11l1l1l1l1%3Bdma%3D0%3Buaa%3Dx&ref=https%3A%2F%2F8632166.fls.doubleclick.net%2F&hn=www.googleadservices.com&rfmt=3&fmt=4
Host: www.googleadservices.com
sec-ch-ua: \"Not.A/Brand\";v=\"8\", \"Chromium\";v=\"114\"
sec-ch-ua-mobile: ?0
User-Agent: Mozilla/5.0 (X11; Linux x86_64) AppleWebKit/537.36 (KHTML, like Gecko) Chrome/114.0.0.0 Safari/537.36
sec-ch-ua-platform: \"Linux\"
Accept: */*
Sec-Fetch-Site: cross-site
Sec-Fetch-Mode: no-cors
Sec-Fetch-Dest: script
Referer: https://8632166.fls.doubleclick.net/
Accept-Encoding: gzip, deflate, br
Accept-Language: en-US,en;q=0.9
----
--Response 
HTTP/1.1 200
p3p: policyref=\"https://www.googleadservices.com/pagead/p3p.xml\", CP=\"NOI DEV PSA PSD IVA IVD OTP OUR OTR IND OTC\"
timing-allow-origin: *
cross-origin-resource-policy: cross-origin
date: Tue, 21 Nov 2023 07:10:05 GMT
pragma: no-cache
expires: Fri, 01 Jan 1990 00:00:00 GMT
cache-control: no-cache, must-revalidate
content-type: text/javascript; charset=UTF-8
x-content-type-options: nosniff
content-disposition: attachment; filename=\"f.txt\"
content-encoding: br
server: cafe
content-length: 1720
x-xss-protection: 0
alt-svc: h3=\":443\"; ma=2592000,h3-29=\":443\"; ma=2592000
----
--Request 
GET https://www.google-analytics.com/analytics.js
Host: www.google-analytics.com
sec-ch-ua: \"Not.A/Brand\";v=\"8\", \"Chromium\";v=\"114\"
sec-ch-ua-mobile: ?0
User-Agent: Mozilla/5.0 (X11; Linux x86_64) AppleWebKit/537.36 (KHTML, like Gecko) Chrome/114.0.0.0 Safari/537.36
sec-ch-ua-platform: \"Linux\"
Accept: */*
Sec-Fetch-Site: cross-site
Sec-Fetch-Mode: no-cors
Sec-Fetch-Dest: script
Referer: https://www.kohls.com/
Accept-Encoding: gzip, deflate, br
Accept-Language: en-US,en;q=0.9
----
--Response 
HTTP/1.1 200
x-content-type-options: nosniff
content-encoding: gzip
cross-origin-resource-policy: cross-origin
server: Golfe2
content-length: 20994
date: Tue, 21 Nov 2023 05:49:09 GMT
expires: Tue, 21 Nov 2023 07:49:09 GMT
cache-control: public, max-age=7200
age: 4778
last-modified: Mon, 12 Jun 2023 18:23:07 GMT
content-type: text/javascript
vary: Accept-Encoding
alt-svc: h3=\":443\"; ma=2592000,h3-29=\":443\"; ma=2592000
----
--Request 
GET https://assets.adobedtm.com/6d2e783bbfe3/c0c47c5c96c6/7a8648cd60a8/RC3e1b7009ef914bda83baf865955e4515-source.min.js
Host: assets.adobedtm.com
sec-ch-ua: \"Not.A/Brand\";v=\"8\", \"Chromium\";v=\"114\"
sec-ch-ua-mobile: ?0
User-Agent: Mozilla/5.0 (X11; Linux x86_64) AppleWebKit/537.36 (KHTML, like Gecko) Chrome/114.0.0.0 Safari/537.36
sec-ch-ua-platform: \"Linux\"
Accept: */*
Sec-Fetch-Site: cross-site
Sec-Fetch-Mode: no-cors
Sec-Fetch-Dest: script
Referer: https://www.kohls.com/
Accept-Encoding: gzip, deflate, br
Accept-Language: en-US,en;q=0.9
----
--Response 
HTTP/1.1 200
accept-ranges: bytes
content-type: application/x-javascript
etag: \"c3f8eea087eda271fe3a803f1d4cfa06:1700078393.11621\"
last-modified: Wed, 15 Nov 2023 19:59:53 GMT
server: AkamaiNetStorage
vary: Accept-Encoding
content-encoding: gzip
cache-control: max-age=3600
expires: Tue, 21 Nov 2023 08:08:47 GMT
date: Tue, 21 Nov 2023 07:08:47 GMT
content-length: 239
access-control-allow-origin: https://www.kohls.com
timing-allow-origin: *
----
--Request 
GET https://googleads.g.doubleclick.net/pagead/viewthroughconversion/746851823/?random=1851077443&cv=9&fst=1700550605459&num=1&npa=1&label=FO9RCN7V-pQYEO-bkOQC&guid=ON&resp=GooglemKTybQhCsO&eid=375603260%2C466465925%2C512247838&u_h=575&u_w=1313&u_ah=575&u_aw=1313&u_cd=24&u_his=5&u_tz=-360&u_java=false&u_nplug=0&u_nmime=0&sendb=1&ig=1&frm=2&url=https%3A%2F%2F8632166.fls.doubleclick.net%2Fddm%2Ffls%2Fr%2Fdc_pre%3DCPTp_NXE1IIDFRPyKAUdKGYAUw%3Bsrc%3D8632166%3Btype%3Dlandi0%3Bcat%3Dunive0%3Bord%3D4995151454488%3Bauiddc%3D1181256846.1700550526%3Bu1%3DAdOps_Cart_All_Product%2520IDs%3Bu2%3D%2525AdOps_Cart_All_ProductName%2525%3Bu5%3D%2525AdOps_Cart_All_NumberOfItems%2525%3Bu10%3Dhttps%253A%252F%252Fwww.kohls.com%252Fcheckout%252Fshopping_cart.jsp%3Bu11%3Dshopping_cart%3Bu13%3DValue%3Bu23%3DNew%2520Customer%3Bu24%3D79613869088917606480426504271561296302%3Bu25%3Dd38e961d-eee7-4879-8340-ea94827e289a%3Bgtm%3D45fe3b81v9135074177%3Bgcd%3D11l1l1l1l1%3Bdma%3D0%3Buaa%3Dx&ref=https%3A%2F%2F8632166.fls.doubleclick.net%2F&hn=www.googleadservices.com&fmt=3&ct_cookie_present=false&ocp_id=zVdcZaWZHbyVoPMPvIuHwAQ&sscte=1&crd=&pscrd=IhMI5bOM1sTUggMVvApoCB28xQFI
Host: googleads.g.doubleclick.net
sec-ch-ua: \"Not.A/Brand\";v=\"8\", \"Chromium\";v=\"114\"
sec-ch-ua-mobile: ?0
User-Agent: Mozilla/5.0 (X11; Linux x86_64) AppleWebKit/537.36 (KHTML, like Gecko) Chrome/114.0.0.0 Safari/537.36
sec-ch-ua-platform: \"Linux\"
Accept: image/avif,image/webp,image/apng,image/svg+xml,image/*,*/*;q=0.8
Sec-Fetch-Site: same-site
Sec-Fetch-Mode: no-cors
Sec-Fetch-Dest: image
Referer: https://8632166.fls.doubleclick.net/
Accept-Encoding: gzip, deflate, br
Accept-Language: en-US,en;q=0.9
----
--Response 
HTTP/1.1 302
p3p: policyref=\"https://googleads.g.doubleclick.net/pagead/gcn_p3p_.xml\", CP=\"CURa ADMa DEVa TAIo PSAo PSDo OUR IND UNI PUR INT DEM STA PRE COM NAV OTC NOI DSP COR\"
timing-allow-origin: *
cross-origin-resource-policy: cross-origin
date: Tue, 21 Nov 2023 07:10:05 GMT
pragma: no-cache
expires: Fri, 01 Jan 1990 00:00:00 GMT
cache-control: no-cache, must-revalidate
location: https://www.google.com/pagead/1p-conversion/746851823/?random=1851077443&cv=9&fst=1700550605459&num=1&npa=1&label=FO9RCN7V-pQYEO-bkOQC&guid=ON&resp=GooglemKTybQhCsO&eid=375603260%2C466465925%2C512247838&u_h=575&u_w=1313&u_ah=575&u_aw=1313&u_cd=24&u_his=5&u_tz=-360&u_java=false&u_nplug=0&u_nmime=0&sendb=1&ig=1&frm=2&url=https%3A%2F%2F8632166.fls.doubleclick.net%2Fddm%2Ffls%2Fr%2Fdc_pre%3DCPTp_NXE1IIDFRPyKAUdKGYAUw%3Bsrc%3D8632166%3Btype%3Dlandi0%3Bcat%3Dunive0%3Bord%3D4995151454488%3Bauiddc%3D1181256846.1700550526%3Bu1%3DAdOps_Cart_All_Product%2520IDs%3Bu2%3D%2525AdOps_Cart_All_ProductName%2525%3Bu5%3D%2525AdOps_Cart_All_NumberOfItems%2525%3Bu10%3Dhttps%253A%252F%252Fwww.kohls.com%252Fcheckout%252Fshopping_cart.jsp%3Bu11%3Dshopping_cart%3Bu13%3DValue%3Bu23%3DNew%2520Customer%3Bu24%3D79613869088917606480426504271561296302%3Bu25%3Dd38e961d-eee7-4879-8340-ea94827e289a%3Bgtm%3D45fe3b81v9135074177%3Bgcd%3D11l1l1l1l1%3Bdma%3D0%3Buaa%3Dx&ref=https%3A%2F%2F8632166.fls.doubleclick.net%2F&hn=www.googleadservices.com&fmt=3&ct_cookie_present=false&sscte=1&crd=&pscrd=IhMI5bOM1sTUggMVvApoCB28xQFI&is_vtc=1&ocp_id=zVdcZaWZHbyVoPMPvIuHwAQ&cid=CAQSGwDICaaNBjfWlBSchks2vB64mtk5UD1BLwPGEw&random=2565804311&resp=GooglemKTybQhCsO
content-type: image/gif
x-content-type-options: nosniff
server: cafe
content-length: 42
x-xss-protection: 0
set-cookie: test_cookie=CheckForPermission; expires=Tue, 21-Nov-2023 07:25:05 GMT; path=/; domain=.doubleclick.net; Secure; SameSite=none
alt-svc: h3=\":443\"; ma=2592000,h3-29=\":443\"; ma=2592000
----
--Request 
GET https://assets.adobedtm.com/6d2e783bbfe3/c0c47c5c96c6/7a8648cd60a8/RC33673eab55e247c8baa7307900d7c6a0-source.min.js
Host: assets.adobedtm.com
sec-ch-ua: \"Not.A/Brand\";v=\"8\", \"Chromium\";v=\"114\"
sec-ch-ua-mobile: ?0
User-Agent: Mozilla/5.0 (X11; Linux x86_64) AppleWebKit/537.36 (KHTML, like Gecko) Chrome/114.0.0.0 Safari/537.36
sec-ch-ua-platform: \"Linux\"
Accept: */*
Sec-Fetch-Site: cross-site
Sec-Fetch-Mode: no-cors
Sec-Fetch-Dest: script
Referer: https://www.kohls.com/
Accept-Encoding: gzip, deflate, br
Accept-Language: en-US,en;q=0.9
----
--Response 
HTTP/1.1 200
accept-ranges: bytes
content-type: application/x-javascript
etag: \"c3f8eea087eda271fe3a803f1d4cfa06:1700078393.11621\"
last-modified: Wed, 15 Nov 2023 19:59:53 GMT
server: AkamaiNetStorage
vary: Accept-Encoding
content-encoding: gzip
cache-control: max-age=3600
expires: Tue, 21 Nov 2023 08:08:43 GMT
date: Tue, 21 Nov 2023 07:08:43 GMT
content-length: 275
access-control-allow-origin: https://www.kohls.com
timing-allow-origin: *
----
--Request 
GET https://adservice.google.com/ddm/fls/i/dc_pre=CMCIiNbE1IIDFUMSigMd7ecA-w;src=11577892;type=pagev0;cat=kmnun0;ord=6162406568312;auiddc=1181256846.1700550526;u1=not%20set;u10=https%3A%2F%2Fwww.kohls.com%2Fcheckout%2Fshopping_cart.jsp;u11=shopping_cart;u13=not%20set;u2=not%20set;u23=New%20Customer;u24=79613869088917606480426504271561296302;u25=d38e961d-eee7-4879-8340-ea94827e289a;u5=%25AdOps_Cart_All_NumberOfItems%25;gtm=45fe3b81v9135077764;gcd=11l1l1l1l1;dma=0;uaa=x86;uab=64;uafvl=Not.A%252FBrand%3B8.0.0.0%7CChromium%3B114.0.5735.199;uamb=0;uam=;uap=Linux;uapv=5.15.0;uaw=0;epver=2;~oref=https%3A%2F%2Fwww.kohls.com%2Fcheckout%2Fshopping_cart.jsp
Host: adservice.google.com
sec-ch-ua: \"Not.A/Brand\";v=\"8\", \"Chromium\";v=\"114\"
sec-ch-ua-mobile: ?0
sec-ch-ua-platform: \"Linux\"
Upgrade-Insecure-Requests: 1
User-Agent: Mozilla/5.0 (X11; Linux x86_64) AppleWebKit/537.36 (KHTML, like Gecko) Chrome/114.0.0.0 Safari/537.36
Accept: text/html,application/xhtml+xml,application/xml;q=0.9,image/avif,image/webp,image/apng,*/*;q=0.8,application/signed-exchange;v=b3;q=0.7
Sec-Fetch-Site: cross-site
Sec-Fetch-Mode: navigate
Sec-Fetch-Dest: iframe
Referer: https://11577892.fls.doubleclick.net/
Accept-Encoding: gzip, deflate, br
Accept-Language: en-US,en;q=0.9
----
--Response 
HTTP/1.1 200
p3p: policyref=\"https://www.googleadservices.com/pagead/p3p.xml\", CP=\"NOI DEV PSA PSD IVA IVD OTP OUR OTR IND OTC\"
timing-allow-origin: *
cross-origin-resource-policy: cross-origin
date: Tue, 21 Nov 2023 07:10:05 GMT
expires: Tue, 21 Nov 2023 07:10:05 GMT
cache-control: private, max-age=0
content-type: text/html; charset=UTF-8
x-content-type-options: nosniff
content-encoding: br
server: cafe
content-length: 85
x-xss-protection: 0
alt-svc: h3=\":443\"; ma=2592000,h3-29=\":443\"; ma=2592000
----
--Request 
GET https://www.google.com/pagead/1p-conversion/746851823/?random=1851077443&cv=9&fst=1700550605459&num=1&npa=1&label=FO9RCN7V-pQYEO-bkOQC&guid=ON&resp=GooglemKTybQhCsO&eid=375603260%2C466465925%2C512247838&u_h=575&u_w=1313&u_ah=575&u_aw=1313&u_cd=24&u_his=5&u_tz=-360&u_java=false&u_nplug=0&u_nmime=0&sendb=1&ig=1&frm=2&url=https%3A%2F%2F8632166.fls.doubleclick.net%2Fddm%2Ffls%2Fr%2Fdc_pre%3DCPTp_NXE1IIDFRPyKAUdKGYAUw%3Bsrc%3D8632166%3Btype%3Dlandi0%3Bcat%3Dunive0%3Bord%3D4995151454488%3Bauiddc%3D1181256846.1700550526%3Bu1%3DAdOps_Cart_All_Product%2520IDs%3Bu2%3D%2525AdOps_Cart_All_ProductName%2525%3Bu5%3D%2525AdOps_Cart_All_NumberOfItems%2525%3Bu10%3Dhttps%253A%252F%252Fwww.kohls.com%252Fcheckout%252Fshopping_cart.jsp%3Bu11%3Dshopping_cart%3Bu13%3DValue%3Bu23%3DNew%2520Customer%3Bu24%3D79613869088917606480426504271561296302%3Bu25%3Dd38e961d-eee7-4879-8340-ea94827e289a%3Bgtm%3D45fe3b81v9135074177%3Bgcd%3D11l1l1l1l1%3Bdma%3D0%3Buaa%3Dx&ref=https%3A%2F%2F8632166.fls.doubleclick.net%2F&hn=www.googleadservices.com&fmt=3&ct_cookie_present=false&sscte=1&crd=&pscrd=IhMI5bOM1sTUggMVvApoCB28xQFI&is_vtc=1&ocp_id=zVdcZaWZHbyVoPMPvIuHwAQ&cid=CAQSGwDICaaNBjfWlBSchks2vB64mtk5UD1BLwPGEw&random=2565804311&resp=GooglemKTybQhCsO
Host: www.google.com
sec-ch-ua: \"Not.A/Brand\";v=\"8\", \"Chromium\";v=\"114\"
sec-ch-ua-mobile: ?0
User-Agent: Mozilla/5.0 (X11; Linux x86_64) AppleWebKit/537.36 (KHTML, like Gecko) Chrome/114.0.0.0 Safari/537.36
sec-ch-ua-platform: \"Linux\"
Accept: image/avif,image/webp,image/apng,image/svg+xml,image/*,*/*;q=0.8
Sec-Fetch-Site: cross-site
Sec-Fetch-Mode: no-cors
Sec-Fetch-Dest: image
Referer: https://8632166.fls.doubleclick.net/
Accept-Encoding: gzip, deflate, br
Accept-Language: en-US,en;q=0.9
----
--Response 
HTTP/1.1 200
p3p: policyref=\"https://www.googleadservices.com/pagead/p3p.xml\", CP=\"NOI DEV PSA PSD IVA IVD OTP OUR OTR IND OTC\"
timing-allow-origin: *
cross-origin-resource-policy: cross-origin
date: Tue, 21 Nov 2023 07:10:05 GMT
pragma: no-cache
expires: Fri, 01 Jan 1990 00:00:00 GMT
cache-control: no-cache, no-store, must-revalidate
content-type: image/gif
content-security-policy: script-src 'none'; object-src 'none'
x-content-type-options: nosniff
server: cafe
content-length: 42
x-xss-protection: 0
alt-svc: h3=\":443\"; ma=2592000,h3-29=\":443\"; ma=2592000
----

