
--Response 
HTTP/1.1 200
content-type: application/json; charset=UTF-8
content-length: 441
date: Tue, 21 Nov 2023 07:10:16 GMT
set-cookie: AWSALB=HZ6mjzaxPQ017W0bnMDjZYSsEUefQ8v5O0FWh13Ur7fpU38QZ95R68ekMAOlDzjbSozOZaj3rZr9i3kVOVU+vP1JkdiTf1jtpBLbRPdj8tXCzu0EhQs1hLkoxn5s; Expires=Tue, 28 Nov 2023 07:10:16 GMT; Path=/
set-cookie: AWSALBCORS=HZ6mjzaxPQ017W0bnMDjZYSsEUefQ8v5O0FWh13Ur7fpU38QZ95R68ekMAOlDzjbSozOZaj3rZr9i3kVOVU+vP1JkdiTf1jtpBLbRPdj8tXCzu0EhQs1hLkoxn5s; Expires=Tue, 28 Nov 2023 07:10:16 GMT; Path=/; SameSite=None; Secure
access-control-allow-origin: *
access-control-allow-methods: GET, POST
access-control-allow-headers: Origin, Accept, Content-Type, X-Requested-With, X-CSRF-Token
timing-allow-origin: *
etag: \"f2b29b17d9a874f64b09259caacf4a72d8f9d3cf\"
vary: Accept-Encoding
x-cache: Miss from cloudfront
via: 1.1 ea4a33625617615e13496b292edda6d6.cloudfront.net (CloudFront)
x-amz-cf-pop: CMH68-P1
x-amz-cf-id: lnZbqjK6b8OoWoSq1LhxcdOyk3xB3ljGotYLqPcSuHpNrkzM0d69Uw==
----
--Request 
GET https://async-px.dynamicyield.com/var?cnst=1&_=814122&uid=-2796735126378358917&sec=8776374&t=ri&e=1490805&p=5&ve=12226302&va=%5B27927793%5D&ses=5d0e8cd2dde4c6e754f17773f6a628da&expSes=84609&aud=1408117.1438654.1476022.1899869.1910576.1955486.2005443.2005444.2097936.2099097.1362540.1362542.1468187.2004934&expVisitId=3724873482909366410&mech=1&smech=null&eri=1&tsrc=Direct&reqts=1700550615572&rri=6128573
Host: async-px.dynamicyield.com
sec-ch-ua: \"Not.A/Brand\";v=\"8\", \"Chromium\";v=\"114\"
sec-ch-ua-mobile: ?0
User-Agent: Mozilla/5.0 (X11; Linux x86_64) AppleWebKit/537.36 (KHTML, like Gecko) Chrome/114.0.0.0 Safari/537.36
sec-ch-ua-platform: \"Linux\"
Accept: */*
Origin: https://www.kohls.com
Sec-Fetch-Site: cross-site
Sec-Fetch-Mode: cors
Sec-Fetch-Dest: empty
Referer: https://www.kohls.com/
Accept-Encoding: gzip, deflate, br
Accept-Language: en-US,en;q=0.9
----
--Response 
HTTP/1.1 200
content-length: 0
date: Tue, 21 Nov 2023 07:10:16 GMT
access-control-allow-origin: *
access-control-allow-methods: POST, GET, OPTIONS
access-control-allow-headers: Content-Type, Authorization, Content-Length, X-Requested-With
cache-control: no-cache, no-store, must-revalidate
pragma: no-cache
expires: 0
x-cache: Miss from cloudfront
via: 1.1 7992425d40820d4ff716d7127846cfb2.cloudfront.net (CloudFront)
x-amz-cf-pop: CMH68-P4
x-amz-cf-id: S7ltpgDEBAgFJIwwt8C0ay1rl_bhaCFHIyJDd2d3NlaWw5xXSFJewg==
----
--Request 
GET https://async-px.dynamicyield.com/var?cnst=1&_=284508&uid=-2796735126378358917&sec=8776374&t=ri&e=1490806&p=5&ve=12226297&va=%5B27927795%5D&ses=5d0e8cd2dde4c6e754f17773f6a628da&expSes=84609&aud=1408117.1438654.1476022.1899869.1910576.1955486.2005443.2005444.2097936.2099097.1362540.1362542.1468187.2004934&expVisitId=3724873484794581864&mech=1&smech=null&eri=1&tsrc=Direct&reqts=1700550615584&rri=7018266
Host: async-px.dynamicyield.com
sec-ch-ua: \"Not.A/Brand\";v=\"8\", \"Chromium\";v=\"114\"
sec-ch-ua-mobile: ?0
User-Agent: Mozilla/5.0 (X11; Linux x86_64) AppleWebKit/537.36 (KHTML, like Gecko) Chrome/114.0.0.0 Safari/537.36
sec-ch-ua-platform: \"Linux\"
Accept: */*
Origin: https://www.kohls.com
Sec-Fetch-Site: cross-site
Sec-Fetch-Mode: cors
Sec-Fetch-Dest: empty
Referer: https://www.kohls.com/
Accept-Encoding: gzip, deflate, br
Accept-Language: en-US,en;q=0.9
----
--Response 
HTTP/1.1 200
content-length: 0
date: Tue, 21 Nov 2023 07:10:16 GMT
access-control-allow-origin: *
access-control-allow-methods: POST, GET, OPTIONS
access-control-allow-headers: Content-Type, Authorization, Content-Length, X-Requested-With
cache-control: no-cache, no-store, must-revalidate
pragma: no-cache
expires: 0
x-cache: Miss from cloudfront
via: 1.1 7992425d40820d4ff716d7127846cfb2.cloudfront.net (CloudFront)
x-amz-cf-pop: CMH68-P4
x-amz-cf-id: lQTCYcApeVYn5y4iKvcq72n--2Ha9Phfr9LClrHZhXIsaXcTx8UKQg==
----

