--Request 
POST https://tlx.3lift.com/header/auction?lib=prebid&v=7.39.0&referrer=https%3A%2F%2Fwww.kohls.com%2Fcatalog%2Fwomens-sweaters-tops-clothing.jsp%3FCN%3DGender%3AWomens%2BProduct%3ASweaters%2BCategory%3ATops%2BDepartment%3AClothing%2BAssortment%3AKohls%2520Black%2520Friday%26BST%3D6262123%3A6237310%3A6149518%3A6125449%3A6149518%3A6176056%3A6119381%3A6438581%3A6143395%3A6125326%3A4922640%3A6169493%26icid%3Dhpmf-BF-offer-womenssweaters-vlhd26%26kls_sbp%3D79613869088917606480426504271561296302&tmax=950
Host: tlx.3lift.com
sec-ch-ua: \"Not.A/Brand\";v=\"8\", \"Chromium\";v=\"114\"
sec-ch-ua-platform: \"Linux\"
sec-ch-ua-mobile: ?0
User-Agent: Mozilla/5.0 (X11; Linux x86_64) AppleWebKit/537.36 (KHTML, like Gecko) Chrome/114.0.0.0 Safari/537.36
Content-Type: text/plain
Accept: */*
Origin: https://www.kohls.com
Sec-Fetch-Site: cross-site
Sec-Fetch-Mode: cors
Sec-Fetch-Dest: empty
Referer: https://www.kohls.com/
Accept-Encoding: gzip, deflate, br
Accept-Language: en-US,en;q=0.9
----
--Response 
HTTP/1.1 200
date: Tue, 21 Nov 2023 07:09:20 GMT
content-type: application/json; charset=utf-8
content-length: 19
cache-control: no-cache, no-store, must-revalidate
expires: Thu, 15 Oct 1992 20:10:00 GMT
pragma: no-cache
x-xss-protection: 0
p3p: policyref=\"http://cdn.3lift.com/w3c/p3p.xml\", CP=\"NON DSP COR NID OUR DEL SAM OTR UNR COM NAV INT DEM CNT STA PRE LOC OTC\"
access-control-allow-origin: https://www.kohls.com
access-control-allow-credentials: true
set-cookie: tluid=1263280958802475698367; Path=/; Domain=.3lift.com; Max-Age=7776000; Expires=Mon, 19 Feb 2024 07:09:20 GMT; Secure; SameSite=None
----

