--Request 
GET https://www.kohls.com/snb/media/1.0.54/javascript/deploy/tpl/tpl.pmpSearchPageTmplV1.js
Host: www.kohls.com
sec-ch-ua: \"Not.A/Brand\";v=\"8\", \"Chromium\";v=\"114\"
Accept: text/html, */*; q=0.01
X-Requested-With: XMLHttpRequest
sec-ch-ua-mobile: ?0
User-Agent: Mozilla/5.0 (X11; Linux x86_64) AppleWebKit/537.36 (KHTML, like Gecko) Chrome/114.0.0.0 Safari/537.36
sec-ch-ua-platform: \"Linux\"
Sec-Fetch-Site: same-origin
Sec-Fetch-Mode: cors
Sec-Fetch-Dest: empty
Referer: https://www.kohls.com/catalog/womens-sweaters-tops-clothing.jsp?CN=Gender:Womens+Product:Sweaters+Category:Tops+Department:Clothing+Assortment:Kohls%20Black%20Friday&BST=6262123:6237310:6149518:6125449:6149518:6176056:6119381:6438581:6143395:6125326:4922640:6169493&icid=hpmf-BF-offer-womenssweaters-vlhd26&kls_sbp=79613869088917606480426504271561296302
Accept-Encoding: gzip, deflate, br
Accept-Language: en-US,en;q=0.9
Cookie: store_location=14201; akaalb_aem_homepage=~op=aem_production:aem_production|~rv=79~m=aem_production:0|~os=554fb49c1bda6073578f281b62264a0e~id=e5d8d097120eff09512a425189fcc66f; AKA_HP2Redesign=True; AKA_PIQ=True; AKA_ACM=True; AKA_CDP2=True; AKA_STP=false; AKA_PDP2=True; AKA_HP2=True; AKA_CNC2=True; AKA_RV6=12; AKA_RV8=72; AKA_RV4=57; AKA_RV5=23; AKA_RV3=95; AKA_RV=96; AKA_RV2=35; akacd_www-kohls-com-mosaic-p2=2177452799~rv=61~id=f2bfd608ff6bd75e278febb90f5bdcd7; at_check=true; s_ecid=MCMID%7C79613869088917606480426504271561296302; AMCVS_F0EF5E09512D2CD20A490D4D%40AdobeOrg=1; mboxEdgeCluster=35; AMCV_F0EF5E09512D2CD20A490D4D%40AdobeOrg=1585540135%7CMCIDTS%7C19683%7CMCMID%7C79613869088917606480426504271561296302%7CMCAID%7CNONE%7CMCOPTOUT-1700557721s%7CNONE%7CMCAAMLH-1701155321%7C7%7CMCAAMB-1701155321%7Cj8Odv6LonN4r3an7LhD3WZrU1bUpAkFkkiY1ncBR96t2PTI%7CMCSYNCS%7C1083-19690*1085-19690*1086-19690*1087-19690*1088-19690%7CMCSYNCSOP%7C411-19690%7CvVersion%7C4.4.0; rxVisitor=170055052197696JCFOBUP2E8LGBETNI04FF2IPU7PHBL; X-SESSIONID=d38e961d-eee7-4879-8340-ea94827e289a; VisitorId=d38e961d-eee7-4879-8340-ea94827e289a; K_favstore=14216|1306|BUFFALO|geo|sephora; spa=4; _dy_ses_load_seq=84609%3A1700550523022; _dy_csc_ses=t; _dy_c_exps=; gpv_v9=Homepage; s_cc=true; _dycnst=dg; _uetsid=ce3c5ea0883c11ee858a29be7baeeb0f; _uetvid=ce3cb6c0883c11ee9c5d21bc71586f02; fp_client={%22id%22:%2229475071191700550523%22}; fp_session={%22i%22:%2288215330731700550523%22%2C%22d%22:1}; _dyid=-2796735126378358917; _dyfs=1700550523505; _dyjsession=cdc731762c4fbfb825c00a0125c71e79; dy_fs_page=www.kohls.com; _dy_lu_ses=cdc731762c4fbfb825c00a0125c71e79%3A1700550523506; _dycst=dk.l.c.ms.; _dy_geo=US.NA.US_MI.US_MI_Detroit; _dy_df_geo=United%20States.Michigan.Detroit; _dy_toffset=0; _rmt_an_idt=0; _mibhv=anon-1700550524031-5332320748_8212; _cs_c=0; IR_gbd=kohls.com; IR_5349=1700550524310%7C385561%7C1700550524310%7C%7C; _cs_cvars=%7B%221%22%3A%5B%22Page%20Name%22%2C%22Homepage%22%5D%2C%227%22%3A%5B%22Page%20Type%22%2C%22Homepage%22%5D%7D; _cs_id=adc880fd-d93e-ac59-cc5b-3c04e82d2b4b.1700550524.1.1700550524.1700550524.1588866862.1734714524445; IR_PI=cece5d75-883c-11ee-b347-d5b679c63de5%7C1700636924310; _cs_s=1.5.1.1700552324776; _pin_unauth=dWlkPVpEUXlNbU5sWm1JdE1XWmlZaTAwT1RjekxXSTVaakl0TURFNFpEQTJNalJqT0dJNQ; _fbp=fb.1.1700550525180.1119580522; _tt_enable_cookie=1; _ttp=aSHtu_gIQ09zwUi9iOI7iCWyAR-; _scid=1f04d67b-8a21-463f-ac1c-fe88de60033f; _scid_r=1f04d67b-8a21-463f-ac1c-fe88de60033f; _gcl_au=1.1.1181256846.1700550526; _evga_ce07={%22uuid%22:%220e4971bddb246461%22}; _sfid_6ab3={%22anonymousId%22:%220e4971bddb246461%22%2C%22consents%22:[]}; _ga_ZLYRBY87M8=GS1.1.1700550526.1.0.1700550526.60.0.0; __gads=ID=3c394970cb55450f:T=1700550526:RT=1700550526:S=ALNI_MbrJ3X_hGpSImvZMLI5SV9-34drNA; __gpi=UID=00000a00a9f90471:T=1700550526:RT=1700550526:S=ALNI_Ma8ugF9cZmpsonvpd3LpCjHvE5AkQ; _ga=GA1.2.1527107996.1700550526; _gid=GA1.2.1528984642.1700550527; _gat=1; dtCookie=v_4_srv_14_sn_7AE743F52EB51B2E022B722A8C61E6D6_app-3Acf6a6b14e494e621_1_ol_0_perc_100000_mul_1_rcs-3Acss_0; _sctr=1%7C1700546400000; rxvt=1700552331278|1700550521978; dtPC=14$150521972_436h-vHKACFJCCPMSVWCKACRIACGLNTUQCKJQH-0e0; _dpm_ses.f2d1=*; _dpm_id.f2d1=0ef65a2f-e6a7-43f4-a1c7-c0d82ed29395.1700550532.1.1700550532.1700550532.a24e90a1-e57d-4467-afd8-a703310265c8; _li_dcdm_c=.kohls.com; _lc2_fpi=0b10d8358f40--01hfrbbpry1av2w5z5mhth4cen; _lc2_fpi_meta={%22w%22:1700550531870}; _dyid_server=-2796735126378358917; _li_ss=CjYKBQgKEMYWCgYI3QEQxhYKBgiBARDGFgoGCKIBEMYWCgYIiwEQxhYKBgjSARDGFgoFCH4QxhY; _li_ss_meta={%22w%22:1700550532279%2C%22e%22:1703142532279}; _dy_soct=561158.1083346.1700550523*577704.1114257.1700550523*604242.1165732.1700550523*664718.1276830.1700550523*675999.1296928.1700550523*695696.1330231.1700550523*707338.1351316.1700550523*782209.1482111.1700550523*785673.1487461.1700550523*546795.1053981.1700550523*577478.1113986.1700550523*606987.1171916.1700550523*809094.1741367.1700550523*839301.1661807.1700550523*834183.1644438.1700550524*758401.1444085.1700550532; s_sq=kohlscomprod%3D%2526c.%2526a.%2526activitymap.%2526page%253Dhomepage%2526link%253D12%25252074%252520with%25252015%252525%252520off%252520coupon%25252A%252520Sweaters%252520for%252520women%252520and%252520juniors.%252520Select%252520styles.%252520Sale%252520%25252414.99%25252C%252520Reg.%252520%25252430-%25252440.%252520Shop%252520Women%2525E2%252580%252599s%252520%252526%252520Juniors%2525E2%252580%252599%252520Swe%2526region%253Dhp-equity01%2526pageIDType%253D1%2526.activitymap%2526.a%2526.c%2526pid%253DHomepage%2526pidt%253D1%2526oid%253Dhttps%25253A%25252F%25252Fwww.kohls.com%25252Fcatalog%25252Fwomens-sweaters-tops-clothing.jsp%25253FCN%25253DGender%25253AWomens%25252BProduct%25253ASweaters%25252BCa%2526ot%253DA; dtSa=true%7CC%7C-1%7Chp-231119-black-friday-deals-12%7C-%7C1700550550173%7C150521972_436%7Chttps%3A%2F%2Fwww.kohls.com%2F%7C%7C%7C%7C; kls_p=true; 362fd180cb7a77f64919ee892a4d9d35=7191fc42ec960804587d38331d7dd83d; akavpau_www=1700550851~id=019fb5d0fa53935dd3796786ff98ae28; ak_bmsc=721A085A5E4C790A5F04ACCC015E956A~000000000000000000000000000000~YAAQxCkhF2k8luGLAQAAFyi28BU/65NCRHo8nighFmB8o9sHpbd/Hybfl4QCVNDQvTheKAvvXZGBqzia6xAh1uNwWR82Egg4OvsVRPzr2JB4r65yW6aK82WUxfwiZmuw5tjr0H5FdonnqI7pOAGf31XVNXO1yKOyK53QfIznOdRkaOl405VU0ZHbpNOJDjfqCZnqx1xvEJ8JToSqRH3o2qPo8TtS95WGHphlxJ1dJEZM8G1pwhewcyPxYM3X0gj7gRHlRYAbQ3vcsWf2p+Zf0xNLiGrJSbSEPn5vbMADAFjbHXi68G+vifBv9ysaxwBC6xRhcKtb2NMnjBdjRhD5qu3Sa1ld/NxBzWSzGNKcQorTStLLtZIkCAGv+C2dBy/1eAQ38N7m7OBWrRJfUA2cHzdkwMymQwYLGzNHWfLLEXfjv3GVadBZr1QxJXGoXPZmB3poUdBdtsMpoU8n7k2L9vmuBJf7wlo/SOSK/8TeI3yr9ycOHQXppVekIlEXhV4sep01mhWEq7EN8eVMpMqZhw0t8nPrXCWc3304XWeDReEXM0XurBvZHj09AAc3QpdOg0ZNXFRgDNo+WEXhm7U26gYnqdR8F0PPkZN1v7p5/DnYQD3fYVa9Nu8vVw==; bm_sv=E9CC4175A998BE646991AD33CB3A6E5B~YAAQxCkhF2o8luGLAQAAFyi28BXjwdLdaGRAjbVYE3T4xl9i9pm1kgYbuA/Y1O3+Ct0btElOAe7JgVpPFlKODYGjuPbfx8/bJne6eNFxa2v1yd5YP/0YOj8AZSqlP+hR2JNLSd5eb4a+5B981o1JQVoWMjR9sEHWbnpPLCvWeLusqWwW0O/94uBlXxJa+/Sc5IbrsDcY5uKYxJ36upQ0hhih5eU79SCFFAqjhhw6GBIBZv4FH33H4Op+wTvA+Gk=~1; bm_sz=EDE788231412FB1669642DC066D678F4~YAAQxCkhF2s8luGLAQAAFyi28BUsbcQWaMky0JbdYwZ+kK223YeB8J0bLDkW5XkbGnnNQnHLi4RqPStZZcjBZaAf1F3DsboI2vgD1Xkjvf5U1PsqNLk6xZKpL57gc8ktZA4N8WFri6SyLbig52vOn0ZJhcypbT8ec17lSly5t3/XwVYBEhp9y/rLzjoGpO3CxYPpF57aS471C8vJ2XFeCj2h9M4gAhZLYVOAHwjhimFInBDAVeKVqmZRebLVCZ0oKoNoc+lkYjyCfklfYVurasH54Hf2nPN6AjwHd91R9lKc4tUAKy1AvEIlYQq4fYkjTM1i3jZQQI7liqNPwOWZJ15Pd5VqcFlTWElzBTHu4XaFRmOy0Q2eYMBUB4jdSiCBjE3Ls6BmKFN/RFtKyfDn4OLyH4QHnw006zXeDA==~3683376~3617080; PIM-SESSION-ID=KODLNerk0tWEePaQ; mbox=session#cabcdd4927cd4756a91cdbcb38abdfc6#1700552413|PC#cabcdd4927cd4756a91cdbcb38abdfc6.35_0#1763795353; RT=\"z=1&dm=kohls.com&si=ad04a02c-44c5-432e-9df4-90032e6d44c5&ss=lp7zve95&sl=1&tt=9i8&bcn=%2F%2F17de4c12.akstat.io%2F\"; _abck=CC169C04AF00814B225B42A002C6AB5F~-1~YAAQxCkhFxE9luGLAQAAAS628AoOys22mn8cE3yy06hSYue4TbOQbdKtzYLb9ZV8vZddxGjp1zc8RucbkSQyl621dosh9DdTCyoxnIe3kMvNjYpHG7KMElFLtHRr1CPtbDTLliN2TN/OcbJXwHkEZER0xdUV4hmOhMmWW3eym+p1O4EpDGpwoEPRgy9HV3bYX68+H/HyZE0w0YNHC+b6qcrJJFE4g2akcLR6pHKhqdRA7uhGsCIsy0xb8Y67vQwUtCVZW5RAcefj50X8GXZMHzuvj6NdHQNa7US3BQX/VLswAD2ALYHZwrYAOSuRUv8cjYIr3vFrHFfYSH77yC1xeDM/7Bx12im5vdyReIUwPOKCoINDFGAuOg50OuV1r9lzzYoe+g3CwsRZFy/PO+JYM/HtnVG0CWQphAdkKQES/bypkWM5VYpiOZmCgMaM+086okw+fy2HE9oUz6209NPfoPWjvSkE9LnAkTaIhaS5YsQ9xvyan/QjgrTXN8ZvmJs3q9tvtV/X9Q4Yfp4CrJnHpbxt~-1~-1~1700554050
----
--Response 
HTTP/1.1 200
content-type: application/javascript; charset=UTF-8
accept-ranges: bytes
content-encoding: br
etag: W/\"b918-18bcf6b9868\"
last-modified: Wed, 15 Nov 2023 00:21:09 GMT
server: Akamai Resource Optimizer
x-origin-cc: public, max-age=0
x-origin-cc: public, max-age=86400
x-origin-cc: public, max-age=86400
x-origin-cc: public, max-age=86400
x-origin-cc: public, max-age=86400
x-origin-cc: public, max-age=86400
x-origin-cc: public, max-age=86400
x-origin-ttl: Thu, 16 Nov 2023 00:21:09 GMT
x-origin-ttl: Thu, 16 Nov 2023 00:21:09 GMT
x-origin-ttl: Thu, 16 Nov 2023 00:21:09 GMT
x-origin-ttl: Thu, 16 Nov 2023 00:21:09 GMT
x-origin-ttl: Thu, 16 Nov 2023 00:21:09 GMT
x-origin-ttl: Thu, 16 Nov 2023 00:21:09 GMT
correlation-id: webstore::69be80b5-c7af-4ece-a798-6acf54c9a9f4::1700007662::SNB::snb-ui-7f4d4668-vs9dj::2600:1404:c800:e::1727:a6bf
content-length: 9025
cache-control: public, max-age=86400
expires: Wed, 22 Nov 2023 07:09:13 GMT
date: Tue, 21 Nov 2023 07:09:13 GMT
set-cookie: _dyid_server=-2796735126378358917; expires=Wed, 20-Nov-2024 07:09:13 GMT; path=/; domain=.kohls.com; secure
set-cookie: _abck=CC169C04AF00814B225B42A002C6AB5F~-1~YAAQxCkhFy09luGLAQAA6C628AoA1IxIxQxRZldiWRNsPIC1jBDPKo1ptop6qN4eQPYcbJSdQLBzH6212SW3uJwCaBR9upVexP2XBLwypVQC6evha/38UTQcuO7VhoC8QpQvYs0juf78YDaNCy4GP8n/nSRaxABV0yoDGN3zjIss8lOloMYmjXodVJa25r/3xzmF6k/APeectmFLrzoIHM01M5YyBt0HomPNDfYMMsEGKIJI9oc2AM5699DBSnz1Zght2vmWg3nCM9qN+DloETuH6poQ1L88AsvfRyAEg/uODWQMzx3WT8K59/1ZSBaVuE5dmcAUHrZl3hSm8mV3eXnYcUTrO6zAqfPrklwo6LIGMzMnmU6W7ridkRMnd25Plsdf6oBDcBw3i8kSxRitFxURL9GJ0pcJsMJP6i1SeJK9bJDopY0qY/hgb8FYVv7UK2M6pkvNFLhlTPoNgOvij/saia8X1Y86V7UL+gud9BqCwj4jm5rWy/IS+/3N2Ybv6mt9GQkvb2dZdtFJv10it2wz~-1~-1~1700554050; Domain=.kohls.com; Path=/; Expires=Wed, 20 Nov 2024 07:09:13 GMT; Max-Age=31536000; Secure
server-timing: cdn-cache; desc=HIT
server-timing: edge; dur=1
server-timing: ak_p; desc=\"1700550553288_388049348_666701429_58_31792_11_0_219\";dur=1
strict-transport-security: max-age=15768000 ; preload
----
--Request 
GET https://cdn.evgnet.com/beacon/kohlsinc2/prod/scripts/evergage.min.js
Host: cdn.evgnet.com
sec-ch-ua: \"Not.A/Brand\";v=\"8\", \"Chromium\";v=\"114\"
sec-ch-ua-mobile: ?0
User-Agent: Mozilla/5.0 (X11; Linux x86_64) AppleWebKit/537.36 (KHTML, like Gecko) Chrome/114.0.0.0 Safari/537.36
sec-ch-ua-platform: \"Linux\"
Accept: */*
Sec-Fetch-Site: cross-site
Sec-Fetch-Mode: no-cors
Sec-Fetch-Dest: script
Referer: https://www.kohls.com/
Accept-Encoding: gzip, deflate, br
Accept-Language: en-US,en;q=0.9
----
--Response 
HTTP/1.1 200
x-amz-id-2: oMtYjc5hVwQYphL+J5F6Twp4rpbkfroT5/2mhb90l56XgJ/NZYl5O9I/lKzpnjniQ7gxRa2VgQgFFyMqQ97SF+n64gVPs2NG05GSaAwLjFg=
x-amz-request-id: XVK4VSJP9AG7WV0J
x-amz-replication-status: COMPLETED
last-modified: Wed, 01 Nov 2023 22:19:28 GMT
etag: \"e3ff8c68eefdf92479ca9188a58eb13b\"
x-amz-server-side-encryption: AES256
cache-control: max-age=120
content-encoding: gzip
x-amz-meta-evergage-beacon-ver: 16
x-amz-meta-evergage-sum: dbb5e52c8bf18e3110430860b1da7ea07de42196
x-amz-version-id: tbo2hxwgE8TV7KbNGilW8sczDuHk_qNq
content-type: application/javascript; charset=utf-8
server: AmazonS3
via: 1.1 varnish, 1.1 varnish
accept-ranges: bytes
date: Tue, 21 Nov 2023 07:08:42 GMT
age: 83
x-served-by: cache-iad-kiad7000084-IAD, cache-ewr18125-EWR
x-cache: HIT, HIT
x-cache-hits: 5095416, 8
x-timer: S1700550522.057401,VS0,VE0
vary: Accept-Encoding
timing-allow-origin: *
content-length: 46203
----
--Request 
GET https://media.kohlsimg.com/is/image/kohls/20200116-kcharge-header-icon?scl=1&fmt=pjpeg
Host: media.kohlsimg.com
sec-ch-ua: \"Not.A/Brand\";v=\"8\", \"Chromium\";v=\"114\"
sec-ch-ua-mobile: ?0
User-Agent: Mozilla/5.0 (X11; Linux x86_64) AppleWebKit/537.36 (KHTML, like Gecko) Chrome/114.0.0.0 Safari/537.36
sec-ch-ua-platform: \"Linux\"
Accept: image/avif,image/webp,image/apng,image/svg+xml,image/*,*/*;q=0.8
Sec-Fetch-Site: cross-site
Sec-Fetch-Mode: no-cors
Sec-Fetch-Dest: image
Referer: https://www.kohls.com/
Accept-Encoding: gzip, deflate, br
Accept-Language: en-US,en;q=0.9
----
--Response 
HTTP/1.1 200
access-control-allow-origin: *
last-modified: Tue, 07 Jan 2020 18:03:18 GMT
etag: \"60e2300819677b09ad3dfb6559d45396\"
-x-adobe-smart-imaging: -1
timing-allow-origin: *
-x-adobe-assetlist: [kohls/20200116-kcharge-header-icon]
server: Unknown
content-type: image/webp
content-length: 464
expires: Fri, 24 Nov 2023 18:54:51 GMT
date: Tue, 21 Nov 2023 07:08:42 GMT
akamai-grn: 0.2e10de17.1700550522.40693c7
----
--Request 
GET https://www.kohls.com/snb/media/images/loading.png
Host: www.kohls.com
sec-ch-ua: \"Not.A/Brand\";v=\"8\", \"Chromium\";v=\"114\"
sec-ch-ua-mobile: ?0
User-Agent: Mozilla/5.0 (X11; Linux x86_64) AppleWebKit/537.36 (KHTML, like Gecko) Chrome/114.0.0.0 Safari/537.36
sec-ch-ua-platform: \"Linux\"
Accept: image/avif,image/webp,image/apng,image/svg+xml,image/*,*/*;q=0.8
Sec-Fetch-Site: same-origin
Sec-Fetch-Mode: no-cors
Sec-Fetch-Dest: image
Referer: https://www.kohls.com/catalog/womens-sweaters-tops-clothing.jsp?CN=Gender:Womens+Product:Sweaters+Category:Tops+Department:Clothing+Assortment:Kohls%20Black%20Friday&BST=6262123:6237310:6149518:6125449:6149518:6176056:6119381:6438581:6143395:6125326:4922640:6169493&icid=hpmf-BF-offer-womenssweaters-vlhd26&kls_sbp=79613869088917606480426504271561296302
Accept-Encoding: gzip, deflate, br
Accept-Language: en-US,en;q=0.9
Cookie: store_location=14201; akaalb_aem_homepage=~op=aem_production:aem_production|~rv=79~m=aem_production:0|~os=554fb49c1bda6073578f281b62264a0e~id=e5d8d097120eff09512a425189fcc66f; AKA_HP2Redesign=True; AKA_PIQ=True; AKA_ACM=True; AKA_CDP2=True; AKA_STP=false; AKA_PDP2=True; AKA_HP2=True; AKA_CNC2=True; AKA_RV6=12; AKA_RV8=72; AKA_RV4=57; AKA_RV5=23; AKA_RV3=95; AKA_RV=96; AKA_RV2=35; akacd_www-kohls-com-mosaic-p2=2177452799~rv=61~id=f2bfd608ff6bd75e278febb90f5bdcd7; at_check=true; s_ecid=MCMID%7C79613869088917606480426504271561296302; AMCVS_F0EF5E09512D2CD20A490D4D%40AdobeOrg=1; mboxEdgeCluster=35; AMCV_F0EF5E09512D2CD20A490D4D%40AdobeOrg=1585540135%7CMCIDTS%7C19683%7CMCMID%7C79613869088917606480426504271561296302%7CMCAID%7CNONE%7CMCOPTOUT-1700557721s%7CNONE%7CMCAAMLH-1701155321%7C7%7CMCAAMB-1701155321%7Cj8Odv6LonN4r3an7LhD3WZrU1bUpAkFkkiY1ncBR96t2PTI%7CMCSYNCS%7C1083-19690*1085-19690*1086-19690*1087-19690*1088-19690%7CMCSYNCSOP%7C411-19690%7CvVersion%7C4.4.0; rxVisitor=170055052197696JCFOBUP2E8LGBETNI04FF2IPU7PHBL; X-SESSIONID=d38e961d-eee7-4879-8340-ea94827e289a; VisitorId=d38e961d-eee7-4879-8340-ea94827e289a; K_favstore=14216|1306|BUFFALO|geo|sephora; spa=4; _dy_ses_load_seq=84609%3A1700550523022; _dy_csc_ses=t; _dy_c_exps=; gpv_v9=Homepage; s_cc=true; _dycnst=dg; _uetsid=ce3c5ea0883c11ee858a29be7baeeb0f; _uetvid=ce3cb6c0883c11ee9c5d21bc71586f02; fp_client={%22id%22:%2229475071191700550523%22}; fp_session={%22i%22:%2288215330731700550523%22%2C%22d%22:1}; _dyid=-2796735126378358917; _dyfs=1700550523505; _dyjsession=cdc731762c4fbfb825c00a0125c71e79; dy_fs_page=www.kohls.com; _dy_lu_ses=cdc731762c4fbfb825c00a0125c71e79%3A1700550523506; _dycst=dk.l.c.ms.; _dy_geo=US.NA.US_MI.US_MI_Detroit; _dy_df_geo=United%20States.Michigan.Detroit; _dy_toffset=0; _rmt_an_idt=0; _mibhv=anon-1700550524031-5332320748_8212; _cs_c=0; IR_gbd=kohls.com; IR_5349=1700550524310%7C385561%7C1700550524310%7C%7C; _cs_cvars=%7B%221%22%3A%5B%22Page%20Name%22%2C%22Homepage%22%5D%2C%227%22%3A%5B%22Page%20Type%22%2C%22Homepage%22%5D%7D; _cs_id=adc880fd-d93e-ac59-cc5b-3c04e82d2b4b.1700550524.1.1700550524.1700550524.1588866862.1734714524445; IR_PI=cece5d75-883c-11ee-b347-d5b679c63de5%7C1700636924310; _cs_s=1.5.1.1700552324776; _pin_unauth=dWlkPVpEUXlNbU5sWm1JdE1XWmlZaTAwT1RjekxXSTVaakl0TURFNFpEQTJNalJqT0dJNQ; _fbp=fb.1.1700550525180.1119580522; _tt_enable_cookie=1; _ttp=aSHtu_gIQ09zwUi9iOI7iCWyAR-; _scid=1f04d67b-8a21-463f-ac1c-fe88de60033f; _scid_r=1f04d67b-8a21-463f-ac1c-fe88de60033f; _gcl_au=1.1.1181256846.1700550526; _evga_ce07={%22uuid%22:%220e4971bddb246461%22}; _sfid_6ab3={%22anonymousId%22:%220e4971bddb246461%22%2C%22consents%22:[]}; _ga_ZLYRBY87M8=GS1.1.1700550526.1.0.1700550526.60.0.0; __gads=ID=3c394970cb55450f:T=1700550526:RT=1700550526:S=ALNI_MbrJ3X_hGpSImvZMLI5SV9-34drNA; __gpi=UID=00000a00a9f90471:T=1700550526:RT=1700550526:S=ALNI_Ma8ugF9cZmpsonvpd3LpCjHvE5AkQ; _ga=GA1.2.1527107996.1700550526; _gid=GA1.2.1528984642.1700550527; _gat=1; dtCookie=v_4_srv_14_sn_7AE743F52EB51B2E022B722A8C61E6D6_app-3Acf6a6b14e494e621_1_ol_0_perc_100000_mul_1_rcs-3Acss_0; _sctr=1%7C1700546400000; _dpm_ses.f2d1=*; _dpm_id.f2d1=0ef65a2f-e6a7-43f4-a1c7-c0d82ed29395.1700550532.1.1700550532.1700550532.a24e90a1-e57d-4467-afd8-a703310265c8; _li_dcdm_c=.kohls.com; _lc2_fpi=0b10d8358f40--01hfrbbpry1av2w5z5mhth4cen; _lc2_fpi_meta={%22w%22:1700550531870}; _dyid_server=-2796735126378358917; _li_ss=CjYKBQgKEMYWCgYI3QEQxhYKBgiBARDGFgoGCKIBEMYWCgYIiwEQxhYKBgjSARDGFgoFCH4QxhY; _li_ss_meta={%22w%22:1700550532279%2C%22e%22:1703142532279}; _dy_soct=561158.1083346.1700550523*577704.1114257.1700550523*604242.1165732.1700550523*664718.1276830.1700550523*675999.1296928.1700550523*695696.1330231.1700550523*707338.1351316.1700550523*782209.1482111.1700550523*785673.1487461.1700550523*546795.1053981.1700550523*577478.1113986.1700550523*606987.1171916.1700550523*809094.1741367.1700550523*839301.1661807.1700550523*834183.1644438.1700550524*758401.1444085.1700550532; s_sq=kohlscomprod%3D%2526c.%2526a.%2526activitymap.%2526page%253Dhomepage%2526link%253D12%25252074%252520with%25252015%252525%252520off%252520coupon%25252A%252520Sweaters%252520for%252520women%252520and%252520juniors.%252520Select%252520styles.%252520Sale%252520%25252414.99%25252C%252520Reg.%252520%25252430-%25252440.%252520Shop%252520Women%2525E2%252580%252599s%252520%252526%252520Juniors%2525E2%252580%252599%252520Swe%2526region%253Dhp-equity01%2526pageIDType%253D1%2526.activitymap%2526.a%2526.c%2526pid%253DHomepage%2526pidt%253D1%2526oid%253Dhttps%25253A%25252F%25252Fwww.kohls.com%25252Fcatalog%25252Fwomens-sweaters-tops-clothing.jsp%25253FCN%25253DGender%25253AWomens%25252BProduct%25253ASweaters%25252BCa%2526ot%253DA; kls_p=true; 362fd180cb7a77f64919ee892a4d9d35=7191fc42ec960804587d38331d7dd83d; akavpau_www=1700550851~id=019fb5d0fa53935dd3796786ff98ae28; ak_bmsc=721A085A5E4C790A5F04ACCC015E956A~000000000000000000000000000000~YAAQxCkhF2k8luGLAQAAFyi28BU/65NCRHo8nighFmB8o9sHpbd/Hybfl4QCVNDQvTheKAvvXZGBqzia6xAh1uNwWR82Egg4OvsVRPzr2JB4r65yW6aK82WUxfwiZmuw5tjr0H5FdonnqI7pOAGf31XVNXO1yKOyK53QfIznOdRkaOl405VU0ZHbpNOJDjfqCZnqx1xvEJ8JToSqRH3o2qPo8TtS95WGHphlxJ1dJEZM8G1pwhewcyPxYM3X0gj7gRHlRYAbQ3vcsWf2p+Zf0xNLiGrJSbSEPn5vbMADAFjbHXi68G+vifBv9ysaxwBC6xRhcKtb2NMnjBdjRhD5qu3Sa1ld/NxBzWSzGNKcQorTStLLtZIkCAGv+C2dBy/1eAQ38N7m7OBWrRJfUA2cHzdkwMymQwYLGzNHWfLLEXfjv3GVadBZr1QxJXGoXPZmB3poUdBdtsMpoU8n7k2L9vmuBJf7wlo/SOSK/8TeI3yr9ycOHQXppVekIlEXhV4sep01mhWEq7EN8eVMpMqZhw0t8nPrXCWc3304XWeDReEXM0XurBvZHj09AAc3QpdOg0ZNXFRgDNo+WEXhm7U26gYnqdR8F0PPkZN1v7p5/DnYQD3fYVa9Nu8vVw==; bm_sv=E9CC4175A998BE646991AD33CB3A6E5B~YAAQxCkhF2o8luGLAQAAFyi28BXjwdLdaGRAjbVYE3T4xl9i9pm1kgYbuA/Y1O3+Ct0btElOAe7JgVpPFlKODYGjuPbfx8/bJne6eNFxa2v1yd5YP/0YOj8AZSqlP+hR2JNLSd5eb4a+5B981o1JQVoWMjR9sEHWbnpPLCvWeLusqWwW0O/94uBlXxJa+/Sc5IbrsDcY5uKYxJ36upQ0hhih5eU79SCFFAqjhhw6GBIBZv4FH33H4Op+wTvA+Gk=~1; bm_sz=EDE788231412FB1669642DC066D678F4~YAAQxCkhF2s8luGLAQAAFyi28BUsbcQWaMky0JbdYwZ+kK223YeB8J0bLDkW5XkbGnnNQnHLi4RqPStZZcjBZaAf1F3DsboI2vgD1Xkjvf5U1PsqNLk6xZKpL57gc8ktZA4N8WFri6SyLbig52vOn0ZJhcypbT8ec17lSly5t3/XwVYBEhp9y/rLzjoGpO3CxYPpF57aS471C8vJ2XFeCj2h9M4gAhZLYVOAHwjhimFInBDAVeKVqmZRebLVCZ0oKoNoc+lkYjyCfklfYVurasH54Hf2nPN6AjwHd91R9lKc4tUAKy1AvEIlYQq4fYkjTM1i3jZQQI7liqNPwOWZJ15Pd5VqcFlTWElzBTHu4XaFRmOy0Q2eYMBUB4jdSiCBjE3Ls6BmKFN/RFtKyfDn4OLyH4QHnw006zXeDA==~3683376~3617080; PIM-SESSION-ID=KODLNerk0tWEePaQ; mbox=session#cabcdd4927cd4756a91cdbcb38abdfc6#1700552413|PC#cabcdd4927cd4756a91cdbcb38abdfc6.35_0#1763795353; RT=\"z=1&dm=kohls.com&si=ad04a02c-44c5-432e-9df4-90032e6d44c5&ss=lp7zve95&sl=1&tt=9i8&bcn=%2F%2F17de4c12.akstat.io%2F\"; _abck=CC169C04AF00814B225B42A002C6AB5F~-1~YAAQxCkhFy49luGLAQAA6C628ArM8xQZxX3USA8ota5Rk1n86bWgE6wIdYwx2ylwpMeiujAJX+OpXPZVVbmDxLlxeKKUEcxs8h5H2vDt/5dzaTs5I882EXxBoWersD4dyc/k6EbhQ0aj8PkUFbTgyDmU3wNZPb6d5vcLuZfO3stOzgNAy40oZSa3CapdTQFZFMzexjkfgGb7nTH6Q0b3AbCIaKE3wBL9WRDRO9tvnTigKKFBB4J68p/f3vCbxFIxNLUcLXOYF6Hy2gdo7/Z97+5m/j2T+Bv9VF+JTf3EzZQ/CErtt7pGkbYHerzgz+Pl8ARYKPJE5PTunJa/Yhn25h5CFEMEsKs3BujSLhDiRzQnGCFT+1w2evy+mudLeAprTExuf6mFFy7t5YoE8fq5HfGwUqHaGxd8WZ0Gf42kLP6WXQZ0J4fZ1gaC99w4pZg77dwgtH7sMV0U18/pKTuq9nj3yRsY9QLgDMCWznSbWuEBtf0C/iarpjeb6MOKGrlz4/3zmUW+ytVp2u4+SKJRnw5w~-1~-1~1700554050; dtSa=-; rxvt=1700552353388|1700550521978; dtPC=14$150553347_964h-vHKACFJCCPMSVWCKACRIACGLNTUQCKJQH-0e0
----
--Response 
HTTP/1.1 200
correlation-id: webstore::f585c4a6-644b-4457-af00-fe916d6446b3::1698786430::SNB::snb-ui-7fb5567bb5-5svtc::2607:fb90:8a2c:58b0:d56f:6691:fc07:60
accept-ranges: bytes
last-modified: Tue, 31 Oct 2023 18:22:02 GMT
etag: W/\"395-18b86f89d10\"
content-type: image/png
content-length: 917
x-origin-cc: public, max-age=0
x-origin-cc: public, max-age=0
x-origin-cc: public, max-age=0
x-origin-cc: public, max-age=0
cache-control: public, max-age=86400
expires: Wed, 22 Nov 2023 07:09:13 GMT
date: Tue, 21 Nov 2023 07:09:13 GMT
set-cookie: _dyid_server=-2796735126378358917; expires=Wed, 20-Nov-2024 07:09:13 GMT; path=/; domain=.kohls.com; secure
set-cookie: _abck=CC169C04AF00814B225B42A002C6AB5F~-1~YAAQxCkhFz89luGLAQAA5i+28ApzOZfWP6kHW37Vip8DA5GZZLTANwb7m08tzVPpQJMODUjw+Pm/14siwk+1dLvrH6V9MDZgEMnS7VZTCManNjeXBpq8ZaSVScKE7MIa4FPpe58le5FRWdfmDf0Qr+c13q/5/BJ8aCduIK7Q377s+lQQEY8dL8DaxkDYeIeWO3wv1PmOelNwhF1RYsKq1n11dAfLP7OLYEwPOoLulh/EI8k+dw0TZPWOa7HjANIZB3A84YuNxvoCZJJiS+6v5AzYYdBI02PxmzdKuUCTB315ywwUMgU88rVMgOF0CF2z1+Nn/Q+fU4fyd8HOSmMFZfvW28RV1tWeLiCGUCIRShR/Ysp1Uoa4p6NRnbQSdaqftehpqxH51gdgcpDG3vQBEBVK+LvzfIvAGFehbexsiax26uUV6S35htOLxXh2MsQSXHBmJJ4YL2Eof+YoytY6A/aV5Ybc1BLtut6Xr98hOIHk9YTBEEhl50fy2SUOFKUtcZEN0Da5rpiAMz0+V4Pt/fIY~-1~-1~1700554050; Domain=.kohls.com; Path=/; Expires=Wed, 20 Nov 2024 07:09:13 GMT; Max-Age=31536000; Secure
server-timing: cdn-cache; desc=HIT
server-timing: edge; dur=1
server-timing: ak_p; desc=\"1700550553545_388049348_666701614_55_28586_16_0_146\";dur=1
strict-transport-security: max-age=15768000 ; preload
----
--Request 
GET https://www.kohls.com/snb/media/images/product-matrix-sprite.png
Host: www.kohls.com
sec-ch-ua: \"Not.A/Brand\";v=\"8\", \"Chromium\";v=\"114\"
sec-ch-ua-mobile: ?0
User-Agent: Mozilla/5.0 (X11; Linux x86_64) AppleWebKit/537.36 (KHTML, like Gecko) Chrome/114.0.0.0 Safari/537.36
sec-ch-ua-platform: \"Linux\"
Accept: image/avif,image/webp,image/apng,image/svg+xml,image/*,*/*;q=0.8
Sec-Fetch-Site: same-origin
Sec-Fetch-Mode: no-cors
Sec-Fetch-Dest: image
Referer: https://www.kohls.com/catalog/womens-sweaters-tops-clothing.jsp?CN=Gender:Womens+Product:Sweaters+Category:Tops+Department:Clothing+Assortment:Kohls%20Black%20Friday&BST=6262123:6237310:6149518:6125449:6149518:6176056:6119381:6438581:6143395:6125326:4922640:6169493&icid=hpmf-BF-offer-womenssweaters-vlhd26&kls_sbp=79613869088917606480426504271561296302
Accept-Encoding: gzip, deflate, br
Accept-Language: en-US,en;q=0.9
Cookie: store_location=14201; akaalb_aem_homepage=~op=aem_production:aem_production|~rv=79~m=aem_production:0|~os=554fb49c1bda6073578f281b62264a0e~id=e5d8d097120eff09512a425189fcc66f; AKA_HP2Redesign=True; AKA_PIQ=True; AKA_ACM=True; AKA_CDP2=True; AKA_STP=false; AKA_PDP2=True; AKA_HP2=True; AKA_CNC2=True; AKA_RV6=12; AKA_RV8=72; AKA_RV4=57; AKA_RV5=23; AKA_RV3=95; AKA_RV=96; AKA_RV2=35; akacd_www-kohls-com-mosaic-p2=2177452799~rv=61~id=f2bfd608ff6bd75e278febb90f5bdcd7; at_check=true; s_ecid=MCMID%7C79613869088917606480426504271561296302; AMCVS_F0EF5E09512D2CD20A490D4D%40AdobeOrg=1; mboxEdgeCluster=35; AMCV_F0EF5E09512D2CD20A490D4D%40AdobeOrg=1585540135%7CMCIDTS%7C19683%7CMCMID%7C79613869088917606480426504271561296302%7CMCAID%7CNONE%7CMCOPTOUT-1700557721s%7CNONE%7CMCAAMLH-1701155321%7C7%7CMCAAMB-1701155321%7Cj8Odv6LonN4r3an7LhD3WZrU1bUpAkFkkiY1ncBR96t2PTI%7CMCSYNCS%7C1083-19690*1085-19690*1086-19690*1087-19690*1088-19690%7CMCSYNCSOP%7C411-19690%7CvVersion%7C4.4.0; rxVisitor=170055052197696JCFOBUP2E8LGBETNI04FF2IPU7PHBL; X-SESSIONID=d38e961d-eee7-4879-8340-ea94827e289a; VisitorId=d38e961d-eee7-4879-8340-ea94827e289a; K_favstore=14216|1306|BUFFALO|geo|sephora; spa=4; _dy_ses_load_seq=84609%3A1700550523022; _dy_csc_ses=t; _dy_c_exps=; gpv_v9=Homepage; s_cc=true; _dycnst=dg; _uetsid=ce3c5ea0883c11ee858a29be7baeeb0f; _uetvid=ce3cb6c0883c11ee9c5d21bc71586f02; fp_client={%22id%22:%2229475071191700550523%22}; fp_session={%22i%22:%2288215330731700550523%22%2C%22d%22:1}; _dyid=-2796735126378358917; _dyfs=1700550523505; _dyjsession=cdc731762c4fbfb825c00a0125c71e79; dy_fs_page=www.kohls.com; _dy_lu_ses=cdc731762c4fbfb825c00a0125c71e79%3A1700550523506; _dycst=dk.l.c.ms.; _dy_geo=US.NA.US_MI.US_MI_Detroit; _dy_df_geo=United%20States.Michigan.Detroit; _dy_toffset=0; _rmt_an_idt=0; _mibhv=anon-1700550524031-5332320748_8212; _cs_c=0; IR_gbd=kohls.com; IR_5349=1700550524310%7C385561%7C1700550524310%7C%7C; _cs_cvars=%7B%221%22%3A%5B%22Page%20Name%22%2C%22Homepage%22%5D%2C%227%22%3A%5B%22Page%20Type%22%2C%22Homepage%22%5D%7D; _cs_id=adc880fd-d93e-ac59-cc5b-3c04e82d2b4b.1700550524.1.1700550524.1700550524.1588866862.1734714524445; IR_PI=cece5d75-883c-11ee-b347-d5b679c63de5%7C1700636924310; _cs_s=1.5.1.1700552324776; _pin_unauth=dWlkPVpEUXlNbU5sWm1JdE1XWmlZaTAwT1RjekxXSTVaakl0TURFNFpEQTJNalJqT0dJNQ; _fbp=fb.1.1700550525180.1119580522; _tt_enable_cookie=1; _ttp=aSHtu_gIQ09zwUi9iOI7iCWyAR-; _scid=1f04d67b-8a21-463f-ac1c-fe88de60033f; _scid_r=1f04d67b-8a21-463f-ac1c-fe88de60033f; _gcl_au=1.1.1181256846.1700550526; _evga_ce07={%22uuid%22:%220e4971bddb246461%22}; _sfid_6ab3={%22anonymousId%22:%220e4971bddb246461%22%2C%22consents%22:[]}; _ga_ZLYRBY87M8=GS1.1.1700550526.1.0.1700550526.60.0.0; __gads=ID=3c394970cb55450f:T=1700550526:RT=1700550526:S=ALNI_MbrJ3X_hGpSImvZMLI5SV9-34drNA; __gpi=UID=00000a00a9f90471:T=1700550526:RT=1700550526:S=ALNI_Ma8ugF9cZmpsonvpd3LpCjHvE5AkQ; _ga=GA1.2.1527107996.1700550526; _gid=GA1.2.1528984642.1700550527; _gat=1; dtCookie=v_4_srv_14_sn_7AE743F52EB51B2E022B722A8C61E6D6_app-3Acf6a6b14e494e621_1_ol_0_perc_100000_mul_1_rcs-3Acss_0; _sctr=1%7C1700546400000; _dpm_ses.f2d1=*; _dpm_id.f2d1=0ef65a2f-e6a7-43f4-a1c7-c0d82ed29395.1700550532.1.1700550532.1700550532.a24e90a1-e57d-4467-afd8-a703310265c8; _li_dcdm_c=.kohls.com; _lc2_fpi=0b10d8358f40--01hfrbbpry1av2w5z5mhth4cen; _lc2_fpi_meta={%22w%22:1700550531870}; _dyid_server=-2796735126378358917; _li_ss=CjYKBQgKEMYWCgYI3QEQxhYKBgiBARDGFgoGCKIBEMYWCgYIiwEQxhYKBgjSARDGFgoFCH4QxhY; _li_ss_meta={%22w%22:1700550532279%2C%22e%22:1703142532279}; _dy_soct=561158.1083346.1700550523*577704.1114257.1700550523*604242.1165732.1700550523*664718.1276830.1700550523*675999.1296928.1700550523*695696.1330231.1700550523*707338.1351316.1700550523*782209.1482111.1700550523*785673.1487461.1700550523*546795.1053981.1700550523*577478.1113986.1700550523*606987.1171916.1700550523*809094.1741367.1700550523*839301.1661807.1700550523*834183.1644438.1700550524*758401.1444085.1700550532; s_sq=kohlscomprod%3D%2526c.%2526a.%2526activitymap.%2526page%253Dhomepage%2526link%253D12%25252074%252520with%25252015%252525%252520off%252520coupon%25252A%252520Sweaters%252520for%252520women%252520and%252520juniors.%252520Select%252520styles.%252520Sale%252520%25252414.99%25252C%252520Reg.%252520%25252430-%25252440.%252520Shop%252520Women%2525E2%252580%252599s%252520%252526%252520Juniors%2525E2%252580%252599%252520Swe%2526region%253Dhp-equity01%2526pageIDType%253D1%2526.activitymap%2526.a%2526.c%2526pid%253DHomepage%2526pidt%253D1%2526oid%253Dhttps%25253A%25252F%25252Fwww.kohls.com%25252Fcatalog%25252Fwomens-sweaters-tops-clothing.jsp%25253FCN%25253DGender%25253AWomens%25252BProduct%25253ASweaters%25252BCa%2526ot%253DA; kls_p=true; 362fd180cb7a77f64919ee892a4d9d35=7191fc42ec960804587d38331d7dd83d; akavpau_www=1700550851~id=019fb5d0fa53935dd3796786ff98ae28; ak_bmsc=721A085A5E4C790A5F04ACCC015E956A~000000000000000000000000000000~YAAQxCkhF2k8luGLAQAAFyi28BU/65NCRHo8nighFmB8o9sHpbd/Hybfl4QCVNDQvTheKAvvXZGBqzia6xAh1uNwWR82Egg4OvsVRPzr2JB4r65yW6aK82WUxfwiZmuw5tjr0H5FdonnqI7pOAGf31XVNXO1yKOyK53QfIznOdRkaOl405VU0ZHbpNOJDjfqCZnqx1xvEJ8JToSqRH3o2qPo8TtS95WGHphlxJ1dJEZM8G1pwhewcyPxYM3X0gj7gRHlRYAbQ3vcsWf2p+Zf0xNLiGrJSbSEPn5vbMADAFjbHXi68G+vifBv9ysaxwBC6xRhcKtb2NMnjBdjRhD5qu3Sa1ld/NxBzWSzGNKcQorTStLLtZIkCAGv+C2dBy/1eAQ38N7m7OBWrRJfUA2cHzdkwMymQwYLGzNHWfLLEXfjv3GVadBZr1QxJXGoXPZmB3poUdBdtsMpoU8n7k2L9vmuBJf7wlo/SOSK/8TeI3yr9ycOHQXppVekIlEXhV4sep01mhWEq7EN8eVMpMqZhw0t8nPrXCWc3304XWeDReEXM0XurBvZHj09AAc3QpdOg0ZNXFRgDNo+WEXhm7U26gYnqdR8F0PPkZN1v7p5/DnYQD3fYVa9Nu8vVw==; bm_sv=E9CC4175A998BE646991AD33CB3A6E5B~YAAQxCkhF2o8luGLAQAAFyi28BXjwdLdaGRAjbVYE3T4xl9i9pm1kgYbuA/Y1O3+Ct0btElOAe7JgVpPFlKODYGjuPbfx8/bJne6eNFxa2v1yd5YP/0YOj8AZSqlP+hR2JNLSd5eb4a+5B981o1JQVoWMjR9sEHWbnpPLCvWeLusqWwW0O/94uBlXxJa+/Sc5IbrsDcY5uKYxJ36upQ0hhih5eU79SCFFAqjhhw6GBIBZv4FH33H4Op+wTvA+Gk=~1; bm_sz=EDE788231412FB1669642DC066D678F4~YAAQxCkhF2s8luGLAQAAFyi28BUsbcQWaMky0JbdYwZ+kK223YeB8J0bLDkW5XkbGnnNQnHLi4RqPStZZcjBZaAf1F3DsboI2vgD1Xkjvf5U1PsqNLk6xZKpL57gc8ktZA4N8WFri6SyLbig52vOn0ZJhcypbT8ec17lSly5t3/XwVYBEhp9y/rLzjoGpO3CxYPpF57aS471C8vJ2XFeCj2h9M4gAhZLYVOAHwjhimFInBDAVeKVqmZRebLVCZ0oKoNoc+lkYjyCfklfYVurasH54Hf2nPN6AjwHd91R9lKc4tUAKy1AvEIlYQq4fYkjTM1i3jZQQI7liqNPwOWZJ15Pd5VqcFlTWElzBTHu4XaFRmOy0Q2eYMBUB4jdSiCBjE3Ls6BmKFN/RFtKyfDn4OLyH4QHnw006zXeDA==~3683376~3617080; PIM-SESSION-ID=KODLNerk0tWEePaQ; mbox=session#cabcdd4927cd4756a91cdbcb38abdfc6#1700552413|PC#cabcdd4927cd4756a91cdbcb38abdfc6.35_0#1763795353; RT=\"z=1&dm=kohls.com&si=ad04a02c-44c5-432e-9df4-90032e6d44c5&ss=lp7zve95&sl=1&tt=9i8&bcn=%2F%2F17de4c12.akstat.io%2F\"; _abck=CC169C04AF00814B225B42A002C6AB5F~-1~YAAQxCkhFy49luGLAQAA6C628ArM8xQZxX3USA8ota5Rk1n86bWgE6wIdYwx2ylwpMeiujAJX+OpXPZVVbmDxLlxeKKUEcxs8h5H2vDt/5dzaTs5I882EXxBoWersD4dyc/k6EbhQ0aj8PkUFbTgyDmU3wNZPb6d5vcLuZfO3stOzgNAy40oZSa3CapdTQFZFMzexjkfgGb7nTH6Q0b3AbCIaKE3wBL9WRDRO9tvnTigKKFBB4J68p/f3vCbxFIxNLUcLXOYF6Hy2gdo7/Z97+5m/j2T+Bv9VF+JTf3EzZQ/CErtt7pGkbYHerzgz+Pl8ARYKPJE5PTunJa/Yhn25h5CFEMEsKs3BujSLhDiRzQnGCFT+1w2evy+mudLeAprTExuf6mFFy7t5YoE8fq5HfGwUqHaGxd8WZ0Gf42kLP6WXQZ0J4fZ1gaC99w4pZg77dwgtH7sMV0U18/pKTuq9nj3yRsY9QLgDMCWznSbWuEBtf0C/iarpjeb6MOKGrlz4/3zmUW+ytVp2u4+SKJRnw5w~-1~-1~1700554050; dtSa=-; rxvt=1700552353388|1700550521978; dtPC=14$150553347_964h-vHKACFJCCPMSVWCKACRIACGLNTUQCKJQH-0e0
----
--Response 
HTTP/1.1 200
correlation-id: webstore::63cafa91-781d-42c1-b6cf-c44dfeec4560::1698786430::SNB::snb-ui-7fb5567bb5-5svtc::2607:fb90:8a2c:58b0:d56f:6691:fc07:60
accept-ranges: bytes
last-modified: Tue, 31 Oct 2023 18:22:02 GMT
etag: W/\"20ad-18b86f89d10\"
content-type: image/png
content-length: 8365
x-origin-cc: public, max-age=0
x-origin-cc: public, max-age=0
x-origin-cc: public, max-age=0
x-origin-cc: public, max-age=0
cache-control: public, max-age=86400
expires: Wed, 22 Nov 2023 07:09:13 GMT
date: Tue, 21 Nov 2023 07:09:13 GMT
set-cookie: _dyid_server=-2796735126378358917; expires=Wed, 20-Nov-2024 07:09:13 GMT; path=/; domain=.kohls.com; secure
set-cookie: _abck=CC169C04AF00814B225B42A002C6AB5F~-1~YAAQxCkhF0A9luGLAQAABjC28ApWoPb+lDsP69hpxhq0nLBw4FwEQkXAtJ3WUBUazvVjvA/ewIlBgJlK6CCLrurSSAcw9gMcAIbdQB5s4eJ/wGqjDo8np4YpL6pKatVIiGI1c3M7LB8ZvG5UGF8JK91CJ11cNIeWLo1nDaWGGHh65Vn80B/B3e5KuBZqfnwI6hJA61QCPEmeduj1WgG6f1C+0CYb1+etHTpd4NP91taqsKxNSLc5PS+WqHM2vOmAFGgpv0Ac2yQpOd0bSMBcAqi1ucHAjU/umIvlhV9Te48T134Oml1AywEQjQwv4MK1nCFiRczt4CQ74CYsMsnS8DXsK8m1ATgK48SMZ6jQ+Qfw/awk0dYCIpSNOPHql/+7YPLHl8u6dK212M5uEiWAI0w33/EBEXpbDB8UQ2W9byUw3FK7Zmuu++Y1de/C33ASQ7tT3BzGCn778fWoFP5sRuegmtqM5xAf/imuACWFkMjlRbnqYVkO6Pk5hXBtvCCdwPLk0xUU2+sRRlZL79de8ypN~-1~-1~1700554050; Domain=.kohls.com; Path=/; Expires=Wed, 20 Nov 2024 07:09:13 GMT; Max-Age=31536000; Secure
server-timing: cdn-cache; desc=HIT
server-timing: edge; dur=1
server-timing: ak_p; desc=\"1700550553576_388049348_666701630_156_28539_15_0_146\";dur=1
strict-transport-security: max-age=15768000 ; preload
----
--Request 
GET https://www.kohls.com/snb/media/fancybox/fancybox.png
Host: www.kohls.com
sec-ch-ua: \"Not.A/Brand\";v=\"8\", \"Chromium\";v=\"114\"
sec-ch-ua-mobile: ?0
User-Agent: Mozilla/5.0 (X11; Linux x86_64) AppleWebKit/537.36 (KHTML, like Gecko) Chrome/114.0.0.0 Safari/537.36
sec-ch-ua-platform: \"Linux\"
Accept: image/avif,image/webp,image/apng,image/svg+xml,image/*,*/*;q=0.8
Sec-Fetch-Site: same-origin
Sec-Fetch-Mode: no-cors
Sec-Fetch-Dest: image
Referer: https://www.kohls.com/catalog/womens-sweaters-tops-clothing.jsp?CN=Gender:Womens+Product:Sweaters+Category:Tops+Department:Clothing+Assortment:Kohls%20Black%20Friday&BST=6262123:6237310:6149518:6125449:6149518:6176056:6119381:6438581:6143395:6125326:4922640:6169493&icid=hpmf-BF-offer-womenssweaters-vlhd26&kls_sbp=79613869088917606480426504271561296302
Accept-Encoding: gzip, deflate, br
Accept-Language: en-US,en;q=0.9
Cookie: store_location=14201; akaalb_aem_homepage=~op=aem_production:aem_production|~rv=79~m=aem_production:0|~os=554fb49c1bda6073578f281b62264a0e~id=e5d8d097120eff09512a425189fcc66f; AKA_HP2Redesign=True; AKA_PIQ=True; AKA_ACM=True; AKA_CDP2=True; AKA_STP=false; AKA_PDP2=True; AKA_HP2=True; AKA_CNC2=True; AKA_RV6=12; AKA_RV8=72; AKA_RV4=57; AKA_RV5=23; AKA_RV3=95; AKA_RV=96; AKA_RV2=35; akacd_www-kohls-com-mosaic-p2=2177452799~rv=61~id=f2bfd608ff6bd75e278febb90f5bdcd7; at_check=true; s_ecid=MCMID%7C79613869088917606480426504271561296302; AMCVS_F0EF5E09512D2CD20A490D4D%40AdobeOrg=1; mboxEdgeCluster=35; AMCV_F0EF5E09512D2CD20A490D4D%40AdobeOrg=1585540135%7CMCIDTS%7C19683%7CMCMID%7C79613869088917606480426504271561296302%7CMCAID%7CNONE%7CMCOPTOUT-1700557721s%7CNONE%7CMCAAMLH-1701155321%7C7%7CMCAAMB-1701155321%7Cj8Odv6LonN4r3an7LhD3WZrU1bUpAkFkkiY1ncBR96t2PTI%7CMCSYNCS%7C1083-19690*1085-19690*1086-19690*1087-19690*1088-19690%7CMCSYNCSOP%7C411-19690%7CvVersion%7C4.4.0; rxVisitor=170055052197696JCFOBUP2E8LGBETNI04FF2IPU7PHBL; X-SESSIONID=d38e961d-eee7-4879-8340-ea94827e289a; VisitorId=d38e961d-eee7-4879-8340-ea94827e289a; K_favstore=14216|1306|BUFFALO|geo|sephora; spa=4; _dy_ses_load_seq=84609%3A1700550523022; _dy_csc_ses=t; _dy_c_exps=; gpv_v9=Homepage; s_cc=true; _dycnst=dg; _uetsid=ce3c5ea0883c11ee858a29be7baeeb0f; _uetvid=ce3cb6c0883c11ee9c5d21bc71586f02; fp_client={%22id%22:%2229475071191700550523%22}; fp_session={%22i%22:%2288215330731700550523%22%2C%22d%22:1}; _dyid=-2796735126378358917; _dyfs=1700550523505; _dyjsession=cdc731762c4fbfb825c00a0125c71e79; dy_fs_page=www.kohls.com; _dy_lu_ses=cdc731762c4fbfb825c00a0125c71e79%3A1700550523506; _dycst=dk.l.c.ms.; _dy_geo=US.NA.US_MI.US_MI_Detroit; _dy_df_geo=United%20States.Michigan.Detroit; _dy_toffset=0; _rmt_an_idt=0; _mibhv=anon-1700550524031-5332320748_8212; _cs_c=0; IR_gbd=kohls.com; IR_5349=1700550524310%7C385561%7C1700550524310%7C%7C; _cs_cvars=%7B%221%22%3A%5B%22Page%20Name%22%2C%22Homepage%22%5D%2C%227%22%3A%5B%22Page%20Type%22%2C%22Homepage%22%5D%7D; _cs_id=adc880fd-d93e-ac59-cc5b-3c04e82d2b4b.1700550524.1.1700550524.1700550524.1588866862.1734714524445; IR_PI=cece5d75-883c-11ee-b347-d5b679c63de5%7C1700636924310; _cs_s=1.5.1.1700552324776; _pin_unauth=dWlkPVpEUXlNbU5sWm1JdE1XWmlZaTAwT1RjekxXSTVaakl0TURFNFpEQTJNalJqT0dJNQ; _fbp=fb.1.1700550525180.1119580522; _tt_enable_cookie=1; _ttp=aSHtu_gIQ09zwUi9iOI7iCWyAR-; _scid=1f04d67b-8a21-463f-ac1c-fe88de60033f; _scid_r=1f04d67b-8a21-463f-ac1c-fe88de60033f; _gcl_au=1.1.1181256846.1700550526; _evga_ce07={%22uuid%22:%220e4971bddb246461%22}; _sfid_6ab3={%22anonymousId%22:%220e4971bddb246461%22%2C%22consents%22:[]}; _ga_ZLYRBY87M8=GS1.1.1700550526.1.0.1700550526.60.0.0; __gads=ID=3c394970cb55450f:T=1700550526:RT=1700550526:S=ALNI_MbrJ3X_hGpSImvZMLI5SV9-34drNA; __gpi=UID=00000a00a9f90471:T=1700550526:RT=1700550526:S=ALNI_Ma8ugF9cZmpsonvpd3LpCjHvE5AkQ; _ga=GA1.2.1527107996.1700550526; _gid=GA1.2.1528984642.1700550527; _gat=1; dtCookie=v_4_srv_14_sn_7AE743F52EB51B2E022B722A8C61E6D6_app-3Acf6a6b14e494e621_1_ol_0_perc_100000_mul_1_rcs-3Acss_0; _sctr=1%7C1700546400000; _dpm_ses.f2d1=*; _dpm_id.f2d1=0ef65a2f-e6a7-43f4-a1c7-c0d82ed29395.1700550532.1.1700550532.1700550532.a24e90a1-e57d-4467-afd8-a703310265c8; _li_dcdm_c=.kohls.com; _lc2_fpi=0b10d8358f40--01hfrbbpry1av2w5z5mhth4cen; _lc2_fpi_meta={%22w%22:1700550531870}; _dyid_server=-2796735126378358917; _li_ss=CjYKBQgKEMYWCgYI3QEQxhYKBgiBARDGFgoGCKIBEMYWCgYIiwEQxhYKBgjSARDGFgoFCH4QxhY; _li_ss_meta={%22w%22:1700550532279%2C%22e%22:1703142532279}; _dy_soct=561158.1083346.1700550523*577704.1114257.1700550523*604242.1165732.1700550523*664718.1276830.1700550523*675999.1296928.1700550523*695696.1330231.1700550523*707338.1351316.1700550523*782209.1482111.1700550523*785673.1487461.1700550523*546795.1053981.1700550523*577478.1113986.1700550523*606987.1171916.1700550523*809094.1741367.1700550523*839301.1661807.1700550523*834183.1644438.1700550524*758401.1444085.1700550532; s_sq=kohlscomprod%3D%2526c.%2526a.%2526activitymap.%2526page%253Dhomepage%2526link%253D12%25252074%252520with%25252015%252525%252520off%252520coupon%25252A%252520Sweaters%252520for%252520women%252520and%252520juniors.%252520Select%252520styles.%252520Sale%252520%25252414.99%25252C%252520Reg.%252520%25252430-%25252440.%252520Shop%252520Women%2525E2%252580%252599s%252520%252526%252520Juniors%2525E2%252580%252599%252520Swe%2526region%253Dhp-equity01%2526pageIDType%253D1%2526.activitymap%2526.a%2526.c%2526pid%253DHomepage%2526pidt%253D1%2526oid%253Dhttps%25253A%25252F%25252Fwww.kohls.com%25252Fcatalog%25252Fwomens-sweaters-tops-clothing.jsp%25253FCN%25253DGender%25253AWomens%25252BProduct%25253ASweaters%25252BCa%2526ot%253DA; kls_p=true; 362fd180cb7a77f64919ee892a4d9d35=7191fc42ec960804587d38331d7dd83d; akavpau_www=1700550851~id=019fb5d0fa53935dd3796786ff98ae28; ak_bmsc=721A085A5E4C790A5F04ACCC015E956A~000000000000000000000000000000~YAAQxCkhF2k8luGLAQAAFyi28BU/65NCRHo8nighFmB8o9sHpbd/Hybfl4QCVNDQvTheKAvvXZGBqzia6xAh1uNwWR82Egg4OvsVRPzr2JB4r65yW6aK82WUxfwiZmuw5tjr0H5FdonnqI7pOAGf31XVNXO1yKOyK53QfIznOdRkaOl405VU0ZHbpNOJDjfqCZnqx1xvEJ8JToSqRH3o2qPo8TtS95WGHphlxJ1dJEZM8G1pwhewcyPxYM3X0gj7gRHlRYAbQ3vcsWf2p+Zf0xNLiGrJSbSEPn5vbMADAFjbHXi68G+vifBv9ysaxwBC6xRhcKtb2NMnjBdjRhD5qu3Sa1ld/NxBzWSzGNKcQorTStLLtZIkCAGv+C2dBy/1eAQ38N7m7OBWrRJfUA2cHzdkwMymQwYLGzNHWfLLEXfjv3GVadBZr1QxJXGoXPZmB3poUdBdtsMpoU8n7k2L9vmuBJf7wlo/SOSK/8TeI3yr9ycOHQXppVekIlEXhV4sep01mhWEq7EN8eVMpMqZhw0t8nPrXCWc3304XWeDReEXM0XurBvZHj09AAc3QpdOg0ZNXFRgDNo+WEXhm7U26gYnqdR8F0PPkZN1v7p5/DnYQD3fYVa9Nu8vVw==; bm_sv=E9CC4175A998BE646991AD33CB3A6E5B~YAAQxCkhF2o8luGLAQAAFyi28BXjwdLdaGRAjbVYE3T4xl9i9pm1kgYbuA/Y1O3+Ct0btElOAe7JgVpPFlKODYGjuPbfx8/bJne6eNFxa2v1yd5YP/0YOj8AZSqlP+hR2JNLSd5eb4a+5B981o1JQVoWMjR9sEHWbnpPLCvWeLusqWwW0O/94uBlXxJa+/Sc5IbrsDcY5uKYxJ36upQ0hhih5eU79SCFFAqjhhw6GBIBZv4FH33H4Op+wTvA+Gk=~1; bm_sz=EDE788231412FB1669642DC066D678F4~YAAQxCkhF2s8luGLAQAAFyi28BUsbcQWaMky0JbdYwZ+kK223YeB8J0bLDkW5XkbGnnNQnHLi4RqPStZZcjBZaAf1F3DsboI2vgD1Xkjvf5U1PsqNLk6xZKpL57gc8ktZA4N8WFri6SyLbig52vOn0ZJhcypbT8ec17lSly5t3/XwVYBEhp9y/rLzjoGpO3CxYPpF57aS471C8vJ2XFeCj2h9M4gAhZLYVOAHwjhimFInBDAVeKVqmZRebLVCZ0oKoNoc+lkYjyCfklfYVurasH54Hf2nPN6AjwHd91R9lKc4tUAKy1AvEIlYQq4fYkjTM1i3jZQQI7liqNPwOWZJ15Pd5VqcFlTWElzBTHu4XaFRmOy0Q2eYMBUB4jdSiCBjE3Ls6BmKFN/RFtKyfDn4OLyH4QHnw006zXeDA==~3683376~3617080; PIM-SESSION-ID=KODLNerk0tWEePaQ; mbox=session#cabcdd4927cd4756a91cdbcb38abdfc6#1700552413|PC#cabcdd4927cd4756a91cdbcb38abdfc6.35_0#1763795353; RT=\"z=1&dm=kohls.com&si=ad04a02c-44c5-432e-9df4-90032e6d44c5&ss=lp7zve95&sl=1&tt=9i8&bcn=%2F%2F17de4c12.akstat.io%2F\"; _abck=CC169C04AF00814B225B42A002C6AB5F~-1~YAAQxCkhFy49luGLAQAA6C628ArM8xQZxX3USA8ota5Rk1n86bWgE6wIdYwx2ylwpMeiujAJX+OpXPZVVbmDxLlxeKKUEcxs8h5H2vDt/5dzaTs5I882EXxBoWersD4dyc/k6EbhQ0aj8PkUFbTgyDmU3wNZPb6d5vcLuZfO3stOzgNAy40oZSa3CapdTQFZFMzexjkfgGb7nTH6Q0b3AbCIaKE3wBL9WRDRO9tvnTigKKFBB4J68p/f3vCbxFIxNLUcLXOYF6Hy2gdo7/Z97+5m/j2T+Bv9VF+JTf3EzZQ/CErtt7pGkbYHerzgz+Pl8ARYKPJE5PTunJa/Yhn25h5CFEMEsKs3BujSLhDiRzQnGCFT+1w2evy+mudLeAprTExuf6mFFy7t5YoE8fq5HfGwUqHaGxd8WZ0Gf42kLP6WXQZ0J4fZ1gaC99w4pZg77dwgtH7sMV0U18/pKTuq9nj3yRsY9QLgDMCWznSbWuEBtf0C/iarpjeb6MOKGrlz4/3zmUW+ytVp2u4+SKJRnw5w~-1~-1~1700554050; dtSa=-; rxvt=1700552353388|1700550521978; dtPC=14$150553347_964h-vHKACFJCCPMSVWCKACRIACGLNTUQCKJQH-0e0
----
--Response 
HTTP/1.1 200
correlation-id: webstore::69b74442-df0c-4508-bb26-13f65646ae07::1698786428::SNB::snb-ui-7fb5567bb5-7wpf6::96.71.170.185
accept-ranges: bytes
last-modified: Tue, 31 Oct 2023 18:22:02 GMT
etag: W/\"3bb7-18b86f89d10\"
content-type: image/png
content-length: 15287
x-origin-cc: public, max-age=0
x-origin-cc: public, max-age=0
x-origin-cc: public, max-age=0
cache-control: public, max-age=86400
expires: Wed, 22 Nov 2023 07:08:42 GMT
date: Tue, 21 Nov 2023 07:08:42 GMT
server-timing: cdn-cache; desc=HIT
server-timing: edge; dur=1
server-timing: ak_p; desc=\"1700550522336_388049348_666687248_34_12475_11_0_146\";dur=1
----
--Request 
GET https://www.kohls.com/snb/media/fancybox/blank.gif
Host: www.kohls.com
sec-ch-ua: \"Not.A/Brand\";v=\"8\", \"Chromium\";v=\"114\"
sec-ch-ua-mobile: ?0
User-Agent: Mozilla/5.0 (X11; Linux x86_64) AppleWebKit/537.36 (KHTML, like Gecko) Chrome/114.0.0.0 Safari/537.36
sec-ch-ua-platform: \"Linux\"
Accept: image/avif,image/webp,image/apng,image/svg+xml,image/*,*/*;q=0.8
Sec-Fetch-Site: same-origin
Sec-Fetch-Mode: no-cors
Sec-Fetch-Dest: image
Referer: https://www.kohls.com/catalog/womens-sweaters-tops-clothing.jsp?CN=Gender:Womens+Product:Sweaters+Category:Tops+Department:Clothing+Assortment:Kohls%20Black%20Friday&BST=6262123:6237310:6149518:6125449:6149518:6176056:6119381:6438581:6143395:6125326:4922640:6169493&icid=hpmf-BF-offer-womenssweaters-vlhd26&kls_sbp=79613869088917606480426504271561296302
Accept-Encoding: gzip, deflate, br
Accept-Language: en-US,en;q=0.9
Cookie: store_location=14201; akaalb_aem_homepage=~op=aem_production:aem_production|~rv=79~m=aem_production:0|~os=554fb49c1bda6073578f281b62264a0e~id=e5d8d097120eff09512a425189fcc66f; AKA_HP2Redesign=True; AKA_PIQ=True; AKA_ACM=True; AKA_CDP2=True; AKA_STP=false; AKA_PDP2=True; AKA_HP2=True; AKA_CNC2=True; AKA_RV6=12; AKA_RV8=72; AKA_RV4=57; AKA_RV5=23; AKA_RV3=95; AKA_RV=96; AKA_RV2=35; akacd_www-kohls-com-mosaic-p2=2177452799~rv=61~id=f2bfd608ff6bd75e278febb90f5bdcd7; at_check=true; s_ecid=MCMID%7C79613869088917606480426504271561296302; AMCVS_F0EF5E09512D2CD20A490D4D%40AdobeOrg=1; mboxEdgeCluster=35; AMCV_F0EF5E09512D2CD20A490D4D%40AdobeOrg=1585540135%7CMCIDTS%7C19683%7CMCMID%7C79613869088917606480426504271561296302%7CMCAID%7CNONE%7CMCOPTOUT-1700557721s%7CNONE%7CMCAAMLH-1701155321%7C7%7CMCAAMB-1701155321%7Cj8Odv6LonN4r3an7LhD3WZrU1bUpAkFkkiY1ncBR96t2PTI%7CMCSYNCS%7C1083-19690*1085-19690*1086-19690*1087-19690*1088-19690%7CMCSYNCSOP%7C411-19690%7CvVersion%7C4.4.0; rxVisitor=170055052197696JCFOBUP2E8LGBETNI04FF2IPU7PHBL; X-SESSIONID=d38e961d-eee7-4879-8340-ea94827e289a; VisitorId=d38e961d-eee7-4879-8340-ea94827e289a; K_favstore=14216|1306|BUFFALO|geo|sephora; spa=4; _dy_ses_load_seq=84609%3A1700550523022; _dy_csc_ses=t; _dy_c_exps=; gpv_v9=Homepage; s_cc=true; _dycnst=dg; _uetsid=ce3c5ea0883c11ee858a29be7baeeb0f; _uetvid=ce3cb6c0883c11ee9c5d21bc71586f02; fp_client={%22id%22:%2229475071191700550523%22}; fp_session={%22i%22:%2288215330731700550523%22%2C%22d%22:1}; _dyid=-2796735126378358917; _dyfs=1700550523505; _dyjsession=cdc731762c4fbfb825c00a0125c71e79; dy_fs_page=www.kohls.com; _dy_lu_ses=cdc731762c4fbfb825c00a0125c71e79%3A1700550523506; _dycst=dk.l.c.ms.; _dy_geo=US.NA.US_MI.US_MI_Detroit; _dy_df_geo=United%20States.Michigan.Detroit; _dy_toffset=0; _rmt_an_idt=0; _mibhv=anon-1700550524031-5332320748_8212; _cs_c=0; IR_gbd=kohls.com; IR_5349=1700550524310%7C385561%7C1700550524310%7C%7C; _cs_cvars=%7B%221%22%3A%5B%22Page%20Name%22%2C%22Homepage%22%5D%2C%227%22%3A%5B%22Page%20Type%22%2C%22Homepage%22%5D%7D; _cs_id=adc880fd-d93e-ac59-cc5b-3c04e82d2b4b.1700550524.1.1700550524.1700550524.1588866862.1734714524445; IR_PI=cece5d75-883c-11ee-b347-d5b679c63de5%7C1700636924310; _cs_s=1.5.1.1700552324776; _pin_unauth=dWlkPVpEUXlNbU5sWm1JdE1XWmlZaTAwT1RjekxXSTVaakl0TURFNFpEQTJNalJqT0dJNQ; _fbp=fb.1.1700550525180.1119580522; _tt_enable_cookie=1; _ttp=aSHtu_gIQ09zwUi9iOI7iCWyAR-; _scid=1f04d67b-8a21-463f-ac1c-fe88de60033f; _scid_r=1f04d67b-8a21-463f-ac1c-fe88de60033f; _gcl_au=1.1.1181256846.1700550526; _evga_ce07={%22uuid%22:%220e4971bddb246461%22}; _sfid_6ab3={%22anonymousId%22:%220e4971bddb246461%22%2C%22consents%22:[]}; _ga_ZLYRBY87M8=GS1.1.1700550526.1.0.1700550526.60.0.0; __gads=ID=3c394970cb55450f:T=1700550526:RT=1700550526:S=ALNI_MbrJ3X_hGpSImvZMLI5SV9-34drNA; __gpi=UID=00000a00a9f90471:T=1700550526:RT=1700550526:S=ALNI_Ma8ugF9cZmpsonvpd3LpCjHvE5AkQ; _ga=GA1.2.1527107996.1700550526; _gid=GA1.2.1528984642.1700550527; _gat=1; dtCookie=v_4_srv_14_sn_7AE743F52EB51B2E022B722A8C61E6D6_app-3Acf6a6b14e494e621_1_ol_0_perc_100000_mul_1_rcs-3Acss_0; _sctr=1%7C1700546400000; _dpm_ses.f2d1=*; _dpm_id.f2d1=0ef65a2f-e6a7-43f4-a1c7-c0d82ed29395.1700550532.1.1700550532.1700550532.a24e90a1-e57d-4467-afd8-a703310265c8; _li_dcdm_c=.kohls.com; _lc2_fpi=0b10d8358f40--01hfrbbpry1av2w5z5mhth4cen; _lc2_fpi_meta={%22w%22:1700550531870}; _dyid_server=-2796735126378358917; _li_ss=CjYKBQgKEMYWCgYI3QEQxhYKBgiBARDGFgoGCKIBEMYWCgYIiwEQxhYKBgjSARDGFgoFCH4QxhY; _li_ss_meta={%22w%22:1700550532279%2C%22e%22:1703142532279}; _dy_soct=561158.1083346.1700550523*577704.1114257.1700550523*604242.1165732.1700550523*664718.1276830.1700550523*675999.1296928.1700550523*695696.1330231.1700550523*707338.1351316.1700550523*782209.1482111.1700550523*785673.1487461.1700550523*546795.1053981.1700550523*577478.1113986.1700550523*606987.1171916.1700550523*809094.1741367.1700550523*839301.1661807.1700550523*834183.1644438.1700550524*758401.1444085.1700550532; s_sq=kohlscomprod%3D%2526c.%2526a.%2526activitymap.%2526page%253Dhomepage%2526link%253D12%25252074%252520with%25252015%252525%252520off%252520coupon%25252A%252520Sweaters%252520for%252520women%252520and%252520juniors.%252520Select%252520styles.%252520Sale%252520%25252414.99%25252C%252520Reg.%252520%25252430-%25252440.%252520Shop%252520Women%2525E2%252580%252599s%252520%252526%252520Juniors%2525E2%252580%252599%252520Swe%2526region%253Dhp-equity01%2526pageIDType%253D1%2526.activitymap%2526.a%2526.c%2526pid%253DHomepage%2526pidt%253D1%2526oid%253Dhttps%25253A%25252F%25252Fwww.kohls.com%25252Fcatalog%25252Fwomens-sweaters-tops-clothing.jsp%25253FCN%25253DGender%25253AWomens%25252BProduct%25253ASweaters%25252BCa%2526ot%253DA; kls_p=true; 362fd180cb7a77f64919ee892a4d9d35=7191fc42ec960804587d38331d7dd83d; akavpau_www=1700550851~id=019fb5d0fa53935dd3796786ff98ae28; ak_bmsc=721A085A5E4C790A5F04ACCC015E956A~000000000000000000000000000000~YAAQxCkhF2k8luGLAQAAFyi28BU/65NCRHo8nighFmB8o9sHpbd/Hybfl4QCVNDQvTheKAvvXZGBqzia6xAh1uNwWR82Egg4OvsVRPzr2JB4r65yW6aK82WUxfwiZmuw5tjr0H5FdonnqI7pOAGf31XVNXO1yKOyK53QfIznOdRkaOl405VU0ZHbpNOJDjfqCZnqx1xvEJ8JToSqRH3o2qPo8TtS95WGHphlxJ1dJEZM8G1pwhewcyPxYM3X0gj7gRHlRYAbQ3vcsWf2p+Zf0xNLiGrJSbSEPn5vbMADAFjbHXi68G+vifBv9ysaxwBC6xRhcKtb2NMnjBdjRhD5qu3Sa1ld/NxBzWSzGNKcQorTStLLtZIkCAGv+C2dBy/1eAQ38N7m7OBWrRJfUA2cHzdkwMymQwYLGzNHWfLLEXfjv3GVadBZr1QxJXGoXPZmB3poUdBdtsMpoU8n7k2L9vmuBJf7wlo/SOSK/8TeI3yr9ycOHQXppVekIlEXhV4sep01mhWEq7EN8eVMpMqZhw0t8nPrXCWc3304XWeDReEXM0XurBvZHj09AAc3QpdOg0ZNXFRgDNo+WEXhm7U26gYnqdR8F0PPkZN1v7p5/DnYQD3fYVa9Nu8vVw==; bm_sv=E9CC4175A998BE646991AD33CB3A6E5B~YAAQxCkhF2o8luGLAQAAFyi28BXjwdLdaGRAjbVYE3T4xl9i9pm1kgYbuA/Y1O3+Ct0btElOAe7JgVpPFlKODYGjuPbfx8/bJne6eNFxa2v1yd5YP/0YOj8AZSqlP+hR2JNLSd5eb4a+5B981o1JQVoWMjR9sEHWbnpPLCvWeLusqWwW0O/94uBlXxJa+/Sc5IbrsDcY5uKYxJ36upQ0hhih5eU79SCFFAqjhhw6GBIBZv4FH33H4Op+wTvA+Gk=~1; bm_sz=EDE788231412FB1669642DC066D678F4~YAAQxCkhF2s8luGLAQAAFyi28BUsbcQWaMky0JbdYwZ+kK223YeB8J0bLDkW5XkbGnnNQnHLi4RqPStZZcjBZaAf1F3DsboI2vgD1Xkjvf5U1PsqNLk6xZKpL57gc8ktZA4N8WFri6SyLbig52vOn0ZJhcypbT8ec17lSly5t3/XwVYBEhp9y/rLzjoGpO3CxYPpF57aS471C8vJ2XFeCj2h9M4gAhZLYVOAHwjhimFInBDAVeKVqmZRebLVCZ0oKoNoc+lkYjyCfklfYVurasH54Hf2nPN6AjwHd91R9lKc4tUAKy1AvEIlYQq4fYkjTM1i3jZQQI7liqNPwOWZJ15Pd5VqcFlTWElzBTHu4XaFRmOy0Q2eYMBUB4jdSiCBjE3Ls6BmKFN/RFtKyfDn4OLyH4QHnw006zXeDA==~3683376~3617080; PIM-SESSION-ID=KODLNerk0tWEePaQ; mbox=session#cabcdd4927cd4756a91cdbcb38abdfc6#1700552413|PC#cabcdd4927cd4756a91cdbcb38abdfc6.35_0#1763795353; RT=\"z=1&dm=kohls.com&si=ad04a02c-44c5-432e-9df4-90032e6d44c5&ss=lp7zve95&sl=1&tt=9i8&bcn=%2F%2F17de4c12.akstat.io%2F\"; _abck=CC169C04AF00814B225B42A002C6AB5F~-1~YAAQxCkhFy49luGLAQAA6C628ArM8xQZxX3USA8ota5Rk1n86bWgE6wIdYwx2ylwpMeiujAJX+OpXPZVVbmDxLlxeKKUEcxs8h5H2vDt/5dzaTs5I882EXxBoWersD4dyc/k6EbhQ0aj8PkUFbTgyDmU3wNZPb6d5vcLuZfO3stOzgNAy40oZSa3CapdTQFZFMzexjkfgGb7nTH6Q0b3AbCIaKE3wBL9WRDRO9tvnTigKKFBB4J68p/f3vCbxFIxNLUcLXOYF6Hy2gdo7/Z97+5m/j2T+Bv9VF+JTf3EzZQ/CErtt7pGkbYHerzgz+Pl8ARYKPJE5PTunJa/Yhn25h5CFEMEsKs3BujSLhDiRzQnGCFT+1w2evy+mudLeAprTExuf6mFFy7t5YoE8fq5HfGwUqHaGxd8WZ0Gf42kLP6WXQZ0J4fZ1gaC99w4pZg77dwgtH7sMV0U18/pKTuq9nj3yRsY9QLgDMCWznSbWuEBtf0C/iarpjeb6MOKGrlz4/3zmUW+ytVp2u4+SKJRnw5w~-1~-1~1700554050; dtSa=-; rxvt=1700552353388|1700550521978; dtPC=14$150553347_964h-vHKACFJCCPMSVWCKACRIACGLNTUQCKJQH-0e0
----
--Response 
HTTP/1.1 200
correlation-id: webstore::a9b4893f-8744-4e36-bf49-d7fecf0a4002::1698786428::SNB::snb-ui-7fb5567bb5-8khgx::96.71.170.185
accept-ranges: bytes
last-modified: Tue, 31 Oct 2023 18:22:02 GMT
etag: W/\"2b-18b86f89d10\"
content-type: image/gif
content-length: 43
x-origin-cc: public, max-age=0
x-origin-cc: public, max-age=0
x-origin-cc: public, max-age=0
x-origin-cc: public, max-age=0
x-origin-cc: public, max-age=0
x-origin-cc: public, max-age=0
cache-control: public, max-age=86400
expires: Wed, 22 Nov 2023 07:08:42 GMT
date: Tue, 21 Nov 2023 07:08:42 GMT
server-timing: cdn-cache; desc=HIT
server-timing: edge; dur=1
server-timing: ak_p; desc=\"1700550522350_388049348_666687254_120_12474_11_0_146\";dur=1
----

