--Request 
POST https://tr.snapchat.com/p
Host: tr.snapchat.com
sec-ch-ua: \"Not.A/Brand\";v=\"8\", \"Chromium\";v=\"114\"
sec-ch-ua-platform: \"Linux\"
sec-ch-ua-mobile: ?0
User-Agent: Mozilla/5.0 (X11; Linux x86_64) AppleWebKit/537.36 (KHTML, like Gecko) Chrome/114.0.0.0 Safari/537.36
Content-Type: text/plain;charset=UTF-8
Accept: */*
Origin: https://www.kohls.com
Sec-Fetch-Site: cross-site
Sec-Fetch-Mode: no-cors
Sec-Fetch-Dest: empty
Referer: https://www.kohls.com/
Accept-Encoding: gzip, deflate, br
Accept-Language: en-US,en;q=0.9
----
--Response 
HTTP/1.1 200
date: Tue, 21 Nov 2023 07:10:05 GMT
strict-transport-security: max-age=31536000; includeSubDomains; preload
strict-transport-security: max-age=31536000; includeSubDomains
content-length: 0
x-envoy-upstream-service-time: 0
server: API Gateway
alt-svc: h3=\":443\"; ma=2592000,h3-29=\":443\"; ma=2592000
alt-svc: h3=\":443\"; ma=2592000,h3-29=\":443\"; ma=2592000
access-control-allow-origin: https://www.kohls.com
access-control-allow-credentials: true
via: 1.1 google, 1.1 google
----
--Request 
GET https://8632166.fls.doubleclick.net/activityi;src=8632166;type=landi0;cat=unive0;ord=4995151454488;auiddc=1181256846.1700550526;u1=AdOps_Cart_All_Product%20IDs;u2=%25AdOps_Cart_All_ProductName%25;u5=%25AdOps_Cart_All_NumberOfItems%25;u10=https%3A%2F%2Fwww.kohls.com%2Fcheckout%2Fshopping_cart.jsp;u11=shopping_cart;u13=Value;u23=New%20Customer;u24=79613869088917606480426504271561296302;u25=d38e961d-eee7-4879-8340-ea94827e289a;gtm=45fe3b81v9135074177;gcd=11l1l1l1l1;dma=0;uaa=x86;uab=64;uafvl=Not.A%252FBrand%3B8.0.0.0%7CChromium%3B114.0.5735.199;uamb=0;uam=;uap=Linux;uapv=5.15.0;uaw=0;epver=2;~oref=https%3A%2F%2Fwww.kohls.com%2Fcheckout%2Fshopping_cart.jsp?
Host: 8632166.fls.doubleclick.net
sec-ch-ua: \"Not.A/Brand\";v=\"8\", \"Chromium\";v=\"114\"
sec-ch-ua-mobile: ?0
sec-ch-ua-platform: \"Linux\"
Upgrade-Insecure-Requests: 1
User-Agent: Mozilla/5.0 (X11; Linux x86_64) AppleWebKit/537.36 (KHTML, like Gecko) Chrome/114.0.0.0 Safari/537.36
Accept: text/html,application/xhtml+xml,application/xml;q=0.9,image/avif,image/webp,image/apng,*/*;q=0.8,application/signed-exchange;v=b3;q=0.7
Sec-Fetch-Site: cross-site
Sec-Fetch-Mode: navigate
Sec-Fetch-Dest: iframe
Referer: https://www.kohls.com/
Accept-Encoding: gzip, deflate, br
Accept-Language: en-US,en;q=0.9
----
--Response 
HTTP/1.1 302
p3p: policyref=\"https://googleads.g.doubleclick.net/pagead/gcn_p3p_.xml\", CP=\"CURa ADMa DEVa TAIo PSAo PSDo OUR IND UNI PUR INT DEM STA PRE COM NAV OTC NOI DSP COR\"
timing-allow-origin: *
cross-origin-resource-policy: cross-origin
date: Tue, 21 Nov 2023 07:10:05 GMT
pragma: no-cache
expires: Fri, 01 Jan 1990 00:00:00 GMT
cache-control: no-cache, must-revalidate
follow-only-when-prerender-shown: 1
strict-transport-security: max-age=21600
location: https://8632166.fls.doubleclick.net/activityi;dc_pre=CPTp_NXE1IIDFRPyKAUdKGYAUw;src=8632166;type=landi0;cat=unive0;ord=4995151454488;auiddc=1181256846.1700550526;u1=AdOps_Cart_All_Product%20IDs;u2=%25AdOps_Cart_All_ProductName%25;u5=%25AdOps_Cart_All_NumberOfItems%25;u10=https%3A%2F%2Fwww.kohls.com%2Fcheckout%2Fshopping_cart.jsp;u11=shopping_cart;u13=Value;u23=New%20Customer;u24=79613869088917606480426504271561296302;u25=d38e961d-eee7-4879-8340-ea94827e289a;gtm=45fe3b81v9135074177;gcd=11l1l1l1l1;dma=0;uaa=x86;uab=64;uafvl=Not.A%252FBrand%3B8.0.0.0%7CChromium%3B114.0.5735.199;uamb=0;uam=;uap=Linux;uapv=5.15.0;uaw=0;epver=2;~oref=https%3A%2F%2Fwww.kohls.com%2Fcheckout%2Fshopping_cart.jsp?
content-type: text/html; charset=UTF-8
x-content-type-options: nosniff
server: cafe
content-length: 0
x-xss-protection: 0
alt-svc: h3=\":443\"; ma=2592000,h3-29=\":443\"; ma=2592000
----
--Request 
GET https://assets.adobedtm.com/6d2e783bbfe3/c0c47c5c96c6/7a8648cd60a8/RC35b5823f644e4f6caea6de9fb6e9e198-source.min.js
Host: assets.adobedtm.com
sec-ch-ua: \"Not.A/Brand\";v=\"8\", \"Chromium\";v=\"114\"
sec-ch-ua-mobile: ?0
User-Agent: Mozilla/5.0 (X11; Linux x86_64) AppleWebKit/537.36 (KHTML, like Gecko) Chrome/114.0.0.0 Safari/537.36
sec-ch-ua-platform: \"Linux\"
Accept: */*
Sec-Fetch-Site: cross-site
Sec-Fetch-Mode: no-cors
Sec-Fetch-Dest: script
Referer: https://www.kohls.com/
Accept-Encoding: gzip, deflate, br
Accept-Language: en-US,en;q=0.9
----
--Response 
HTTP/1.1 200
accept-ranges: bytes
content-type: application/x-javascript
etag: \"c3f8eea087eda271fe3a803f1d4cfa06:1700078393.11621\"
last-modified: Wed, 15 Nov 2023 19:59:53 GMT
server: AkamaiNetStorage
vary: Accept-Encoding
content-encoding: gzip
cache-control: max-age=3600
expires: Tue, 21 Nov 2023 08:08:46 GMT
date: Tue, 21 Nov 2023 07:08:46 GMT
content-length: 607
access-control-allow-origin: https://www.kohls.com
timing-allow-origin: *
----
--Request 
GET https://www.google.com/pagead/1p-user-list/1071871169/?random=1700550604625&cv=11&fst=1700550000000&bg=ffffff&guid=ON&async=1&gtm=45be3b81&u_w=1313&u_h=575&url=https%3A%2F%2Fwww.kohls.com%2Fcheckout%2Fshopping_cart.jsp&ref=https%3A%2F%2Fwww.kohls.com%2Fproduct%2Fprd-6262123%2Fjuniors-so-crewneck-sweater.jsp%3Fcolor%3DBlack%26prdPV%3D1%26isClearance%3Dfalse&frm=0&tiba=Shopping%20Bag%20-%20Kohls.com&data=event%3Dgtag.config&fmt=3&is_vtc=1&cid=CAQSGwDICaaNRCvhtvWPb0qvswwijxTbot0aI4cGow&random=3321286248&rmt_tld=0&ipr=y
Host: www.google.com
sec-ch-ua: \"Not.A/Brand\";v=\"8\", \"Chromium\";v=\"114\"
sec-ch-ua-mobile: ?0
User-Agent: Mozilla/5.0 (X11; Linux x86_64) AppleWebKit/537.36 (KHTML, like Gecko) Chrome/114.0.0.0 Safari/537.36
sec-ch-ua-platform: \"Linux\"
Accept: image/avif,image/webp,image/apng,image/svg+xml,image/*,*/*;q=0.8
Sec-Fetch-Site: cross-site
Sec-Fetch-Mode: no-cors
Sec-Fetch-Dest: image
Referer: https://www.kohls.com/
Accept-Encoding: gzip, deflate, br
Accept-Language: en-US,en;q=0.9
----
--Response 
HTTP/1.1 200
p3p: policyref=\"https://www.googleadservices.com/pagead/p3p.xml\", CP=\"NOI DEV PSA PSD IVA IVD OTP OUR OTR IND OTC\"
timing-allow-origin: *
cross-origin-resource-policy: cross-origin
date: Tue, 21 Nov 2023 07:10:05 GMT
pragma: no-cache
expires: Fri, 01 Jan 1990 00:00:00 GMT
cache-control: no-cache, no-store, must-revalidate
content-type: image/gif
content-security-policy: script-src 'none'; object-src 'none'
x-content-type-options: nosniff
server: cafe
content-length: 42
x-xss-protection: 0
alt-svc: h3=\":443\"; ma=2592000,h3-29=\":443\"; ma=2592000
----
--Request 
GET https://8632166.fls.doubleclick.net/activityi;dc_pre=CPTp_NXE1IIDFRPyKAUdKGYAUw;src=8632166;type=landi0;cat=unive0;ord=4995151454488;auiddc=1181256846.1700550526;u1=AdOps_Cart_All_Product%20IDs;u2=%25AdOps_Cart_All_ProductName%25;u5=%25AdOps_Cart_All_NumberOfItems%25;u10=https%3A%2F%2Fwww.kohls.com%2Fcheckout%2Fshopping_cart.jsp;u11=shopping_cart;u13=Value;u23=New%20Customer;u24=79613869088917606480426504271561296302;u25=d38e961d-eee7-4879-8340-ea94827e289a;gtm=45fe3b81v9135074177;gcd=11l1l1l1l1;dma=0;uaa=x86;uab=64;uafvl=Not.A%252FBrand%3B8.0.0.0%7CChromium%3B114.0.5735.199;uamb=0;uam=;uap=Linux;uapv=5.15.0;uaw=0;epver=2;~oref=https%3A%2F%2Fwww.kohls.com%2Fcheckout%2Fshopping_cart.jsp?
Host: 8632166.fls.doubleclick.net
Upgrade-Insecure-Requests: 1
User-Agent: Mozilla/5.0 (X11; Linux x86_64) AppleWebKit/537.36 (KHTML, like Gecko) Chrome/114.0.0.0 Safari/537.36
Accept: text/html,application/xhtml+xml,application/xml;q=0.9,image/avif,image/webp,image/apng,*/*;q=0.8,application/signed-exchange;v=b3;q=0.7
Sec-Fetch-Site: cross-site
Sec-Fetch-Mode: navigate
Sec-Fetch-Dest: iframe
sec-ch-ua: \"Not.A/Brand\";v=\"8\", \"Chromium\";v=\"114\"
sec-ch-ua-mobile: ?0
sec-ch-ua-platform: \"Linux\"
Referer: https://www.kohls.com/
Accept-Encoding: gzip, deflate, br
Accept-Language: en-US,en;q=0.9
----
--Response 
HTTP/1.1 200
p3p: policyref=\"https://googleads.g.doubleclick.net/pagead/gcn_p3p_.xml\", CP=\"CURa ADMa DEVa TAIo PSAo PSDo OUR IND UNI PUR INT DEM STA PRE COM NAV OTC NOI DSP COR\"
timing-allow-origin: *
cross-origin-resource-policy: cross-origin
date: Tue, 21 Nov 2023 07:10:05 GMT
expires: Fri, 01 Jan 1990 00:00:00 GMT
cache-control: no-cache, must-revalidate
strict-transport-security: max-age=21600
content-type: text/html; charset=UTF-8
pragma: no-cache
x-content-type-options: nosniff
content-encoding: br
server: cafe
content-length: 526
x-xss-protection: 0
set-cookie: test_cookie=CheckForPermission; expires=Tue, 21-Nov-2023 07:25:05 GMT; path=/; domain=.doubleclick.net; Secure; HttpOnly; SameSite=none
alt-svc: h3=\":443\"; ma=2592000,h3-29=\":443\"; ma=2592000
----
--Request 
GET https://www.google.com/pagead/1p-user-list/1018012790/?random=1700550604780&cv=11&fst=1700550000000&bg=ffffff&guid=ON&async=1&gtm=45be3b81v883114827&u_w=1313&u_h=575&url=https%3A%2F%2Fwww.kohls.com%2Fcheckout%2Fshopping_cart.jsp&ref=https%3A%2F%2Fwww.kohls.com%2Fproduct%2Fprd-6262123%2Fjuniors-so-crewneck-sweater.jsp%3Fcolor%3DBlack%26prdPV%3D1%26isClearance%3Dfalse&frm=0&tiba=Shopping%20Bag%20-%20Kohls.com&data=event%3Dgtag.config&fmt=3&is_vtc=1&cid=CAQSGwDICaaNrS5nx4mll9HnCrgryxxUvgmvv9puow&random=2240606664&rmt_tld=0&ipr=y
Host: www.google.com
sec-ch-ua: \"Not.A/Brand\";v=\"8\", \"Chromium\";v=\"114\"
sec-ch-ua-mobile: ?0
User-Agent: Mozilla/5.0 (X11; Linux x86_64) AppleWebKit/537.36 (KHTML, like Gecko) Chrome/114.0.0.0 Safari/537.36
sec-ch-ua-platform: \"Linux\"
Accept: image/avif,image/webp,image/apng,image/svg+xml,image/*,*/*;q=0.8
Sec-Fetch-Site: cross-site
Sec-Fetch-Mode: no-cors
Sec-Fetch-Dest: image
Referer: https://www.kohls.com/
Accept-Encoding: gzip, deflate, br
Accept-Language: en-US,en;q=0.9
----
--Response 
HTTP/1.1 200
p3p: policyref=\"https://www.googleadservices.com/pagead/p3p.xml\", CP=\"NOI DEV PSA PSD IVA IVD OTP OUR OTR IND OTC\"
timing-allow-origin: *
cross-origin-resource-policy: cross-origin
date: Tue, 21 Nov 2023 07:10:05 GMT
pragma: no-cache
expires: Fri, 01 Jan 1990 00:00:00 GMT
cache-control: no-cache, no-store, must-revalidate
content-type: image/gif
content-security-policy: script-src 'none'; object-src 'none'
x-content-type-options: nosniff
server: cafe
content-length: 42
x-xss-protection: 0
alt-svc: h3=\":443\"; ma=2592000,h3-29=\":443\"; ma=2592000
----
--Request 
GET https://adservice.google.com/ddm/fls/i/dc_pre=CPTp_NXE1IIDFRPyKAUdKGYAUw;src=8632166;type=landi0;cat=unive0;ord=4995151454488;auiddc=1181256846.1700550526;u1=AdOps_Cart_All_Product%20IDs;u2=%25AdOps_Cart_All_ProductName%25;u5=%25AdOps_Cart_All_NumberOfItems%25;u10=https%3A%2F%2Fwww.kohls.com%2Fcheckout%2Fshopping_cart.jsp;u11=shopping_cart;u13=Value;u23=New%20Customer;u24=79613869088917606480426504271561296302;u25=d38e961d-eee7-4879-8340-ea94827e289a;gtm=45fe3b81v9135074177;gcd=11l1l1l1l1;dma=0;uaa=x86;uab=64;uafvl=Not.A%252FBrand%3B8.0.0.0%7CChromium%3B114.0.5735.199;uamb=0;uam=;uap=Linux;uapv=5.15.0;uaw=0;epver=2;~oref=https%3A%2F%2Fwww.kohls.com%2Fcheckout%2Fshopping_cart.jsp
Host: adservice.google.com
sec-ch-ua: \"Not.A/Brand\";v=\"8\", \"Chromium\";v=\"114\"
sec-ch-ua-mobile: ?0
sec-ch-ua-platform: \"Linux\"
Upgrade-Insecure-Requests: 1
User-Agent: Mozilla/5.0 (X11; Linux x86_64) AppleWebKit/537.36 (KHTML, like Gecko) Chrome/114.0.0.0 Safari/537.36
Accept: text/html,application/xhtml+xml,application/xml;q=0.9,image/avif,image/webp,image/apng,*/*;q=0.8,application/signed-exchange;v=b3;q=0.7
Sec-Fetch-Site: cross-site
Sec-Fetch-Mode: navigate
Sec-Fetch-Dest: iframe
Referer: https://8632166.fls.doubleclick.net/
Accept-Encoding: gzip, deflate, br
Accept-Language: en-US,en;q=0.9
----
--Response 
HTTP/1.1 302
p3p: policyref=\"https://www.googleadservices.com/pagead/p3p.xml\", CP=\"NOI DEV PSA PSD IVA IVD OTP OUR OTR IND OTC\"
timing-allow-origin: *
cross-origin-resource-policy: cross-origin
date: Tue, 21 Nov 2023 07:10:05 GMT
pragma: no-cache
expires: Fri, 01 Jan 1990 00:00:00 GMT
cache-control: no-cache, must-revalidate
location: https://8632166.fls.doubleclick.net/ddm/fls/r/dc_pre=CPTp_NXE1IIDFRPyKAUdKGYAUw;src=8632166;type=landi0;cat=unive0;ord=4995151454488;auiddc=1181256846.1700550526;u1=AdOps_Cart_All_Product%20IDs;u2=%25AdOps_Cart_All_ProductName%25;u5=%25AdOps_Cart_All_NumberOfItems%25;u10=https%3A%2F%2Fwww.kohls.com%2Fcheckout%2Fshopping_cart.jsp;u11=shopping_cart;u13=Value;u23=New%20Customer;u24=79613869088917606480426504271561296302;u25=d38e961d-eee7-4879-8340-ea94827e289a;gtm=45fe3b81v9135074177;gcd=11l1l1l1l1;dma=0;uaa=x86;uab=64;uafvl=Not.A%252FBrand%3B8.0.0.0%7CChromium%3B114.0.5735.199;uamb=0;uam=;uap=Linux;uapv=5.15.0;uaw=0;epver=2;~oref=https%3A%2F%2Fwww.kohls.com%2Fcheckout%2Fshopping_cart.jsp
content-type: text/html; charset=UTF-8
x-content-type-options: nosniff
server: cafe
content-length: 0
x-xss-protection: 0
alt-svc: h3=\":443\"; ma=2592000,h3-29=\":443\"; ma=2592000
----
--Request 
GET https://11577892.fls.doubleclick.net/activityi;src=11577892;type=pagev0;cat=kmnun0;ord=6162406568312;auiddc=1181256846.1700550526;u1=not%20set;u10=https%3A%2F%2Fwww.kohls.com%2Fcheckout%2Fshopping_cart.jsp;u11=shopping_cart;u13=not%20set;u2=not%20set;u23=New%20Customer;u24=79613869088917606480426504271561296302;u25=d38e961d-eee7-4879-8340-ea94827e289a;u5=%25AdOps_Cart_All_NumberOfItems%25;gtm=45fe3b81v9135077764;gcd=11l1l1l1l1;dma=0;uaa=x86;uab=64;uafvl=Not.A%252FBrand%3B8.0.0.0%7CChromium%3B114.0.5735.199;uamb=0;uam=;uap=Linux;uapv=5.15.0;uaw=0;epver=2;~oref=https%3A%2F%2Fwww.kohls.com%2Fcheckout%2Fshopping_cart.jsp?
Host: 11577892.fls.doubleclick.net
sec-ch-ua: \"Not.A/Brand\";v=\"8\", \"Chromium\";v=\"114\"
sec-ch-ua-mobile: ?0
sec-ch-ua-platform: \"Linux\"
Upgrade-Insecure-Requests: 1
User-Agent: Mozilla/5.0 (X11; Linux x86_64) AppleWebKit/537.36 (KHTML, like Gecko) Chrome/114.0.0.0 Safari/537.36
Accept: text/html,application/xhtml+xml,application/xml;q=0.9,image/avif,image/webp,image/apng,*/*;q=0.8,application/signed-exchange;v=b3;q=0.7
Sec-Fetch-Site: cross-site
Sec-Fetch-Mode: navigate
Sec-Fetch-Dest: iframe
Referer: https://www.kohls.com/
Accept-Encoding: gzip, deflate, br
Accept-Language: en-US,en;q=0.9
----
--Response 
HTTP/1.1 302
p3p: policyref=\"https://googleads.g.doubleclick.net/pagead/gcn_p3p_.xml\", CP=\"CURa ADMa DEVa TAIo PSAo PSDo OUR IND UNI PUR INT DEM STA PRE COM NAV OTC NOI DSP COR\"
timing-allow-origin: *
cross-origin-resource-policy: cross-origin
date: Tue, 21 Nov 2023 07:10:05 GMT
pragma: no-cache
expires: Fri, 01 Jan 1990 00:00:00 GMT
cache-control: no-cache, must-revalidate
follow-only-when-prerender-shown: 1
strict-transport-security: max-age=21600
location: https://11577892.fls.doubleclick.net/activityi;dc_pre=CMCIiNbE1IIDFUMSigMd7ecA-w;src=11577892;type=pagev0;cat=kmnun0;ord=6162406568312;auiddc=1181256846.1700550526;u1=not%20set;u10=https%3A%2F%2Fwww.kohls.com%2Fcheckout%2Fshopping_cart.jsp;u11=shopping_cart;u13=not%20set;u2=not%20set;u23=New%20Customer;u24=79613869088917606480426504271561296302;u25=d38e961d-eee7-4879-8340-ea94827e289a;u5=%25AdOps_Cart_All_NumberOfItems%25;gtm=45fe3b81v9135077764;gcd=11l1l1l1l1;dma=0;uaa=x86;uab=64;uafvl=Not.A%252FBrand%3B8.0.0.0%7CChromium%3B114.0.5735.199;uamb=0;uam=;uap=Linux;uapv=5.15.0;uaw=0;epver=2;~oref=https%3A%2F%2Fwww.kohls.com%2Fcheckout%2Fshopping_cart.jsp?
content-type: text/html; charset=UTF-8
x-content-type-options: nosniff
server: cafe
content-length: 0
x-xss-protection: 0
alt-svc: h3=\":443\"; ma=2592000,h3-29=\":443\"; ma=2592000
----
--Request 
GET https://8632166.fls.doubleclick.net/ddm/fls/r/dc_pre=CPTp_NXE1IIDFRPyKAUdKGYAUw;src=8632166;type=landi0;cat=unive0;ord=4995151454488;auiddc=1181256846.1700550526;u1=AdOps_Cart_All_Product%20IDs;u2=%25AdOps_Cart_All_ProductName%25;u5=%25AdOps_Cart_All_NumberOfItems%25;u10=https%3A%2F%2Fwww.kohls.com%2Fcheckout%2Fshopping_cart.jsp;u11=shopping_cart;u13=Value;u23=New%20Customer;u24=79613869088917606480426504271561296302;u25=d38e961d-eee7-4879-8340-ea94827e289a;gtm=45fe3b81v9135074177;gcd=11l1l1l1l1;dma=0;uaa=x86;uab=64;uafvl=Not.A%252FBrand%3B8.0.0.0%7CChromium%3B114.0.5735.199;uamb=0;uam=;uap=Linux;uapv=5.15.0;uaw=0;epver=2;~oref=https%3A%2F%2Fwww.kohls.com%2Fcheckout%2Fshopping_cart.jsp
Host: 8632166.fls.doubleclick.net
Upgrade-Insecure-Requests: 1
User-Agent: Mozilla/5.0 (X11; Linux x86_64) AppleWebKit/537.36 (KHTML, like Gecko) Chrome/114.0.0.0 Safari/537.36
Accept: text/html,application/xhtml+xml,application/xml;q=0.9,image/avif,image/webp,image/apng,*/*;q=0.8,application/signed-exchange;v=b3;q=0.7
Sec-Fetch-Site: cross-site
Sec-Fetch-Mode: navigate
Sec-Fetch-Dest: iframe
sec-ch-ua: \"Not.A/Brand\";v=\"8\", \"Chromium\";v=\"114\"
sec-ch-ua-mobile: ?0
sec-ch-ua-platform: \"Linux\"
Referer: https://8632166.fls.doubleclick.net/
Accept-Encoding: gzip, deflate, br
Accept-Language: en-US,en;q=0.9
----
--Response 
HTTP/1.1 200
p3p: policyref=\"https://googleads.g.doubleclick.net/pagead/gcn_p3p_.xml\", CP=\"CURa ADMa DEVa TAIo PSAo PSDo OUR IND UNI PUR INT DEM STA PRE COM NAV OTC NOI DSP COR\"
timing-allow-origin: *
cross-origin-resource-policy: cross-origin
date: Tue, 21 Nov 2023 07:10:05 GMT
expires: Tue, 21 Nov 2023 07:10:05 GMT
cache-control: private, max-age=0
strict-transport-security: max-age=21600
content-type: text/html; charset=UTF-8
x-content-type-options: nosniff
content-encoding: br
server: cafe
content-length: 359
x-xss-protection: 0
set-cookie: test_cookie=CheckForPermission; expires=Tue, 21-Nov-2023 07:25:05 GMT; path=/; domain=.doubleclick.net; Secure; HttpOnly; SameSite=none
alt-svc: h3=\":443\"; ma=2592000,h3-29=\":443\"; ma=2592000
----
--Request 
GET https://assets.adobedtm.com/6d2e783bbfe3/c0c47c5c96c6/7a8648cd60a8/RC62473d0686c34c1380c3d4b1a6606665-source.min.js
Host: assets.adobedtm.com
sec-ch-ua: \"Not.A/Brand\";v=\"8\", \"Chromium\";v=\"114\"
sec-ch-ua-mobile: ?0
User-Agent: Mozilla/5.0 (X11; Linux x86_64) AppleWebKit/537.36 (KHTML, like Gecko) Chrome/114.0.0.0 Safari/537.36
sec-ch-ua-platform: \"Linux\"
Accept: */*
Sec-Fetch-Site: cross-site
Sec-Fetch-Mode: no-cors
Sec-Fetch-Dest: script
Referer: https://www.kohls.com/
Accept-Encoding: gzip, deflate, br
Accept-Language: en-US,en;q=0.9
----
--Response 
HTTP/1.1 200
accept-ranges: bytes
content-type: application/x-javascript
etag: \"c3f8eea087eda271fe3a803f1d4cfa06:1700078393.11621\"
last-modified: Wed, 15 Nov 2023 19:59:53 GMT
server: AkamaiNetStorage
vary: Accept-Encoding
content-encoding: gzip
cache-control: max-age=3600
expires: Tue, 21 Nov 2023 08:08:47 GMT
date: Tue, 21 Nov 2023 07:08:47 GMT
content-length: 1074
access-control-allow-origin: https://www.kohls.com
timing-allow-origin: *
----
--Request 
GET https://11577892.fls.doubleclick.net/activityi;dc_pre=CMCIiNbE1IIDFUMSigMd7ecA-w;src=11577892;type=pagev0;cat=kmnun0;ord=6162406568312;auiddc=1181256846.1700550526;u1=not%20set;u10=https%3A%2F%2Fwww.kohls.com%2Fcheckout%2Fshopping_cart.jsp;u11=shopping_cart;u13=not%20set;u2=not%20set;u23=New%20Customer;u24=79613869088917606480426504271561296302;u25=d38e961d-eee7-4879-8340-ea94827e289a;u5=%25AdOps_Cart_All_NumberOfItems%25;gtm=45fe3b81v9135077764;gcd=11l1l1l1l1;dma=0;uaa=x86;uab=64;uafvl=Not.A%252FBrand%3B8.0.0.0%7CChromium%3B114.0.5735.199;uamb=0;uam=;uap=Linux;uapv=5.15.0;uaw=0;epver=2;~oref=https%3A%2F%2Fwww.kohls.com%2Fcheckout%2Fshopping_cart.jsp?
Host: 11577892.fls.doubleclick.net
Upgrade-Insecure-Requests: 1
User-Agent: Mozilla/5.0 (X11; Linux x86_64) AppleWebKit/537.36 (KHTML, like Gecko) Chrome/114.0.0.0 Safari/537.36
Accept: text/html,application/xhtml+xml,application/xml;q=0.9,image/avif,image/webp,image/apng,*/*;q=0.8,application/signed-exchange;v=b3;q=0.7
Sec-Fetch-Site: cross-site
Sec-Fetch-Mode: navigate
Sec-Fetch-Dest: iframe
sec-ch-ua: \"Not.A/Brand\";v=\"8\", \"Chromium\";v=\"114\"
sec-ch-ua-mobile: ?0
sec-ch-ua-platform: \"Linux\"
Referer: https://www.kohls.com/
Accept-Encoding: gzip, deflate, br
Accept-Language: en-US,en;q=0.9
----
--Response 
HTTP/1.1 200
p3p: policyref=\"https://googleads.g.doubleclick.net/pagead/gcn_p3p_.xml\", CP=\"CURa ADMa DEVa TAIo PSAo PSDo OUR IND UNI PUR INT DEM STA PRE COM NAV OTC NOI DSP COR\"
timing-allow-origin: *
cross-origin-resource-policy: cross-origin
date: Tue, 21 Nov 2023 07:10:05 GMT
expires: Fri, 01 Jan 1990 00:00:00 GMT
cache-control: no-cache, must-revalidate
strict-transport-security: max-age=21600
content-type: text/html; charset=UTF-8
pragma: no-cache
x-content-type-options: nosniff
content-encoding: br
server: cafe
content-length: 508
x-xss-protection: 0
set-cookie: test_cookie=CheckForPermission; expires=Tue, 21-Nov-2023 07:25:05 GMT; path=/; domain=.doubleclick.net; Secure; HttpOnly; SameSite=none
alt-svc: h3=\":443\"; ma=2592000,h3-29=\":443\"; ma=2592000
----

