--Request 
POST https://www.google-analytics.com/j/collect?v=1&_v=j101&a=677087612&t=pageview&_s=1&dl=https%3A%2F%2Fwww.kohls.com%2Fcatalog%2Fwomens-sweaters-tops-clothing.jsp%3FCN%3DGender%3AWomens%2BProduct%3ASweaters%2BCategory%3ATops%2BDepartment%3AClothing%2BAssortment%3AKohls%2520Black%2520Friday%26BST%3D6262123%3A6237310%3A6149518%3A6125449%3A6149518%3A6176056%3A6119381%3A6438581%3A6143395%3A6125326%3A4922640%3A6169493%26icid%3Dhpmf-BF-offer-womenssweaters-vlhd26%26kls_sbp%3D79613869088917606480426504271561296302&ul=en-us&de=UTF-8&dt=Womens%20Sweaters%20-%20Tops%2C%20Clothing%20%7C%20Kohl%27s&sd=24-bit&sr=1313x575&vp=1298x447&je=0&_u=QCCAgAABAAAAACAAI~&jid=&gjid=&cid=1527107996.1700550526&tid=UA-45121696-1&_gid=1528984642.1700550527&_slc=1&cd2=d38e961d-eee7-4879-8340-ea94827e289a&cd4=&z=811669951
Host: www.google-analytics.com
sec-ch-ua: \"Not.A/Brand\";v=\"8\", \"Chromium\";v=\"114\"
sec-ch-ua-platform: \"Linux\"
sec-ch-ua-mobile: ?0
User-Agent: Mozilla/5.0 (X11; Linux x86_64) AppleWebKit/537.36 (KHTML, like Gecko) Chrome/114.0.0.0 Safari/537.36
Content-Type: text/plain
Accept: */*
Origin: https://www.kohls.com
Sec-Fetch-Site: cross-site
Sec-Fetch-Mode: cors
Sec-Fetch-Dest: empty
Referer: https://www.kohls.com/
Accept-Encoding: gzip, deflate, br
Accept-Language: en-US,en;q=0.9
----
--Response 
HTTP/1.1 200
access-control-allow-origin: https://www.kohls.com
date: Tue, 21 Nov 2023 07:09:22 GMT
pragma: no-cache
expires: Fri, 01 Jan 1990 00:00:00 GMT
cache-control: no-cache, no-store, must-revalidate
last-modified: Sun, 17 May 1998 03:00:00 GMT
access-control-allow-credentials: true
x-content-type-options: nosniff
content-type: text/plain
cross-origin-resource-policy: cross-origin
server: Golfe2
content-length: 3
alt-svc: h3=\":443\"; ma=2592000,h3-29=\":443\"; ma=2592000
----
--Request 
GET https://js.cnnx.link/roi/cnxtag-min.js?id=31851
Host: js.cnnx.link
sec-ch-ua: \"Not.A/Brand\";v=\"8\", \"Chromium\";v=\"114\"
sec-ch-ua-mobile: ?0
User-Agent: Mozilla/5.0 (X11; Linux x86_64) AppleWebKit/537.36 (KHTML, like Gecko) Chrome/114.0.0.0 Safari/537.36
sec-ch-ua-platform: \"Linux\"
Accept: */*
Sec-Fetch-Site: cross-site
Sec-Fetch-Mode: no-cors
Sec-Fetch-Dest: script
Referer: https://www.kohls.com/
Accept-Encoding: gzip, deflate, br
Accept-Language: en-US,en;q=0.9
----
--Response 
HTTP/1.1 200
content-type: text/javascript;charset=UTF-8
cache-control: max-age=600
date: Tue, 21 Nov 2023 07:00:20 GMT
via: 1.1 google, 1.1 38ed7a81ebf68698e87cb5fd9ad4a3b2.cloudfront.net (CloudFront)
content-encoding: gzip
vary: Accept-Encoding
x-cache: Hit from cloudfront
x-amz-cf-pop: CMH68-P4
x-amz-cf-id: cNABBiAx8HGt93FPn2aj_o5Y8ihr7Ik1upeYxlF5NCA0kse3Ajho3g==
age: 507
----
--Request 
GET https://iponweb503341958152.s.moatpixel.com/pixel.gif?m=1&iv=0&tuv=-1&tet=0&fi=0&apd=1148&ui=0&uit=0&h=0&th=-1&s=-1&ts=-1&bfa=-1&d=kohls.com&L1id=fmx&L2id=fmx_301796&L3id=kohls.com&L4id=1&S1id=display&S2id=2&ord=1700550561629&r=329490998623&t=hdn&os=0&fi2=0&div1=0&ait=0&url=https%253A%252F%252Fwww.kohls.com%252F&mobile=0&click=0&initW=300&initH=156&initSRE=0.061988807576409816&zMoatImpID=9632fba6_63238b8c-74c8-4349-bd95-abf0f38f6263&bedc=1&q=3&nu=0&ib=0&dc=1&ob=1&oh=0&lt=0&ab=1&n=1&nm=1&sp=0&pt=0
Host: iponweb503341958152.s.moatpixel.com
sec-ch-ua: \"Not.A/Brand\";v=\"8\", \"Chromium\";v=\"114\"
sec-ch-ua-mobile: ?0
User-Agent: Mozilla/5.0 (X11; Linux x86_64) AppleWebKit/537.36 (KHTML, like Gecko) Chrome/114.0.0.0 Safari/537.36
sec-ch-ua-platform: \"Linux\"
Accept: image/avif,image/webp,image/apng,image/svg+xml,image/*,*/*;q=0.8
Sec-Fetch-Site: cross-site
Sec-Fetch-Mode: no-cors
Sec-Fetch-Dest: image
Referer: https://5e8b98c9055e7bfb82b7a7f9f595ce67.safeframe.googlesyndication.com/
Accept-Encoding: gzip, deflate, br
Accept-Language: en-US,en;q=0.9
----
--Response 
HTTP/1.1 200
accept-ranges: bytes
content-type: image/gif
etag: \"ad4b0f606e0f8465bc4c4c170b37e1a3:1463757360\"
last-modified: Fri, 20 May 2016 15:16:00 GMT
server: AkamaiNetStorage
content-length: 43
x-akamai-ew-subworker: 8096267
expires: Tue, 21 Nov 2023 07:09:22 GMT
cache-control: max-age=0, no-cache, no-store
pragma: no-cache
date: Tue, 21 Nov 2023 07:09:22 GMT
----
--Request 
GET https://iponweb503341958152.s.moatpixel.com/pixel.gif?m=1&iv=0&tuv=-1&tet=0&fi=0&apd=1148&ui=0&uit=0&h=0&th=-1&s=-1&ts=-1&bfa=-1&d=kohls.com&L1id=fmx&L2id=fmx_301796&L3id=kohls.com&L4id=1&S1id=display&S2id=2&ord=1700550561629&r=329490998623&t=nht&os=0&fi2=0&div1=0&ait=0&url=https%253A%252F%252Fwww.kohls.com%252F&mobile=0&click=0&initW=300&initH=156&initSRE=0.061988807576409816&zMoatImpID=9632fba6_63238b8c-74c8-4349-bd95-abf0f38f6263&bedc=1&q=4&nu=0&ib=0&dc=1&ob=1&oh=0&lt=0&ab=1&n=1&nm=1&sp=0&pt=0
Host: iponweb503341958152.s.moatpixel.com
sec-ch-ua: \"Not.A/Brand\";v=\"8\", \"Chromium\";v=\"114\"
sec-ch-ua-mobile: ?0
User-Agent: Mozilla/5.0 (X11; Linux x86_64) AppleWebKit/537.36 (KHTML, like Gecko) Chrome/114.0.0.0 Safari/537.36
sec-ch-ua-platform: \"Linux\"
Accept: image/avif,image/webp,image/apng,image/svg+xml,image/*,*/*;q=0.8
Sec-Fetch-Site: cross-site
Sec-Fetch-Mode: no-cors
Sec-Fetch-Dest: image
Referer: https://5e8b98c9055e7bfb82b7a7f9f595ce67.safeframe.googlesyndication.com/
Accept-Encoding: gzip, deflate, br
Accept-Language: en-US,en;q=0.9
----
--Response 
HTTP/1.1 200
accept-ranges: bytes
content-type: image/gif
etag: \"ad4b0f606e0f8465bc4c4c170b37e1a3:1463757360\"
last-modified: Fri, 20 May 2016 15:16:00 GMT
server: AkamaiNetStorage
content-length: 43
x-akamai-ew-subworker: 8096267
expires: Tue, 21 Nov 2023 07:09:22 GMT
cache-control: max-age=0, no-cache, no-store
pragma: no-cache
date: Tue, 21 Nov 2023 07:09:22 GMT
----
--Request 
GET https://ce.lijit.com/beacon?informer=13450992&gdpr_consent=&us_privacy=&gpp=&gpp_sid=
Host: ce.lijit.com
sec-ch-ua: \"Not.A/Brand\";v=\"8\", \"Chromium\";v=\"114\"
sec-ch-ua-mobile: ?0
sec-ch-ua-platform: \"Linux\"
Upgrade-Insecure-Requests: 1
User-Agent: Mozilla/5.0 (X11; Linux x86_64) AppleWebKit/537.36 (KHTML, like Gecko) Chrome/114.0.0.0 Safari/537.36
Accept: text/html,application/xhtml+xml,application/xml;q=0.9,image/avif,image/webp,image/apng,*/*;q=0.8,application/signed-exchange;v=b3;q=0.7
Sec-Fetch-Site: cross-site
Sec-Fetch-Mode: navigate
Sec-Fetch-Dest: iframe
Referer: https://5e8b98c9055e7bfb82b7a7f9f595ce67.safeframe.googlesyndication.com/
Accept-Encoding: gzip, deflate, br
Accept-Language: en-US,en;q=0.9
----
--Response 
HTTP/1.1 302 Found
Date: Tue, 21 Nov 2023 07:09:22 GMT
Set-Cookie: ljt_reader=HsSthNZHijcTriwqTrmXXzf4; Path=/; Domain=.lijit.com; Expires=Wed, 20-Nov-2024 07:09:22 GMT; Max-Age=31536000;Secure;SameSite=None
Expires: Fri, 20 Mar 2009 00:00:00 GMT
Cache-Control: private, no-cache, no-store, must-revalidate, proxy-revalidate, max-age=0, s-maxage=0
Pragma: no-cache
P3P: CP=\"CUR ADM OUR NOR STA NID\"
Location: https://ce.lijit.com/beacon?informer=13450992&gdpr_consent=&us_privacy=&gpp=&gpp_sid=&dnr=1
Content-Length: 0
X-Sovrn-Pod: ad_ap1dca1
----

--Response 
HTTP/1.1 307
server: nginx/1.21.3
date: Tue, 21 Nov 2023 07:09:22 GMT
content-type: text/html; charset=utf-8
content-length: 0
cache-control: no-store, no-cache, private
pragma: no-cache
expires: Sat, 15 Nov 2008 16:00:00 GMT
p3p: policyref=\"http://cdn.adnxs-simple.com/w3c/policy/p3p.xml\", CP=\"NOI DSP COR ADM PSAo PSDo OURo SAMo UNRo OTRo BUS COM NAV DEM STA PRE\"
x-xss-protection: 0
accept-ch: Sec-CH-UA-Full-Version-List,Sec-CH-UA-Arch,Sec-CH-UA-Model,Sec-CH-UA-Platform-Version,Sec-CH-UA-Bitness
location: https://ib.adnxs.com/bounce?%2Fasync_usersync%3Fcbfn%3DqueuePixels
an-x-request-uuid: d46d745c-e224-4599-8ddb-1bd8161362ea
set-cookie: uuid2=8859521384700062960; SameSite=None; Path=/; Max-Age=7776000; Expires=Mon, 19-Feb-2024 07:09:22 GMT; Domain=.adnxs.com; Secure; HttpOnly
x-proxy-origin: 192.3.3.250; 192.3.3.250; 582.bm-nginx-loadbalancer.mgmt.nym2.adnexus.net; adnxs.com
----
--Request 
GET https://bat.bing.com/action/0?ti=4024145&tm=al001&Ver=2&mid=ff744f42-e2ce-4683-9cb5-b45d234591dc&sid=ce3c5ea0883c11ee858a29be7baeeb0f&vid=ce3cb6c0883c11ee9c5d21bc71586f02&vids=0&msclkid=N&prodid=6262123%2C6237310%2C6149518%2C6125449%2C6176056%2C6119381%2C6438581%2C6125326%2C4922640%2C6169493%2C4922627%2C6110701%2C6121308%2C6123856%2C6131877%2C6176065%2C6177932%2C6229706%2C6250998%2C6264246%2C6287802%2C6302496%2C6310961%2C6315769%2C6381694%2C4959669%2C6137076%2C5588439%2C5768492%2C6122638%2C6226866%2C6123395%2C5588506%2C6206243%2C6197072%2C6230463%2C6101575%2C6206211%2C6183757%2C6004313%2C6124369%2C5587888%2C5940204%2C6251731%2C6270310%2C6262011%2C6286393%2C6123808&pagetype=category&ea=custom&en=Y&p=https%3A%2F%2Fwww.kohls.com%2Fcatalog%2Fwomens-sweaters-tops-clothing.jsp&sw=1313&sh=575&sc=24&evt=custom&rn=16878
Host: bat.bing.com
sec-ch-ua: \"Not.A/Brand\";v=\"8\", \"Chromium\";v=\"114\"
sec-ch-ua-mobile: ?0
User-Agent: Mozilla/5.0 (X11; Linux x86_64) AppleWebKit/537.36 (KHTML, like Gecko) Chrome/114.0.0.0 Safari/537.36
sec-ch-ua-platform: \"Linux\"
Accept: image/avif,image/webp,image/apng,image/svg+xml,image/*,*/*;q=0.8
Sec-Fetch-Site: cross-site
Sec-Fetch-Mode: no-cors
Sec-Fetch-Dest: image
Referer: https://www.kohls.com/
Accept-Encoding: gzip, deflate, br
Accept-Language: en-US,en;q=0.9
----
--Response 
HTTP/1.1 204
cache-control: no-cache, must-revalidate
pragma: no-cache
expires: Fri, 01 Jan 1990 00:00:00 GMT
set-cookie: MUID=263366968258616C1ED8754683D260E2; domain=.bing.com; expires=Sun, 15-Dec-2024 07:09:22 GMT; path=/; SameSite=None; Secure; Priority=High;
set-cookie: MR=0; domain=bat.bing.com; expires=Tue, 28-Nov-2023 07:09:22 GMT; path=/; SameSite=None; Secure;
strict-transport-security: max-age=31536000; includeSubDomains; preload
access-control-allow-origin: *
x-cache: CONFIG_NOCACHE
accept-ch: Sec-CH-UA-Arch, Sec-CH-UA-Bitness, Sec-CH-UA-Full-Version, Sec-CH-UA-Full-Version-List, Sec-CH-UA-Mobile, Sec-CH-UA-Model, Sec-CH-UA-Platform, Sec-CH-UA-Platform-Version
x-msedge-ref: Ref A: 1306B793C6E94204919F0999E23DB9CA Ref B: EWR311000103027 Ref C: 2023-11-21T07:09:22Z
date: Tue, 21 Nov 2023 07:09:22 GMT
----

--Response 
HTTP/1.1 200
server: nginx/1.21.3
date: Tue, 21 Nov 2023 07:09:22 GMT
content-type: text/html; charset=utf-8
content-length: 0
cache-control: no-store, no-cache, private
pragma: no-cache
expires: Sat, 15 Nov 2008 16:00:00 GMT
p3p: policyref=\"http://cdn.adnxs-simple.com/w3c/policy/p3p.xml\", CP=\"NOI DSP COR ADM PSAo PSDo OURo SAMo UNRo OTRo BUS COM NAV DEM STA PRE\"
x-xss-protection: 0
access-control-allow-credentials: true
access-control-allow-origin: *
accept-ch: Sec-CH-UA-Full-Version-List,Sec-CH-UA-Arch,Sec-CH-UA-Model,Sec-CH-UA-Platform-Version,Sec-CH-UA-Bitness
an-x-request-uuid: 9479aad8-847c-4a46-9465-5df0a49aa383
x-proxy-origin: 192.3.3.250; 192.3.3.250; 582.bm-nginx-loadbalancer.mgmt.nym2.adnexus.net; adnxs.com
----
--Request 
GET https://assets.adobedtm.com/6d2e783bbfe3/c0c47c5c96c6/7a8648cd60a8/RC06328aa0bc0c48f29cbfa045675a420b-source.min.js
Host: assets.adobedtm.com
sec-ch-ua: \"Not.A/Brand\";v=\"8\", \"Chromium\";v=\"114\"
sec-ch-ua-mobile: ?0
User-Agent: Mozilla/5.0 (X11; Linux x86_64) AppleWebKit/537.36 (KHTML, like Gecko) Chrome/114.0.0.0 Safari/537.36
sec-ch-ua-platform: \"Linux\"
Accept: */*
Sec-Fetch-Site: cross-site
Sec-Fetch-Mode: no-cors
Sec-Fetch-Dest: script
Referer: https://www.kohls.com/
Accept-Encoding: gzip, deflate, br
Accept-Language: en-US,en;q=0.9
----
--Response 
HTTP/1.1 200
accept-ranges: bytes
content-type: application/x-javascript
etag: \"c3f8eea087eda271fe3a803f1d4cfa06:1700078393.11621\"
last-modified: Wed, 15 Nov 2023 19:59:53 GMT
server: AkamaiNetStorage
vary: Accept-Encoding
content-encoding: gzip
cache-control: max-age=3600
expires: Tue, 21 Nov 2023 08:08:43 GMT
date: Tue, 21 Nov 2023 07:08:43 GMT
content-length: 390
access-control-allow-origin: https://www.kohls.com
timing-allow-origin: *
----
--Request 
GET https://assets.adobedtm.com/6d2e783bbfe3/c0c47c5c96c6/7a8648cd60a8/RCc9206bee094e4fc1ac91cf03b05f4a6e-source.min.js
Host: assets.adobedtm.com
sec-ch-ua: \"Not.A/Brand\";v=\"8\", \"Chromium\";v=\"114\"
sec-ch-ua-mobile: ?0
User-Agent: Mozilla/5.0 (X11; Linux x86_64) AppleWebKit/537.36 (KHTML, like Gecko) Chrome/114.0.0.0 Safari/537.36
sec-ch-ua-platform: \"Linux\"
Accept: */*
Sec-Fetch-Site: cross-site
Sec-Fetch-Mode: no-cors
Sec-Fetch-Dest: script
Referer: https://www.kohls.com/
Accept-Encoding: gzip, deflate, br
Accept-Language: en-US,en;q=0.9
----
--Response 
HTTP/1.1 200
accept-ranges: bytes
content-type: application/x-javascript
etag: \"c3f8eea087eda271fe3a803f1d4cfa06:1700078393.11621\"
last-modified: Wed, 15 Nov 2023 19:59:53 GMT
server: AkamaiNetStorage
vary: Accept-Encoding
content-encoding: gzip
cache-control: max-age=3600
expires: Tue, 21 Nov 2023 08:08:43 GMT
date: Tue, 21 Nov 2023 07:08:43 GMT
content-length: 278
access-control-allow-origin: https://www.kohls.com
timing-allow-origin: *
----

