--Request 
POST https://p11.techlab-cdn.com/collect?t=1700550567095&st=15317&s=KODLNerk0tWEePaQ&ss=2&c=5e668a2ed087f723b7604ced&r=ozWXT5BlF6hAVoSv&d=0&u=https%3A%2F%2Fwww.kohls.com%2Fcatalog%2Fwomens-sweaters-tops-clothing.jsp%3FCN%3DGender%3AWomens%2BProduct%3ASweaters%2BCategory%3ATops%2BDepartment%3AClothing%2BAssortment%3AKohls%2520Black%2520Friday%26BST%3D6262123%3A6237310%3A6149518%3A6125449%3A6149518%3A6176056%3A6119381%3A6438581%3A6143395%3A6125326%3A4922640%3A6169493%26icid%3Dhpmf-BF-offer-womenssweaters-vlhd26%26kls_sbp%3D79613869088917606480426504271561296302&v=1701639299&p=1&bv=9&rh=58559bdb89e426cfe4950a65749c9c80&pi=2314&pl=2410&pwl=2412&ple=2410&psd=109&ppu=1002&psl=80&pfu=527&phe=74&pue=-1&pbc=4&pnu=-1&pnc=-1&pnr=-1&fsp=0&sp=0&pp=0&ah=0&sm=1&tr=1
Host: p11.techlab-cdn.com
sec-ch-ua: \"Not.A/Brand\";v=\"8\", \"Chromium\";v=\"114\"
sec-ch-ua-platform: \"Linux\"
sec-ch-ua-mobile: ?0
User-Agent: Mozilla/5.0 (X11; Linux x86_64) AppleWebKit/537.36 (KHTML, like Gecko) Chrome/114.0.0.0 Safari/537.36
Content-Type: text/plain
Accept: */*
Origin: https://www.kohls.com
Sec-Fetch-Site: cross-site
Sec-Fetch-Mode: no-cors
Sec-Fetch-Dest: empty
Referer: https://www.kohls.com/
Accept-Encoding: gzip, deflate, br
Accept-Language: en-US,en;q=0.9
----
--Response 
HTTP/1.1 200
content-length: 0
strict-transport-security: max-age=15724800; includeSubDomains
cache-control: max-age=0
expires: Tue, 21 Nov 2023 07:09:27 GMT
date: Tue, 21 Nov 2023 07:09:27 GMT
timing-allow-origin: *
access-control-allow-methods: GET, POST, HEAD
access-control-allow-origin: *
----

