--Request 
GET https://www.google-analytics.com/collect?v=1&_v=j101&a=1642119713&t=event&ni=1&_s=3&dl=https%3A%2F%2Fwww.kohls.com%2Fcheckout%2Fshopping_cart.jsp&ul=en-us&de=UTF-8&dt=Shopping%20Bag%20-%20Kohls.com&sd=24-bit&sr=1313x575&vp=1298x447&je=0&ec=DY%20Smart%20Action&ea=Previous%20PVs%20over%201%20(for%20audience)&el=Experience%201%20(Variation%201)&_u=SCCAgAABAAAAAGAAI~&jid=&gjid=&cid=1527107996.1700550526&tid=UA-45121696-1&_gid=1528984642.1700550527&cd2=d38e961d-eee7-4879-8340-ea94827e289a&cd4=&z=758931503
Host: www.google-analytics.com
sec-ch-ua: \"Not.A/Brand\";v=\"8\", \"Chromium\";v=\"114\"
sec-ch-ua-mobile: ?0
User-Agent: Mozilla/5.0 (X11; Linux x86_64) AppleWebKit/537.36 (KHTML, like Gecko) Chrome/114.0.0.0 Safari/537.36
sec-ch-ua-platform: \"Linux\"
Accept: image/avif,image/webp,image/apng,image/svg+xml,image/*,*/*;q=0.8
Sec-Fetch-Site: cross-site
Sec-Fetch-Mode: no-cors
Sec-Fetch-Dest: image
Referer: https://www.kohls.com/
Accept-Encoding: gzip, deflate, br
Accept-Language: en-US,en;q=0.9
----
--Response 
HTTP/1.1 200
access-control-allow-origin: *
pragma: no-cache
x-content-type-options: nosniff
cross-origin-resource-policy: cross-origin
server: Golfe2
content-length: 35
date: Tue, 21 Nov 2023 04:47:31 GMT
expires: Mon, 01 Jan 1990 00:00:00 GMT
cache-control: no-cache, no-store, must-revalidate
age: 8554
last-modified: Sun, 17 May 1998 03:00:00 GMT
content-type: image/gif
alt-svc: h3=\":443\"; ma=2592000,h3-29=\":443\"; ma=2592000
----
--Request 
GET https://www.google-analytics.com/collect?v=1&_v=j101&a=1642119713&t=event&ni=1&_s=4&dl=https%3A%2F%2Fwww.kohls.com%2Fcheckout%2Fshopping_cart.jsp&ul=en-us&de=UTF-8&dt=Shopping%20Bag%20-%20Kohls.com&sd=24-bit&sr=1313x575&vp=1298x447&je=0&ec=DY%20Smart%20Action&ea=%5BDY%20Backend%5D%20Adding%20cookie%20to%20HP%20Deep%20learning%20Recs&el=Experience%201%20(Variation%201)&_u=SCCAgAABAAAAAGAAI~&jid=&gjid=&cid=1527107996.1700550526&tid=UA-45121696-1&_gid=1528984642.1700550527&cd2=d38e961d-eee7-4879-8340-ea94827e289a&cd4=&z=2125950521
Host: www.google-analytics.com
sec-ch-ua: \"Not.A/Brand\";v=\"8\", \"Chromium\";v=\"114\"
sec-ch-ua-mobile: ?0
User-Agent: Mozilla/5.0 (X11; Linux x86_64) AppleWebKit/537.36 (KHTML, like Gecko) Chrome/114.0.0.0 Safari/537.36
sec-ch-ua-platform: \"Linux\"
Accept: image/avif,image/webp,image/apng,image/svg+xml,image/*,*/*;q=0.8
Sec-Fetch-Site: cross-site
Sec-Fetch-Mode: no-cors
Sec-Fetch-Dest: image
Referer: https://www.kohls.com/
Accept-Encoding: gzip, deflate, br
Accept-Language: en-US,en;q=0.9
----
--Response 
HTTP/1.1 200
access-control-allow-origin: *
pragma: no-cache
x-content-type-options: nosniff
cross-origin-resource-policy: cross-origin
server: Golfe2
content-length: 35
date: Tue, 21 Nov 2023 04:47:31 GMT
expires: Mon, 01 Jan 1990 00:00:00 GMT
cache-control: no-cache, no-store, must-revalidate
age: 8554
last-modified: Sun, 17 May 1998 03:00:00 GMT
content-type: image/gif
alt-svc: h3=\":443\"; ma=2592000,h3-29=\":443\"; ma=2592000
----

