--Request 
POST https://async-px.dynamicyield.com/batch?cnst=1&_=1700550532618_748068
Host: async-px.dynamicyield.com
sec-ch-ua: \"Not.A/Brand\";v=\"8\", \"Chromium\";v=\"114\"
sec-ch-ua-platform: \"Linux\"
sec-ch-ua-mobile: ?0
User-Agent: Mozilla/5.0 (X11; Linux x86_64) AppleWebKit/537.36 (KHTML, like Gecko) Chrome/114.0.0.0 Safari/537.36
Content-Type: text/plain;charset=UTF-8
Accept: */*
Origin: https://www.kohls.com
Sec-Fetch-Site: cross-site
Sec-Fetch-Mode: no-cors
Sec-Fetch-Dest: empty
Referer: https://www.kohls.com/
Accept-Encoding: gzip, deflate, br
Accept-Language: en-US,en;q=0.9
----
--Response 
HTTP/1.1 200
content-length: 0
date: Tue, 21 Nov 2023 07:08:52 GMT
access-control-allow-origin: *
access-control-allow-methods: POST, GET, OPTIONS
access-control-allow-headers: Content-Type, Authorization, Content-Length, X-Requested-With
cache-control: no-cache, no-store, must-revalidate
pragma: no-cache
expires: 0
x-cache: Miss from cloudfront
via: 1.1 55e94b07b6102f9f50d16b922c8d10ca.cloudfront.net (CloudFront)
x-amz-cf-pop: CMH68-P4
x-amz-cf-id: 7godtRi2JKzPnneRanj2u1OUQMjPXGexqMW3no5yjC8V9JwLFJBPNQ==
----
--Request 
GET https://i.liadm.com/s/56409?bidder_id=200442&bidder_uuid=5eec9e85-6e01-4627-b4cf-ef18b9613ded%3A1700550532.5619888&pid=500040&it=1&iv=5eec9e85-6e01-4627-b4cf-ef18b9613ded%3A1700550532.5619888&_=1700550532.5637946
Host: i.liadm.com
sec-ch-ua: \"Not.A/Brand\";v=\"8\", \"Chromium\";v=\"114\"
sec-ch-ua-mobile: ?0
User-Agent: Mozilla/5.0 (X11; Linux x86_64) AppleWebKit/537.36 (KHTML, like Gecko) Chrome/114.0.0.0 Safari/537.36
sec-ch-ua-platform: \"Linux\"
Accept: image/avif,image/webp,image/apng,image/svg+xml,image/*,*/*;q=0.8
Sec-Fetch-Site: cross-site
Sec-Fetch-Mode: no-cors
Sec-Fetch-Dest: image
Referer: https://i.liadm.com/
Accept-Encoding: gzip, deflate, br
Accept-Language: en-US,en;q=0.9
----
--Response 
HTTP/1.1 303 See Other
Date: Tue, 21 Nov 2023 07:08:52 GMT
Content-Length: 0
Connection: keep-alive
Location: /s/56409?bidder_id=200442&it=1&bidder_uuid=5eec9e85-6e01-4627-b4cf-ef18b9613ded:1700550532.5619888&pid=500040&_li_chk=true&_=1700550532.5637946&iv=5eec9e85-6e01-4627-b4cf-ef18b9613ded:1700550532.5619888&previous_uuid=adcbde4de4c64aa4aee4934d0d2f7f0d
Set-Cookie: lidid=adcbde4d-e4c6-4aa4-aee4-934d0d2f7f0d; Max-Age=63072000; Expires=Thu, 20 Nov 2025 07:08:52 GMT; SameSite=None; Path=/; Domain=liadm.com; Secure
Request-Time: 0
Strict-Transport-Security: max-age=31536000; includeSubDomains
----
--Request 
GET https://i.liadm.com/s/56409?bidder_id=200442&it=1&bidder_uuid=5eec9e85-6e01-4627-b4cf-ef18b9613ded:1700550532.5619888&pid=500040&_li_chk=true&_=1700550532.5637946&iv=5eec9e85-6e01-4627-b4cf-ef18b9613ded:1700550532.5619888&previous_uuid=adcbde4de4c64aa4aee4934d0d2f7f0d
Host: i.liadm.com
sec-ch-ua: \"Not.A/Brand\";v=\"8\", \"Chromium\";v=\"114\"
sec-ch-ua-mobile: ?0
User-Agent: Mozilla/5.0 (X11; Linux x86_64) AppleWebKit/537.36 (KHTML, like Gecko) Chrome/114.0.0.0 Safari/537.36
sec-ch-ua-platform: \"Linux\"
Accept: image/avif,image/webp,image/apng,image/svg+xml,image/*,*/*;q=0.8
Sec-Fetch-Site: cross-site
Sec-Fetch-Mode: no-cors
Sec-Fetch-Dest: image
Referer: https://i.liadm.com/
Accept-Encoding: gzip, deflate, br
Accept-Language: en-US,en;q=0.9
----
--Response 
HTTP/1.1 303 See Other
Date: Tue, 21 Nov 2023 07:08:52 GMT
Content-Length: 0
Connection: keep-alive
Location: https://pippio.com/api/sync?it=1&pid=500040&_=1700550532.5637946&iv=5eec9e85-6e01-4627-b4cf-ef18b9613ded:1700550532.5619888
Set-Cookie: _li_ss=CgA; Max-Age=2592000; Expires=Thu, 21 Dec 2023 07:08:52 GMT; SameSite=None; Path=/s; Secure
Set-Cookie: lidid=92d4d066-35bb-4490-804c-e10ca841f249; Max-Age=63072000; Expires=Thu, 20 Nov 2025 07:08:52 GMT; SameSite=None; Path=/; Domain=liadm.com; Secure
Request-Time: 1
Strict-Transport-Security: max-age=31536000; includeSubDomains
----
--Request 
GET https://pippio.com/api/sync?it=1&pid=500040&_=1700550532.5637946&iv=5eec9e85-6e01-4627-b4cf-ef18b9613ded:1700550532.5619888
Host: pippio.com
sec-ch-ua: \"Not.A/Brand\";v=\"8\", \"Chromium\";v=\"114\"
sec-ch-ua-mobile: ?0
User-Agent: Mozilla/5.0 (X11; Linux x86_64) AppleWebKit/537.36 (KHTML, like Gecko) Chrome/114.0.0.0 Safari/537.36
sec-ch-ua-platform: \"Linux\"
Accept: image/avif,image/webp,image/apng,image/svg+xml,image/*,*/*;q=0.8
Sec-Fetch-Site: cross-site
Sec-Fetch-Mode: no-cors
Sec-Fetch-Dest: image
Referer: https://i.liadm.com/
Accept-Encoding: gzip, deflate, br
Accept-Language: en-US,en;q=0.9
----
--Response 
HTTP/1.1 200
cache-control: no-cache, no-store
content-type: image/gif
p3p: CP=\"NOI DSP COR NID CURa ADMa DEVa PSAa PSDa OUR BUS COM INT OTC PUR STA\"
set-cookie: did=GJmptP-jkSZdxD5N; Path=/; Domain=pippio.com; Expires=Wed, 20 Nov 2024 07:08:52 GMT; Secure; SameSite=None
set-cookie: didts=1700550532; Path=/; Domain=pippio.com; Expires=Wed, 20 Nov 2024 07:08:52 GMT; Secure; SameSite=None
set-cookie: nnls=; Path=/; Domain=pippio.com; Expires=Sat, 20 Jan 2024 07:08:52 GMT; Secure; SameSite=None
set-cookie: pxrc=CAA=; Path=/; Domain=pippio.com; Expires=Sat, 20 Jan 2024 07:08:52 GMT; Secure; SameSite=None
timing-allow-origin: *
date: Tue, 21 Nov 2023 07:08:52 GMT
content-length: 42
via: 1.1 google
alt-svc: h3=\":443\"; ma=2592000,h3-29=\":443\"; ma=2592000
----
--Request 
GET https://pagead2.googlesyndication.com/pagead/sodar?id=sodar2&v=225&t=2&li=gpt_m202311130101&jk=4107168336427670&bg=!SUqlSgXNAAZxrfrxUa07ADQBe5WfONaAs7M9ZDu_uyL5g75NYHh2SVA23B-ucBS-AKxgxSP3GMg7aAw0NLfB5kNb9MWqAgAAAPhSAAAABmgBB5kC995f3wywlcGlVd7GgViCaWXjAj-GHI7YLwhx44O-yTzz77fXdVKukm7UY4L4LTMYVpxOfEXF2nHNCUQUD55JObd9Q81qG92Uw7iLHqxR5kFvlSGMnE0gnlNRJ6KxA8eFEh007xYcm86Fg3qclIPWLTaEeQzyIEK9MczdZrZ3HdhH_rJKLk9NfJCqoPc5eaIXczt_mm-52xXlqOZDZ_reeo3FBKg1F3hNoT53F0LKTb4U2be6lwqtNR770yJawaTQOm-51VEyAL33Uw0_U_exAK19BwXaC3OBXM-supaDBVa1YEiSXpikBaDAVqVrGtjNlhzQh6IduB7XQvPBFaoBdGu7XiH6De3wZ8j8UX-9Y9Xq8g_RcBj90xHHjXp-mCOWi8ClfWXgGvrGa0zGY9FgtDfvYgNW6kz1gp7mcVQZF5lL2nlxZDkbb9MVKl64jdVFHNTAUDdIsbt7pI3FzvrJZYYk5gBI--GBcJXC-l1wrmh0rtXNqJYQZS-xUD7q9tjKozHKuX0GZZZ81V9jzHUpkAudRw_EPrINI-gmSTgXchsNGeFxM2v5pteWBoDSAJFE3HkQpk4SAngzfN80zvOTVyPL8N9hKruttT-6bpwp-10QuQjGMWgsBxCDlAR7nkztzRO2vwdlQpBxE92UcPvQ4BaGyDQTvSZ-qfwYW6MTLsQC2dGMhq9WyoFntq8QpodNzMgL0A5Ju6kMFZ7B5pu_FEXabKqaLjppgqX9cE3JvTSr_nKwj50KulsG81sbc9JJf0C5Pt5oAuC6xUm224c9XHHoo3Kjk7iqXQeNN67ezj2D07rQQUulyv_c7YNZoeIHySU1kTOy6SUkXIamBXhpwo0fPcjRSGe-vw5D_Q_QK4Wx6h_e1Ar5DmfXuZ3Mh5k0aujbvIHm-ZiA5Pio9orMo5YsELdL1PSttt4l-JVL6Kx5Ccxt981bSvzijPikxfu_J7_-ATMUp0uDDcLbDpRVARMQT-mZecrsqGv4l0NH7UjcyBxsYcrF4A
Host: pagead2.googlesyndication.com
sec-ch-ua: \"Not.A/Brand\";v=\"8\", \"Chromium\";v=\"114\"
sec-ch-ua-mobile: ?0
User-Agent: Mozilla/5.0 (X11; Linux x86_64) AppleWebKit/537.36 (KHTML, like Gecko) Chrome/114.0.0.0 Safari/537.36
sec-ch-ua-platform: \"Linux\"
Accept: image/avif,image/webp,image/apng,image/svg+xml,image/*,*/*;q=0.8
Sec-Fetch-Site: cross-site
Sec-Fetch-Mode: no-cors
Sec-Fetch-Dest: image
Referer: https://www.kohls.com/
Accept-Encoding: gzip, deflate, br
Accept-Language: en-US,en;q=0.9
----
--Response 
HTTP/1.1 204
p3p: policyref=\"https://www.googleadservices.com/pagead/p3p.xml\", CP=\"NOI DEV PSA PSD IVA IVD OTP OUR OTR IND OTC\"
timing-allow-origin: *
cross-origin-resource-policy: cross-origin
content-type: text/html; charset=UTF-8
x-content-type-options: nosniff
date: Tue, 21 Nov 2023 07:08:52 GMT
server: cafe
content-length: 0
x-xss-protection: 0
alt-svc: h3=\":443\"; ma=2592000,h3-29=\":443\"; ma=2592000
----

