--Request 
POST https://analytics.tiktok.com/api/v2/pixel/act
Host: analytics.tiktok.com
sec-ch-ua: \"Not.A/Brand\";v=\"8\", \"Chromium\";v=\"114\"
sec-ch-ua-platform: \"Linux\"
sec-ch-ua-mobile: ?0
User-Agent: Mozilla/5.0 (X11; Linux x86_64) AppleWebKit/537.36 (KHTML, like Gecko) Chrome/114.0.0.0 Safari/537.36
Content-Type: text/plain;charset=UTF-8
Accept: */*
Origin: https://www.kohls.com
Sec-Fetch-Site: cross-site
Sec-Fetch-Mode: no-cors
Sec-Fetch-Dest: empty
Referer: https://www.kohls.com/
Accept-Encoding: gzip, deflate, br
Accept-Language: en-US,en;q=0.9
----
--Response 
HTTP/1.1 200
server: nginx
content-length: 0
access-control-allow-headers: Authorization,*
access-control-allow-methods: GET,POST,PUT,PATCH,DELETE,HEAD,OPTIONS,UPDATE
access-control-allow-origin: *
x-tt-logid: 202311210710133F09A342C1C500D0503F
server-timing: inner; dur=22
server-timing: cdn-cache; desc=MISS, edge; dur=4, origin; dur=33
x-tt-trace-host: 0108b4541b3bf73b144eb940f80f5a56569c560cd2e3f9c77b9bf350f7656675691122407bff63e17ed72bc03a6d76cecf3c014d604472c7e1b19c3083b39583bea3ba18ff9f2741140e8585bae444b14b6fd17184b463767cafbf041ccac73d55
expires: Tue, 21 Nov 2023 07:10:13 GMT
cache-control: max-age=0, no-cache, no-store
pragma: no-cache
date: Tue, 21 Nov 2023 07:10:13 GMT
x-cache: TCP_MISS from a23-54-64-75.deploy.akamaitechnologies.com (AkamaiGHost/11.3.2.1-52518411) (-)
x-tt-trace-tag: id=16;cdn-cache=miss;type=dyn
x-origin-response-time: 33,23.54.64.75
x-akamai-request-id: 7f91721
----

