--Request 
POST https://www.google-analytics.com/j/collect?v=1&_v=j101&a=1270368632&t=pageview&_s=1&dl=https%3A%2F%2Fwww.kohls.com%2Fcheckout%2Fv2%2Fcheckout.jsp&ul=en-us&de=UTF-8&dt=Checkout%20-%20Kohls.com&sd=24-bit&sr=1313x575&vp=1298x447&je=0&_u=QCCAgAABAAAAACAAI~&jid=&gjid=&cid=1527107996.1700550526&tid=UA-45121696-1&_gid=1528984642.1700550527&_slc=1&cd2=d38e961d-eee7-4879-8340-ea94827e289a&cd4=&z=930293493
Host: www.google-analytics.com
sec-ch-ua: \"Not.A/Brand\";v=\"8\", \"Chromium\";v=\"114\"
sec-ch-ua-platform: \"Linux\"
sec-ch-ua-mobile: ?0
User-Agent: Mozilla/5.0 (X11; Linux x86_64) AppleWebKit/537.36 (KHTML, like Gecko) Chrome/114.0.0.0 Safari/537.36
Content-Type: text/plain
Accept: */*
Origin: https://www.kohls.com
Sec-Fetch-Site: cross-site
Sec-Fetch-Mode: cors
Sec-Fetch-Dest: empty
Referer: https://www.kohls.com/
Accept-Encoding: gzip, deflate, br
Accept-Language: en-US,en;q=0.9
----
--Response 
HTTP/1.1 200
access-control-allow-origin: https://www.kohls.com
date: Tue, 21 Nov 2023 07:10:18 GMT
pragma: no-cache
expires: Fri, 01 Jan 1990 00:00:00 GMT
cache-control: no-cache, no-store, must-revalidate
last-modified: Sun, 17 May 1998 03:00:00 GMT
access-control-allow-credentials: true
x-content-type-options: nosniff
content-type: text/plain
cross-origin-resource-policy: cross-origin
server: Golfe2
content-length: 3
alt-svc: h3=\":443\"; ma=2592000,h3-29=\":443\"; ma=2592000
----
--Request 
GET https://cdn.taboola.com/libtrc/unip/1456663/tfa.js
Host: cdn.taboola.com
sec-ch-ua: \"Not.A/Brand\";v=\"8\", \"Chromium\";v=\"114\"
sec-ch-ua-mobile: ?0
User-Agent: Mozilla/5.0 (X11; Linux x86_64) AppleWebKit/537.36 (KHTML, like Gecko) Chrome/114.0.0.0 Safari/537.36
sec-ch-ua-platform: \"Linux\"
Accept: */*
Sec-Fetch-Site: cross-site
Sec-Fetch-Mode: no-cors
Sec-Fetch-Dest: script
Referer: https://www.kohls.com/
Accept-Encoding: gzip, deflate, br
Accept-Language: en-US,en;q=0.9
Cookie: t_pt_gid=e1309b8b-4e65-4c76-8ca5-bea736c3ef37-tuctc55dcff
----
--Response 
HTTP/1.1 200
x-amz-id-2: rcEiL3kJWzFOdQOfVAOFVwMrp2H0L7kvfjqfWnOYU1pCd4l/zoupgt6wZ6HBaTgAgGg/4Wnboyk=
x-amz-request-id: R7X1WP67FBFNAC4H
x-amz-replication-status: PENDING
last-modified: Sun, 19 Nov 2023 11:50:48 GMT
etag: \"023406f475def2d13462833c6f9bcafd\"
x-amz-server-side-encryption: AES256
x-amz-version-id: oAlAvmK9b0TWlTgxmZ.6sXCPu6qzRtH9
content-type: application/javascript; charset=utf-8
server: AmazonS3
content-encoding: gzip
accept-ranges: bytes
date: Tue, 21 Nov 2023 07:08:47 GMT
via: 1.1 varnish
age: 118
x-served-by: cache-ewr18142-EWR
x-cache: HIT
x-cache-hits: 1
x-timer: S1700550527.420570,VS0,VE1
cache-control: private,max-age=14401
vary: Accept-Encoding
abp: 71
access-control-allow-origin: *
content-length: 23526
----
--Request 
GET https://www.googleadservices.com/pagead/conversion/746851823/?random=1700550618378&cv=9&fst=1700550618378&num=1&npa=1&label=FO9RCN7V-pQYEO-bkOQC&guid=ON&resp=GooglemKTybQhCsO&eid=375603260%2C466465925%2C512247838&u_h=575&u_w=1313&u_ah=575&u_aw=1313&u_cd=24&u_his=6&u_tz=-360&u_java=false&u_nplug=0&u_nmime=0&sendb=1&ig=1&frm=2&url=https%3A%2F%2F8632166.fls.doubleclick.net%2Fddm%2Ffls%2Fr%2Fdc_pre%3DCL3PktzE1IIDFTcPigMdRDcPPw%3Bsrc%3D8632166%3Btype%3Dlandi0%3Bcat%3Dunive0%3Bord%3D4312604249535%3Bauiddc%3D1181256846.1700550526%3Bu1%3DAdOps_Cart_All_Product%2520IDs%3Bu2%3D%2525AdOps_Cart_All_ProductName%2525%3Bu5%3D%2525AdOps_Cart_All_NumberOfItems%2525%3Bu10%3Dhttps%253A%252F%252Fwww.kohls.com%252Fcheckout%252Fv2%252Fcheckout.jsp%3Bu11%3Dcheckout%3Bu13%3DValue%3Bu23%3DNew%2520Customer%3Bu24%3D79613869088917606480426504271561296302%3Bu25%3Dd38e961d-eee7-4879-8340-ea94827e289a%3Bgtm%3D45fe3b81v9135074177%3Bgcd%3D11l1l1l1l1%3Bdma%3D0%3Buaa%3Dx86%3Bua&ref=https%3A%2F%2F8632166.fls.doubleclick.net%2F&hn=www.googleadservices.com&rfmt=3&fmt=4
Host: www.googleadservices.com
sec-ch-ua: \"Not.A/Brand\";v=\"8\", \"Chromium\";v=\"114\"
sec-ch-ua-mobile: ?0
User-Agent: Mozilla/5.0 (X11; Linux x86_64) AppleWebKit/537.36 (KHTML, like Gecko) Chrome/114.0.0.0 Safari/537.36
sec-ch-ua-platform: \"Linux\"
Accept: */*
Sec-Fetch-Site: cross-site
Sec-Fetch-Mode: no-cors
Sec-Fetch-Dest: script
Referer: https://8632166.fls.doubleclick.net/
Accept-Encoding: gzip, deflate, br
Accept-Language: en-US,en;q=0.9
----
--Response 
HTTP/1.1 200
p3p: policyref=\"https://www.googleadservices.com/pagead/p3p.xml\", CP=\"NOI DEV PSA PSD IVA IVD OTP OUR OTR IND OTC\"
timing-allow-origin: *
cross-origin-resource-policy: cross-origin
date: Tue, 21 Nov 2023 07:10:18 GMT
pragma: no-cache
expires: Fri, 01 Jan 1990 00:00:00 GMT
cache-control: no-cache, must-revalidate
content-type: text/javascript; charset=UTF-8
x-content-type-options: nosniff
content-disposition: attachment; filename=\"f.txt\"
content-encoding: br
server: cafe
content-length: 1719
x-xss-protection: 0
alt-svc: h3=\":443\"; ma=2592000,h3-29=\":443\"; ma=2592000
----
--Request 
GET https://www.google-analytics.com/collect?v=1&_v=j101&a=1270368632&t=event&ni=1&_s=2&dl=https%3A%2F%2Fwww.kohls.com%2Fcheckout%2Fv2%2Fcheckout.jsp&ul=en-us&de=UTF-8&dt=Checkout%20-%20Kohls.com&sd=24-bit&sr=1313x575&vp=1298x447&je=0&ec=DY%20Smart%20Action&ea=%5BDY%20Backend%5D%20Adding%20cookie%20to%20HP%20Deep%20learning%20Recs&el=Experience%201%20(Variation%201)&_u=SCCAgAABAAAAACAAI~&jid=&gjid=&cid=1527107996.1700550526&tid=UA-45121696-1&_gid=1528984642.1700550527&cd2=d38e961d-eee7-4879-8340-ea94827e289a&cd4=&z=809679785
Host: www.google-analytics.com
sec-ch-ua: \"Not.A/Brand\";v=\"8\", \"Chromium\";v=\"114\"
sec-ch-ua-mobile: ?0
User-Agent: Mozilla/5.0 (X11; Linux x86_64) AppleWebKit/537.36 (KHTML, like Gecko) Chrome/114.0.0.0 Safari/537.36
sec-ch-ua-platform: \"Linux\"
Accept: image/avif,image/webp,image/apng,image/svg+xml,image/*,*/*;q=0.8
Sec-Fetch-Site: cross-site
Sec-Fetch-Mode: no-cors
Sec-Fetch-Dest: image
Referer: https://www.kohls.com/
Accept-Encoding: gzip, deflate, br
Accept-Language: en-US,en;q=0.9
----
--Response 
HTTP/1.1 200
access-control-allow-origin: *
pragma: no-cache
x-content-type-options: nosniff
cross-origin-resource-policy: cross-origin
server: Golfe2
content-length: 35
date: Tue, 21 Nov 2023 05:41:11 GMT
expires: Mon, 01 Jan 1990 00:00:00 GMT
cache-control: no-cache, no-store, must-revalidate
age: 5347
last-modified: Sun, 17 May 1998 03:00:00 GMT
content-type: image/gif
alt-svc: h3=\":443\"; ma=2592000,h3-29=\":443\"; ma=2592000
----
--Request 
GET https://www.google-analytics.com/collect?v=1&_v=j101&a=1270368632&t=event&ni=1&_s=3&dl=https%3A%2F%2Fwww.kohls.com%2Fcheckout%2Fv2%2Fcheckout.jsp&ul=en-us&de=UTF-8&dt=Checkout%20-%20Kohls.com&sd=24-bit&sr=1313x575&vp=1298x447&je=0&ec=DY%20Smart%20Action&ea=%5BDY%20Backend%5D%20-%20Event%20for%20Rewards%20Enrollment&el=Experience%201%20(Variation%201)&_u=SCCAgAABAAAAACAAI~&jid=&gjid=&cid=1527107996.1700550526&tid=UA-45121696-1&_gid=1528984642.1700550527&cd2=d38e961d-eee7-4879-8340-ea94827e289a&cd4=&z=1959349073
Host: www.google-analytics.com
sec-ch-ua: \"Not.A/Brand\";v=\"8\", \"Chromium\";v=\"114\"
sec-ch-ua-mobile: ?0
User-Agent: Mozilla/5.0 (X11; Linux x86_64) AppleWebKit/537.36 (KHTML, like Gecko) Chrome/114.0.0.0 Safari/537.36
sec-ch-ua-platform: \"Linux\"
Accept: image/avif,image/webp,image/apng,image/svg+xml,image/*,*/*;q=0.8
Sec-Fetch-Site: cross-site
Sec-Fetch-Mode: no-cors
Sec-Fetch-Dest: image
Referer: https://www.kohls.com/
Accept-Encoding: gzip, deflate, br
Accept-Language: en-US,en;q=0.9
----
--Response 
HTTP/1.1 200
access-control-allow-origin: *
pragma: no-cache
x-content-type-options: nosniff
cross-origin-resource-policy: cross-origin
server: Golfe2
content-length: 35
date: Tue, 21 Nov 2023 05:41:11 GMT
expires: Mon, 01 Jan 1990 00:00:00 GMT
cache-control: no-cache, no-store, must-revalidate
age: 5347
last-modified: Sun, 17 May 1998 03:00:00 GMT
content-type: image/gif
alt-svc: h3=\":443\"; ma=2592000,h3-29=\":443\"; ma=2592000
----
--Request 
GET https://www.google-analytics.com/collect?v=1&_v=j101&a=1270368632&t=event&ni=1&_s=4&dl=https%3A%2F%2Fwww.kohls.com%2Fcheckout%2Fv2%2Fcheckout.jsp&ul=en-us&de=UTF-8&dt=Checkout%20-%20Kohls.com&sd=24-bit&sr=1313x575&vp=1298x447&je=0&ec=DY%20Smart%20Action&ea=%5BDY%20Backend%5D%20-%20Home%20Store%20ID&el=Experience%201%20(Variation%201)&_u=SCCAgAABAAAAACAAI~&jid=&gjid=&cid=1527107996.1700550526&tid=UA-45121696-1&_gid=1528984642.1700550527&cd2=d38e961d-eee7-4879-8340-ea94827e289a&cd4=&z=2012058024
Host: www.google-analytics.com
sec-ch-ua: \"Not.A/Brand\";v=\"8\", \"Chromium\";v=\"114\"
sec-ch-ua-mobile: ?0
User-Agent: Mozilla/5.0 (X11; Linux x86_64) AppleWebKit/537.36 (KHTML, like Gecko) Chrome/114.0.0.0 Safari/537.36
sec-ch-ua-platform: \"Linux\"
Accept: image/avif,image/webp,image/apng,image/svg+xml,image/*,*/*;q=0.8
Sec-Fetch-Site: cross-site
Sec-Fetch-Mode: no-cors
Sec-Fetch-Dest: image
Referer: https://www.kohls.com/
Accept-Encoding: gzip, deflate, br
Accept-Language: en-US,en;q=0.9
----
--Response 
HTTP/1.1 200
access-control-allow-origin: *
pragma: no-cache
x-content-type-options: nosniff
cross-origin-resource-policy: cross-origin
server: Golfe2
content-length: 35
date: Tue, 21 Nov 2023 05:41:11 GMT
expires: Mon, 01 Jan 1990 00:00:00 GMT
cache-control: no-cache, no-store, must-revalidate
age: 5347
last-modified: Sun, 17 May 1998 03:00:00 GMT
content-type: image/gif
alt-svc: h3=\":443\"; ma=2592000,h3-29=\":443\"; ma=2592000
----
--Request 
GET https://googleads.g.doubleclick.net/pagead/viewthroughconversion/746851823/?random=689421744&cv=9&fst=1700550618378&num=1&npa=1&label=FO9RCN7V-pQYEO-bkOQC&guid=ON&resp=GooglemKTybQhCsO&eid=375603260%2C466465925%2C512247838&u_h=575&u_w=1313&u_ah=575&u_aw=1313&u_cd=24&u_his=6&u_tz=-360&u_java=false&u_nplug=0&u_nmime=0&sendb=1&ig=1&frm=2&url=https%3A%2F%2F8632166.fls.doubleclick.net%2Fddm%2Ffls%2Fr%2Fdc_pre%3DCL3PktzE1IIDFTcPigMdRDcPPw%3Bsrc%3D8632166%3Btype%3Dlandi0%3Bcat%3Dunive0%3Bord%3D4312604249535%3Bauiddc%3D1181256846.1700550526%3Bu1%3DAdOps_Cart_All_Product%2520IDs%3Bu2%3D%2525AdOps_Cart_All_ProductName%2525%3Bu5%3D%2525AdOps_Cart_All_NumberOfItems%2525%3Bu10%3Dhttps%253A%252F%252Fwww.kohls.com%252Fcheckout%252Fv2%252Fcheckout.jsp%3Bu11%3Dcheckout%3Bu13%3DValue%3Bu23%3DNew%2520Customer%3Bu24%3D79613869088917606480426504271561296302%3Bu25%3Dd38e961d-eee7-4879-8340-ea94827e289a%3Bgtm%3D45fe3b81v9135074177%3Bgcd%3D11l1l1l1l1%3Bdma%3D0%3Buaa%3Dx86%3Bua&ref=https%3A%2F%2F8632166.fls.doubleclick.net%2F&hn=www.googleadservices.com&fmt=3&ct_cookie_present=false&ocp_id=2ldcZcnOGJy_oPMPtMCp0Ak&sscte=1&crd=&pscrd=IhMIyaOh3MTUggMVnB9oCB00YAqa
Host: googleads.g.doubleclick.net
sec-ch-ua: \"Not.A/Brand\";v=\"8\", \"Chromium\";v=\"114\"
sec-ch-ua-mobile: ?0
User-Agent: Mozilla/5.0 (X11; Linux x86_64) AppleWebKit/537.36 (KHTML, like Gecko) Chrome/114.0.0.0 Safari/537.36
sec-ch-ua-platform: \"Linux\"
Accept: image/avif,image/webp,image/apng,image/svg+xml,image/*,*/*;q=0.8
Sec-Fetch-Site: same-site
Sec-Fetch-Mode: no-cors
Sec-Fetch-Dest: image
Referer: https://8632166.fls.doubleclick.net/
Accept-Encoding: gzip, deflate, br
Accept-Language: en-US,en;q=0.9
----
--Response 
HTTP/1.1 302
p3p: policyref=\"https://googleads.g.doubleclick.net/pagead/gcn_p3p_.xml\", CP=\"CURa ADMa DEVa TAIo PSAo PSDo OUR IND UNI PUR INT DEM STA PRE COM NAV OTC NOI DSP COR\"
timing-allow-origin: *
cross-origin-resource-policy: cross-origin
date: Tue, 21 Nov 2023 07:10:18 GMT
pragma: no-cache
expires: Fri, 01 Jan 1990 00:00:00 GMT
cache-control: no-cache, must-revalidate
location: https://www.google.com/pagead/1p-conversion/746851823/?random=689421744&cv=9&fst=1700550618378&num=1&npa=1&label=FO9RCN7V-pQYEO-bkOQC&guid=ON&resp=GooglemKTybQhCsO&eid=375603260%2C466465925%2C512247838&u_h=575&u_w=1313&u_ah=575&u_aw=1313&u_cd=24&u_his=6&u_tz=-360&u_java=false&u_nplug=0&u_nmime=0&sendb=1&ig=1&frm=2&url=https%3A%2F%2F8632166.fls.doubleclick.net%2Fddm%2Ffls%2Fr%2Fdc_pre%3DCL3PktzE1IIDFTcPigMdRDcPPw%3Bsrc%3D8632166%3Btype%3Dlandi0%3Bcat%3Dunive0%3Bord%3D4312604249535%3Bauiddc%3D1181256846.1700550526%3Bu1%3DAdOps_Cart_All_Product%2520IDs%3Bu2%3D%2525AdOps_Cart_All_ProductName%2525%3Bu5%3D%2525AdOps_Cart_All_NumberOfItems%2525%3Bu10%3Dhttps%253A%252F%252Fwww.kohls.com%252Fcheckout%252Fv2%252Fcheckout.jsp%3Bu11%3Dcheckout%3Bu13%3DValue%3Bu23%3DNew%2520Customer%3Bu24%3D79613869088917606480426504271561296302%3Bu25%3Dd38e961d-eee7-4879-8340-ea94827e289a%3Bgtm%3D45fe3b81v9135074177%3Bgcd%3D11l1l1l1l1%3Bdma%3D0%3Buaa%3Dx86%3Bua&ref=https%3A%2F%2F8632166.fls.doubleclick.net%2F&hn=www.googleadservices.com&fmt=3&ct_cookie_present=false&sscte=1&crd=&pscrd=IhMIyaOh3MTUggMVnB9oCB00YAqa&is_vtc=1&ocp_id=2ldcZcnOGJy_oPMPtMCp0Ak&cid=CAQSGwDICaaNMN1EkPC4XMYPNraBSnwWhpUIhe2wAA&random=559950105&resp=GooglemKTybQhCsO
content-type: image/gif
x-content-type-options: nosniff
server: cafe
content-length: 42
x-xss-protection: 0
set-cookie: test_cookie=CheckForPermission; expires=Tue, 21-Nov-2023 07:25:18 GMT; path=/; domain=.doubleclick.net; Secure; SameSite=none
alt-svc: h3=\":443\"; ma=2592000,h3-29=\":443\"; ma=2592000
----
--Request 
GET https://www.google-analytics.com/collect?v=1&_v=j101&a=1270368632&t=event&ni=1&_s=5&dl=https%3A%2F%2Fwww.kohls.com%2Fcheckout%2Fv2%2Fcheckout.jsp&ul=en-us&de=UTF-8&dt=Checkout%20-%20Kohls.com&sd=24-bit&sr=1313x575&vp=1298x447&je=0&ec=DY%20Smart%20Action&ea=%5BDY%20Backend%5D%20Sign-in%2FSign-up%20events%20updated&el=Experience%201%20(Variation%201)&_u=SCCAgAABAAAAACAAI~&jid=&gjid=&cid=1527107996.1700550526&tid=UA-45121696-1&_gid=1528984642.1700550527&cd2=d38e961d-eee7-4879-8340-ea94827e289a&cd4=&z=1777459367
Host: www.google-analytics.com
sec-ch-ua: \"Not.A/Brand\";v=\"8\", \"Chromium\";v=\"114\"
sec-ch-ua-mobile: ?0
User-Agent: Mozilla/5.0 (X11; Linux x86_64) AppleWebKit/537.36 (KHTML, like Gecko) Chrome/114.0.0.0 Safari/537.36
sec-ch-ua-platform: \"Linux\"
Accept: image/avif,image/webp,image/apng,image/svg+xml,image/*,*/*;q=0.8
Sec-Fetch-Site: cross-site
Sec-Fetch-Mode: no-cors
Sec-Fetch-Dest: image
Referer: https://www.kohls.com/
Accept-Encoding: gzip, deflate, br
Accept-Language: en-US,en;q=0.9
----
--Response 
HTTP/1.1 200
access-control-allow-origin: *
pragma: no-cache
x-content-type-options: nosniff
cross-origin-resource-policy: cross-origin
server: Golfe2
content-length: 35
date: Tue, 21 Nov 2023 05:41:11 GMT
expires: Mon, 01 Jan 1990 00:00:00 GMT
cache-control: no-cache, no-store, must-revalidate
age: 5347
last-modified: Sun, 17 May 1998 03:00:00 GMT
content-type: image/gif
alt-svc: h3=\":443\"; ma=2592000,h3-29=\":443\"; ma=2592000
----
--Request 
GET https://www.google-analytics.com/collect?v=1&_v=j101&a=1270368632&t=event&ni=1&_s=6&dl=https%3A%2F%2Fwww.kohls.com%2Fcheckout%2Fv2%2Fcheckout.jsp&ul=en-us&de=UTF-8&dt=Checkout%20-%20Kohls.com&sd=24-bit&sr=1313x575&vp=1298x447&je=0&ec=DY%20Smart%20Action&ea=%5Bdy%20backend%5D%20aa%20vs%20dy&el=Experience%201%20(Variation%201)&_u=SCCAgAABAAAAACAAI~&jid=&gjid=&cid=1527107996.1700550526&tid=UA-45121696-1&_gid=1528984642.1700550527&cd2=d38e961d-eee7-4879-8340-ea94827e289a&cd4=&z=1470153698
Host: www.google-analytics.com
sec-ch-ua: \"Not.A/Brand\";v=\"8\", \"Chromium\";v=\"114\"
sec-ch-ua-mobile: ?0
User-Agent: Mozilla/5.0 (X11; Linux x86_64) AppleWebKit/537.36 (KHTML, like Gecko) Chrome/114.0.0.0 Safari/537.36
sec-ch-ua-platform: \"Linux\"
Accept: image/avif,image/webp,image/apng,image/svg+xml,image/*,*/*;q=0.8
Sec-Fetch-Site: cross-site
Sec-Fetch-Mode: no-cors
Sec-Fetch-Dest: image
Referer: https://www.kohls.com/
Accept-Encoding: gzip, deflate, br
Accept-Language: en-US,en;q=0.9
----
--Response 
HTTP/1.1 200
access-control-allow-origin: *
pragma: no-cache
x-content-type-options: nosniff
cross-origin-resource-policy: cross-origin
server: Golfe2
content-length: 35
date: Tue, 21 Nov 2023 05:41:11 GMT
expires: Mon, 01 Jan 1990 00:00:00 GMT
cache-control: no-cache, no-store, must-revalidate
age: 5347
last-modified: Sun, 17 May 1998 03:00:00 GMT
content-type: image/gif
alt-svc: h3=\":443\"; ma=2592000,h3-29=\":443\"; ma=2592000
----
--Request 
GET https://www.google-analytics.com/collect?v=1&_v=j101&a=1270368632&t=event&ni=1&_s=7&dl=https%3A%2F%2Fwww.kohls.com%2Fcheckout%2Fv2%2Fcheckout.jsp&ul=en-us&de=UTF-8&dt=Checkout%20-%20Kohls.com&sd=24-bit&sr=1313x575&vp=1298x447&je=0&ec=DY%20Smart%20Action&ea=%5BDY%20Backend%5D%20Listen%20to%20A2C&el=Experience%201%20(Variation%201)&_u=SCCAgAABAAAAACAAI~&jid=&gjid=&cid=1527107996.1700550526&tid=UA-45121696-1&_gid=1528984642.1700550527&cd2=d38e961d-eee7-4879-8340-ea94827e289a&cd4=&z=1216626656
Host: www.google-analytics.com
sec-ch-ua: \"Not.A/Brand\";v=\"8\", \"Chromium\";v=\"114\"
sec-ch-ua-mobile: ?0
User-Agent: Mozilla/5.0 (X11; Linux x86_64) AppleWebKit/537.36 (KHTML, like Gecko) Chrome/114.0.0.0 Safari/537.36
sec-ch-ua-platform: \"Linux\"
Accept: image/avif,image/webp,image/apng,image/svg+xml,image/*,*/*;q=0.8
Sec-Fetch-Site: cross-site
Sec-Fetch-Mode: no-cors
Sec-Fetch-Dest: image
Referer: https://www.kohls.com/
Accept-Encoding: gzip, deflate, br
Accept-Language: en-US,en;q=0.9
----
--Response 
HTTP/1.1 200
access-control-allow-origin: *
pragma: no-cache
x-content-type-options: nosniff
cross-origin-resource-policy: cross-origin
server: Golfe2
content-length: 35
date: Tue, 21 Nov 2023 05:41:11 GMT
expires: Mon, 01 Jan 1990 00:00:00 GMT
cache-control: no-cache, no-store, must-revalidate
age: 5347
last-modified: Sun, 17 May 1998 03:00:00 GMT
content-type: image/gif
alt-svc: h3=\":443\"; ma=2592000,h3-29=\":443\"; ma=2592000
----
--Request 
GET https://www.google-analytics.com/collect?v=1&_v=j101&a=1270368632&t=event&ni=1&_s=8&dl=https%3A%2F%2Fwww.kohls.com%2Fcheckout%2Fv2%2Fcheckout.jsp&ul=en-us&de=UTF-8&dt=Checkout%20-%20Kohls.com&sd=24-bit&sr=1313x575&vp=1298x447&je=0&ec=DY%20Smart%20Action&ea=Session%20duration%20%3E1%20min%20event%20(for%20audience)&el=Experience%201%20(Variation%201)&_u=SCCAgAABAAAAACAAI~&jid=&gjid=&cid=1527107996.1700550526&tid=UA-45121696-1&_gid=1528984642.1700550527&cd2=d38e961d-eee7-4879-8340-ea94827e289a&cd4=&z=146263268
Host: www.google-analytics.com
sec-ch-ua: \"Not.A/Brand\";v=\"8\", \"Chromium\";v=\"114\"
sec-ch-ua-mobile: ?0
User-Agent: Mozilla/5.0 (X11; Linux x86_64) AppleWebKit/537.36 (KHTML, like Gecko) Chrome/114.0.0.0 Safari/537.36
sec-ch-ua-platform: \"Linux\"
Accept: image/avif,image/webp,image/apng,image/svg+xml,image/*,*/*;q=0.8
Sec-Fetch-Site: cross-site
Sec-Fetch-Mode: no-cors
Sec-Fetch-Dest: image
Referer: https://www.kohls.com/
Accept-Encoding: gzip, deflate, br
Accept-Language: en-US,en;q=0.9
----
--Response 
HTTP/1.1 200
access-control-allow-origin: *
pragma: no-cache
x-content-type-options: nosniff
cross-origin-resource-policy: cross-origin
server: Golfe2
content-length: 35
date: Tue, 21 Nov 2023 05:41:11 GMT
expires: Mon, 01 Jan 1990 00:00:00 GMT
cache-control: no-cache, no-store, must-revalidate
age: 5347
last-modified: Sun, 17 May 1998 03:00:00 GMT
content-type: image/gif
alt-svc: h3=\":443\"; ma=2592000,h3-29=\":443\"; ma=2592000
----
--Request 
GET https://www.google-analytics.com/collect?v=1&_v=j101&a=1270368632&t=event&ni=1&_s=9&dl=https%3A%2F%2Fwww.kohls.com%2Fcheckout%2Fv2%2Fcheckout.jsp&ul=en-us&de=UTF-8&dt=Checkout%20-%20Kohls.com&sd=24-bit&sr=1313x575&vp=1298x447&je=0&ec=DY%20Smart%20Action&ea=Previous%20PVs%20over%201%20(for%20audience)&el=Experience%201%20(Variation%201)&_u=SCCAgAABAAAAACAAI~&jid=&gjid=&cid=1527107996.1700550526&tid=UA-45121696-1&_gid=1528984642.1700550527&cd2=d38e961d-eee7-4879-8340-ea94827e289a&cd4=&z=59215980
Host: www.google-analytics.com
sec-ch-ua: \"Not.A/Brand\";v=\"8\", \"Chromium\";v=\"114\"
sec-ch-ua-mobile: ?0
User-Agent: Mozilla/5.0 (X11; Linux x86_64) AppleWebKit/537.36 (KHTML, like Gecko) Chrome/114.0.0.0 Safari/537.36
sec-ch-ua-platform: \"Linux\"
Accept: image/avif,image/webp,image/apng,image/svg+xml,image/*,*/*;q=0.8
Sec-Fetch-Site: cross-site
Sec-Fetch-Mode: no-cors
Sec-Fetch-Dest: image
Referer: https://www.kohls.com/
Accept-Encoding: gzip, deflate, br
Accept-Language: en-US,en;q=0.9
----
--Response 
HTTP/1.1 200
access-control-allow-origin: *
pragma: no-cache
x-content-type-options: nosniff
cross-origin-resource-policy: cross-origin
server: Golfe2
content-length: 35
date: Tue, 21 Nov 2023 05:41:11 GMT
expires: Mon, 01 Jan 1990 00:00:00 GMT
cache-control: no-cache, no-store, must-revalidate
age: 5347
last-modified: Sun, 17 May 1998 03:00:00 GMT
content-type: image/gif
alt-svc: h3=\":443\"; ma=2592000,h3-29=\":443\"; ma=2592000
----
--Request 
GET https://www.google.com/pagead/1p-conversion/746851823/?random=689421744&cv=9&fst=1700550618378&num=1&npa=1&label=FO9RCN7V-pQYEO-bkOQC&guid=ON&resp=GooglemKTybQhCsO&eid=375603260%2C466465925%2C512247838&u_h=575&u_w=1313&u_ah=575&u_aw=1313&u_cd=24&u_his=6&u_tz=-360&u_java=false&u_nplug=0&u_nmime=0&sendb=1&ig=1&frm=2&url=https%3A%2F%2F8632166.fls.doubleclick.net%2Fddm%2Ffls%2Fr%2Fdc_pre%3DCL3PktzE1IIDFTcPigMdRDcPPw%3Bsrc%3D8632166%3Btype%3Dlandi0%3Bcat%3Dunive0%3Bord%3D4312604249535%3Bauiddc%3D1181256846.1700550526%3Bu1%3DAdOps_Cart_All_Product%2520IDs%3Bu2%3D%2525AdOps_Cart_All_ProductName%2525%3Bu5%3D%2525AdOps_Cart_All_NumberOfItems%2525%3Bu10%3Dhttps%253A%252F%252Fwww.kohls.com%252Fcheckout%252Fv2%252Fcheckout.jsp%3Bu11%3Dcheckout%3Bu13%3DValue%3Bu23%3DNew%2520Customer%3Bu24%3D79613869088917606480426504271561296302%3Bu25%3Dd38e961d-eee7-4879-8340-ea94827e289a%3Bgtm%3D45fe3b81v9135074177%3Bgcd%3D11l1l1l1l1%3Bdma%3D0%3Buaa%3Dx86%3Bua&ref=https%3A%2F%2F8632166.fls.doubleclick.net%2F&hn=www.googleadservices.com&fmt=3&ct_cookie_present=false&sscte=1&crd=&pscrd=IhMIyaOh3MTUggMVnB9oCB00YAqa&is_vtc=1&ocp_id=2ldcZcnOGJy_oPMPtMCp0Ak&cid=CAQSGwDICaaNMN1EkPC4XMYPNraBSnwWhpUIhe2wAA&random=559950105&resp=GooglemKTybQhCsO
Host: www.google.com
sec-ch-ua: \"Not.A/Brand\";v=\"8\", \"Chromium\";v=\"114\"
sec-ch-ua-mobile: ?0
User-Agent: Mozilla/5.0 (X11; Linux x86_64) AppleWebKit/537.36 (KHTML, like Gecko) Chrome/114.0.0.0 Safari/537.36
sec-ch-ua-platform: \"Linux\"
Accept: image/avif,image/webp,image/apng,image/svg+xml,image/*,*/*;q=0.8
Sec-Fetch-Site: cross-site
Sec-Fetch-Mode: no-cors
Sec-Fetch-Dest: image
Referer: https://8632166.fls.doubleclick.net/
Accept-Encoding: gzip, deflate, br
Accept-Language: en-US,en;q=0.9
----
--Response 
HTTP/1.1 200
p3p: policyref=\"https://www.googleadservices.com/pagead/p3p.xml\", CP=\"NOI DEV PSA PSD IVA IVD OTP OUR OTR IND OTC\"
timing-allow-origin: *
cross-origin-resource-policy: cross-origin
date: Tue, 21 Nov 2023 07:10:18 GMT
pragma: no-cache
expires: Fri, 01 Jan 1990 00:00:00 GMT
cache-control: no-cache, no-store, must-revalidate
content-type: image/gif
content-security-policy: script-src 'none'; object-src 'none'
x-content-type-options: nosniff
server: cafe
content-length: 42
x-xss-protection: 0
alt-svc: h3=\":443\"; ma=2592000,h3-29=\":443\"; ma=2592000
----
--Request 
GET https://d.impactradius-event.com/A375953-1cd4-4523-a263-b5b3c8c11fb81.js
Host: d.impactradius-event.com
sec-ch-ua: \"Not.A/Brand\";v=\"8\", \"Chromium\";v=\"114\"
sec-ch-ua-mobile: ?0
User-Agent: Mozilla/5.0 (X11; Linux x86_64) AppleWebKit/537.36 (KHTML, like Gecko) Chrome/114.0.0.0 Safari/537.36
sec-ch-ua-platform: \"Linux\"
Accept: */*
Sec-Fetch-Site: cross-site
Sec-Fetch-Mode: no-cors
Sec-Fetch-Dest: script
Referer: https://www.kohls.com/
Accept-Encoding: gzip, deflate, br
Accept-Language: en-US,en;q=0.9
----
--Response 
HTTP/1.1 200
x-guploader-uploadid: ABPtcPqojSS7e4rmwD0TRoLMRyRop4yB-jt_vllOeaoai4G4JuoXoyVlFlEmydDm285xAaR7s9ybevt6uOpcCfQSfQ8CwJhRT1CC
x-goog-generation: 1698771581843852
x-goog-metageneration: 1
x-goog-stored-content-encoding: gzip
x-goog-stored-content-length: 14133
content-encoding: gzip
x-goog-hash: crc32c=1zoUsg==
x-goog-hash: md5=+2/gWIezDh0uOzuPA5NUKw==
x-goog-storage-class: MULTI_REGIONAL
accept-ranges: bytes
content-length: 14133
access-control-allow-origin: *
server: UploadServer
date: Tue, 21 Nov 2023 07:04:55 GMT
expires: Tue, 21 Nov 2023 07:09:55 GMT
cache-control: public,max-age=900,s-maxage=300
age: 229
last-modified: Tue, 31 Oct 2023 16:59:41 GMT
etag: \"fb6fe05887b30e1d2e3b3b8f0393542b\"
content-type: text/javascript; charset=utf-8
vary: Accept-Encoding
alt-svc: h3=\":443\"; ma=2592000,h3-29=\":443\"; ma=2592000
----

