--Request 
POST https://t.pubmatic.com/wl?pubid=163274
Host: t.pubmatic.com
sec-ch-ua: \"Not.A/Brand\";v=\"8\", \"Chromium\";v=\"114\"
sec-ch-ua-platform: \"Linux\"
sec-ch-ua-mobile: ?0
User-Agent: Mozilla/5.0 (X11; Linux x86_64) AppleWebKit/537.36 (KHTML, like Gecko) Chrome/114.0.0.0 Safari/537.36
Content-Type: application/x-www-form-urlencoded
Accept: */*
Origin: https://www.kohls.com
Sec-Fetch-Site: cross-site
Sec-Fetch-Mode: cors
Sec-Fetch-Dest: empty
Referer: https://www.kohls.com/
Accept-Encoding: gzip, deflate, br
Accept-Language: en-US,en;q=0.9
----
--Response 
HTTP/1.1 200
access-control-allow-credentials: true
access-control-allow-origin: https://www.kohls.com
cache-control: no-cache, no-store, must-revalidate
expires: 0
pragma: no-cache
date: Tue, 21 Nov 2023 07:09:22 GMT
content-length: 17
content-type: text/plain; charset=utf-8
----
--Request 
GET https://www.google-analytics.com/collect?v=1&_v=j101&a=677087612&t=event&ni=1&_s=2&dl=https%3A%2F%2Fwww.kohls.com%2Fcatalog%2Fwomens-sweaters-tops-clothing.jsp%3FCN%3DGender%3AWomens%2BProduct%3ASweaters%2BCategory%3ATops%2BDepartment%3AClothing%2BAssortment%3AKohls%2520Black%2520Friday%26BST%3D6262123%3A6237310%3A6149518%3A6125449%3A6149518%3A6176056%3A6119381%3A6438581%3A6143395%3A6125326%3A4922640%3A6169493%26icid%3Dhpmf-BF-offer-womenssweaters-vlhd26%26kls_sbp%3D79613869088917606480426504271561296302&ul=en-us&de=UTF-8&dt=Womens%20Sweaters%20-%20Tops%2C%20Clothing%20%7C%20Kohl%27s&sd=24-bit&sr=1313x575&vp=1298x447&je=0&ec=DY%20Smart%20Action&ea=Event%20for%20Non-bounce&el=No%20Bounce%20Event%20(No%20Bounce%20Event)&_u=SCCAgAABAAAAACAAI~&jid=&gjid=&cid=1527107996.1700550526&tid=UA-45121696-1&_gid=1528984642.1700550527&cd2=d38e961d-eee7-4879-8340-ea94827e289a&cd4=&z=1927189515
Host: www.google-analytics.com
sec-ch-ua: \"Not.A/Brand\";v=\"8\", \"Chromium\";v=\"114\"
sec-ch-ua-mobile: ?0
User-Agent: Mozilla/5.0 (X11; Linux x86_64) AppleWebKit/537.36 (KHTML, like Gecko) Chrome/114.0.0.0 Safari/537.36
sec-ch-ua-platform: \"Linux\"
Accept: image/avif,image/webp,image/apng,image/svg+xml,image/*,*/*;q=0.8
Sec-Fetch-Site: cross-site
Sec-Fetch-Mode: no-cors
Sec-Fetch-Dest: image
Referer: https://www.kohls.com/
Accept-Encoding: gzip, deflate, br
Accept-Language: en-US,en;q=0.9
----
--Response 
HTTP/1.1 200
access-control-allow-origin: *
pragma: no-cache
x-content-type-options: nosniff
cross-origin-resource-policy: cross-origin
server: Golfe2
content-length: 35
date: Tue, 21 Nov 2023 04:47:31 GMT
expires: Mon, 01 Jan 1990 00:00:00 GMT
cache-control: no-cache, no-store, must-revalidate
age: 8511
last-modified: Sun, 17 May 1998 03:00:00 GMT
content-type: image/gif
alt-svc: h3=\":443\"; ma=2592000,h3-29=\":443\"; ma=2592000
----
--Request 
GET https://www.google-analytics.com/collect?v=1&_v=j101&a=677087612&t=event&ni=1&_s=3&dl=https%3A%2F%2Fwww.kohls.com%2Fcatalog%2Fwomens-sweaters-tops-clothing.jsp%3FCN%3DGender%3AWomens%2BProduct%3ASweaters%2BCategory%3ATops%2BDepartment%3AClothing%2BAssortment%3AKohls%2520Black%2520Friday%26BST%3D6262123%3A6237310%3A6149518%3A6125449%3A6149518%3A6176056%3A6119381%3A6438581%3A6143395%3A6125326%3A4922640%3A6169493%26icid%3Dhpmf-BF-offer-womenssweaters-vlhd26%26kls_sbp%3D79613869088917606480426504271561296302&ul=en-us&de=UTF-8&dt=Womens%20Sweaters%20-%20Tops%2C%20Clothing%20%7C%20Kohl%27s&sd=24-bit&sr=1313x575&vp=1298x447&je=0&ec=DY%20Smart%20Action&ea=Previous%20PVs%20over%201%20(for%20audience)&el=Experience%201%20(Variation%201)&_u=SCCAgAABAAAAACAAI~&jid=&gjid=&cid=1527107996.1700550526&tid=UA-45121696-1&_gid=1528984642.1700550527&cd2=d38e961d-eee7-4879-8340-ea94827e289a&cd4=&z=2038351683
Host: www.google-analytics.com
sec-ch-ua: \"Not.A/Brand\";v=\"8\", \"Chromium\";v=\"114\"
sec-ch-ua-mobile: ?0
User-Agent: Mozilla/5.0 (X11; Linux x86_64) AppleWebKit/537.36 (KHTML, like Gecko) Chrome/114.0.0.0 Safari/537.36
sec-ch-ua-platform: \"Linux\"
Accept: image/avif,image/webp,image/apng,image/svg+xml,image/*,*/*;q=0.8
Sec-Fetch-Site: cross-site
Sec-Fetch-Mode: no-cors
Sec-Fetch-Dest: image
Referer: https://www.kohls.com/
Accept-Encoding: gzip, deflate, br
Accept-Language: en-US,en;q=0.9
----
--Response 
HTTP/1.1 200
access-control-allow-origin: *
pragma: no-cache
x-content-type-options: nosniff
cross-origin-resource-policy: cross-origin
server: Golfe2
content-length: 35
date: Tue, 21 Nov 2023 04:47:31 GMT
expires: Mon, 01 Jan 1990 00:00:00 GMT
cache-control: no-cache, no-store, must-revalidate
age: 8511
last-modified: Sun, 17 May 1998 03:00:00 GMT
content-type: image/gif
alt-svc: h3=\":443\"; ma=2592000,h3-29=\":443\"; ma=2592000
----
--Request 
GET https://www.google-analytics.com/collect?v=1&_v=j101&a=677087612&t=event&ni=1&_s=4&dl=https%3A%2F%2Fwww.kohls.com%2Fcatalog%2Fwomens-sweaters-tops-clothing.jsp%3FCN%3DGender%3AWomens%2BProduct%3ASweaters%2BCategory%3ATops%2BDepartment%3AClothing%2BAssortment%3AKohls%2520Black%2520Friday%26BST%3D6262123%3A6237310%3A6149518%3A6125449%3A6149518%3A6176056%3A6119381%3A6438581%3A6143395%3A6125326%3A4922640%3A6169493%26icid%3Dhpmf-BF-offer-womenssweaters-vlhd26%26kls_sbp%3D79613869088917606480426504271561296302&ul=en-us&de=UTF-8&dt=Womens%20Sweaters%20-%20Tops%2C%20Clothing%20%7C%20Kohl%27s&sd=24-bit&sr=1313x575&vp=1298x447&je=0&ec=DY%20Smart%20Action&ea=%5BDY%20Backend%5D%20Adding%20cookie%20to%20HP%20Deep%20learning%20Recs&el=Experience%201%20(Variation%201)&_u=SCCAgAABAAAAACAAI~&jid=&gjid=&cid=1527107996.1700550526&tid=UA-45121696-1&_gid=1528984642.1700550527&cd2=d38e961d-eee7-4879-8340-ea94827e289a&cd4=&z=2092312886
Host: www.google-analytics.com
sec-ch-ua: \"Not.A/Brand\";v=\"8\", \"Chromium\";v=\"114\"
sec-ch-ua-mobile: ?0
User-Agent: Mozilla/5.0 (X11; Linux x86_64) AppleWebKit/537.36 (KHTML, like Gecko) Chrome/114.0.0.0 Safari/537.36
sec-ch-ua-platform: \"Linux\"
Accept: image/avif,image/webp,image/apng,image/svg+xml,image/*,*/*;q=0.8
Sec-Fetch-Site: cross-site
Sec-Fetch-Mode: no-cors
Sec-Fetch-Dest: image
Referer: https://www.kohls.com/
Accept-Encoding: gzip, deflate, br
Accept-Language: en-US,en;q=0.9
----
--Response 
HTTP/1.1 200
access-control-allow-origin: *
pragma: no-cache
x-content-type-options: nosniff
cross-origin-resource-policy: cross-origin
server: Golfe2
content-length: 35
date: Tue, 21 Nov 2023 04:47:31 GMT
expires: Mon, 01 Jan 1990 00:00:00 GMT
cache-control: no-cache, no-store, must-revalidate
age: 8511
last-modified: Sun, 17 May 1998 03:00:00 GMT
content-type: image/gif
alt-svc: h3=\":443\"; ma=2592000,h3-29=\":443\"; ma=2592000
----
--Request 
GET https://ce.lijit.com/beacon?informer=13450992&gdpr_consent=&us_privacy=&gpp=&gpp_sid=&dnr=1
Host: ce.lijit.com
Upgrade-Insecure-Requests: 1
User-Agent: Mozilla/5.0 (X11; Linux x86_64) AppleWebKit/537.36 (KHTML, like Gecko) Chrome/114.0.0.0 Safari/537.36
Accept: text/html,application/xhtml+xml,application/xml;q=0.9,image/avif,image/webp,image/apng,*/*;q=0.8,application/signed-exchange;v=b3;q=0.7
Sec-Fetch-Site: cross-site
Sec-Fetch-Mode: navigate
Sec-Fetch-Dest: iframe
sec-ch-ua: \"Not.A/Brand\";v=\"8\", \"Chromium\";v=\"114\"
sec-ch-ua-mobile: ?0
sec-ch-ua-platform: \"Linux\"
Referer: https://5e8b98c9055e7bfb82b7a7f9f595ce67.safeframe.googlesyndication.com/
Accept-Encoding: gzip, deflate, br
Accept-Language: en-US,en;q=0.9
----
--Response 
HTTP/1.1 204 No Content
Date: Tue, 21 Nov 2023 07:09:22 GMT
Set-Cookie: ljt_reader=HsSthNZHNeN9P40UTJaUZo5i; Path=/; Domain=.lijit.com; Expires=Wed, 20-Nov-2024 07:09:22 GMT; Max-Age=31536000;Secure;SameSite=None
Expires: Fri, 20 Mar 2009 00:00:00 GMT
Cache-Control: private, no-cache, no-store, must-revalidate, proxy-revalidate, max-age=0, s-maxage=0
Pragma: no-cache
P3P: CP=\"CUR ADM OUR NOR STA NID\"
X-Sovrn-Pod: ad_ap1dca1
----
--Request 
GET https://www.google-analytics.com/collect?v=1&_v=j101&a=677087612&t=event&ni=1&_s=5&dl=https%3A%2F%2Fwww.kohls.com%2Fcatalog%2Fwomens-sweaters-tops-clothing.jsp%3FCN%3DGender%3AWomens%2BProduct%3ASweaters%2BCategory%3ATops%2BDepartment%3AClothing%2BAssortment%3AKohls%2520Black%2520Friday%26BST%3D6262123%3A6237310%3A6149518%3A6125449%3A6149518%3A6176056%3A6119381%3A6438581%3A6143395%3A6125326%3A4922640%3A6169493%26icid%3Dhpmf-BF-offer-womenssweaters-vlhd26%26kls_sbp%3D79613869088917606480426504271561296302&ul=en-us&de=UTF-8&dt=Womens%20Sweaters%20-%20Tops%2C%20Clothing%20%7C%20Kohl%27s&sd=24-bit&sr=1313x575&vp=1298x447&je=0&ec=DY%20Smart%20Action&ea=%5BDY%20Backend%5D%20-%20Event%20for%20Rewards%20Enrollment&el=Experience%201%20(Variation%201)&_u=SCCAgAABAAAAACAAI~&jid=&gjid=&cid=1527107996.1700550526&tid=UA-45121696-1&_gid=1528984642.1700550527&cd2=d38e961d-eee7-4879-8340-ea94827e289a&cd4=&z=701950565
Host: www.google-analytics.com
sec-ch-ua: \"Not.A/Brand\";v=\"8\", \"Chromium\";v=\"114\"
sec-ch-ua-mobile: ?0
User-Agent: Mozilla/5.0 (X11; Linux x86_64) AppleWebKit/537.36 (KHTML, like Gecko) Chrome/114.0.0.0 Safari/537.36
sec-ch-ua-platform: \"Linux\"
Accept: image/avif,image/webp,image/apng,image/svg+xml,image/*,*/*;q=0.8
Sec-Fetch-Site: cross-site
Sec-Fetch-Mode: no-cors
Sec-Fetch-Dest: image
Referer: https://www.kohls.com/
Accept-Encoding: gzip, deflate, br
Accept-Language: en-US,en;q=0.9
----
--Response 
HTTP/1.1 200
access-control-allow-origin: *
pragma: no-cache
x-content-type-options: nosniff
cross-origin-resource-policy: cross-origin
server: Golfe2
content-length: 35
date: Tue, 21 Nov 2023 04:47:31 GMT
expires: Mon, 01 Jan 1990 00:00:00 GMT
cache-control: no-cache, no-store, must-revalidate
age: 8511
last-modified: Sun, 17 May 1998 03:00:00 GMT
content-type: image/gif
alt-svc: h3=\":443\"; ma=2592000,h3-29=\":443\"; ma=2592000
----
--Request 
GET https://www.google-analytics.com/collect?v=1&_v=j101&a=677087612&t=event&ni=1&_s=6&dl=https%3A%2F%2Fwww.kohls.com%2Fcatalog%2Fwomens-sweaters-tops-clothing.jsp%3FCN%3DGender%3AWomens%2BProduct%3ASweaters%2BCategory%3ATops%2BDepartment%3AClothing%2BAssortment%3AKohls%2520Black%2520Friday%26BST%3D6262123%3A6237310%3A6149518%3A6125449%3A6149518%3A6176056%3A6119381%3A6438581%3A6143395%3A6125326%3A4922640%3A6169493%26icid%3Dhpmf-BF-offer-womenssweaters-vlhd26%26kls_sbp%3D79613869088917606480426504271561296302&ul=en-us&de=UTF-8&dt=Womens%20Sweaters%20-%20Tops%2C%20Clothing%20%7C%20Kohl%27s&sd=24-bit&sr=1313x575&vp=1298x447&je=0&ec=DY%20Smart%20Action&ea=%5BDY%20Backend%5D%20-%20Home%20Store%20ID&el=Experience%201%20(Variation%201)&_u=SCCAgAABAAAAACAAI~&jid=&gjid=&cid=1527107996.1700550526&tid=UA-45121696-1&_gid=1528984642.1700550527&cd2=d38e961d-eee7-4879-8340-ea94827e289a&cd4=&z=1744322996
Host: www.google-analytics.com
sec-ch-ua: \"Not.A/Brand\";v=\"8\", \"Chromium\";v=\"114\"
sec-ch-ua-mobile: ?0
User-Agent: Mozilla/5.0 (X11; Linux x86_64) AppleWebKit/537.36 (KHTML, like Gecko) Chrome/114.0.0.0 Safari/537.36
sec-ch-ua-platform: \"Linux\"
Accept: image/avif,image/webp,image/apng,image/svg+xml,image/*,*/*;q=0.8
Sec-Fetch-Site: cross-site
Sec-Fetch-Mode: no-cors
Sec-Fetch-Dest: image
Referer: https://www.kohls.com/
Accept-Encoding: gzip, deflate, br
Accept-Language: en-US,en;q=0.9
----
--Response 
HTTP/1.1 200
access-control-allow-origin: *
pragma: no-cache
x-content-type-options: nosniff
cross-origin-resource-policy: cross-origin
server: Golfe2
content-length: 35
date: Tue, 21 Nov 2023 04:47:31 GMT
expires: Mon, 01 Jan 1990 00:00:00 GMT
cache-control: no-cache, no-store, must-revalidate
age: 8511
last-modified: Sun, 17 May 1998 03:00:00 GMT
content-type: image/gif
alt-svc: h3=\":443\"; ma=2592000,h3-29=\":443\"; ma=2592000
----
--Request 
GET https://www.google-analytics.com/collect?v=1&_v=j101&a=677087612&t=event&ni=1&_s=7&dl=https%3A%2F%2Fwww.kohls.com%2Fcatalog%2Fwomens-sweaters-tops-clothing.jsp%3FCN%3DGender%3AWomens%2BProduct%3ASweaters%2BCategory%3ATops%2BDepartment%3AClothing%2BAssortment%3AKohls%2520Black%2520Friday%26BST%3D6262123%3A6237310%3A6149518%3A6125449%3A6149518%3A6176056%3A6119381%3A6438581%3A6143395%3A6125326%3A4922640%3A6169493%26icid%3Dhpmf-BF-offer-womenssweaters-vlhd26%26kls_sbp%3D79613869088917606480426504271561296302&ul=en-us&de=UTF-8&dt=Womens%20Sweaters%20-%20Tops%2C%20Clothing%20%7C%20Kohl%27s&sd=24-bit&sr=1313x575&vp=1298x447&je=0&ec=DY%20Smart%20Action&ea=%5BDY%20Backend%5D%20Sign-in%2FSign-up%20events%20updated&el=Experience%201%20(Variation%201)&_u=SCCAgAABAAAAACAAI~&jid=&gjid=&cid=1527107996.1700550526&tid=UA-45121696-1&_gid=1528984642.1700550527&cd2=d38e961d-eee7-4879-8340-ea94827e289a&cd4=&z=1632472937
Host: www.google-analytics.com
sec-ch-ua: \"Not.A/Brand\";v=\"8\", \"Chromium\";v=\"114\"
sec-ch-ua-mobile: ?0
User-Agent: Mozilla/5.0 (X11; Linux x86_64) AppleWebKit/537.36 (KHTML, like Gecko) Chrome/114.0.0.0 Safari/537.36
sec-ch-ua-platform: \"Linux\"
Accept: image/avif,image/webp,image/apng,image/svg+xml,image/*,*/*;q=0.8
Sec-Fetch-Site: cross-site
Sec-Fetch-Mode: no-cors
Sec-Fetch-Dest: image
Referer: https://www.kohls.com/
Accept-Encoding: gzip, deflate, br
Accept-Language: en-US,en;q=0.9
----
--Response 
HTTP/1.1 200
access-control-allow-origin: *
pragma: no-cache
x-content-type-options: nosniff
cross-origin-resource-policy: cross-origin
server: Golfe2
content-length: 35
date: Tue, 21 Nov 2023 04:47:31 GMT
expires: Mon, 01 Jan 1990 00:00:00 GMT
cache-control: no-cache, no-store, must-revalidate
age: 8511
last-modified: Sun, 17 May 1998 03:00:00 GMT
content-type: image/gif
alt-svc: h3=\":443\"; ma=2592000,h3-29=\":443\"; ma=2592000
----
--Request 
GET https://www.google-analytics.com/collect?v=1&_v=j101&a=677087612&t=event&ni=1&_s=8&dl=https%3A%2F%2Fwww.kohls.com%2Fcatalog%2Fwomens-sweaters-tops-clothing.jsp%3FCN%3DGender%3AWomens%2BProduct%3ASweaters%2BCategory%3ATops%2BDepartment%3AClothing%2BAssortment%3AKohls%2520Black%2520Friday%26BST%3D6262123%3A6237310%3A6149518%3A6125449%3A6149518%3A6176056%3A6119381%3A6438581%3A6143395%3A6125326%3A4922640%3A6169493%26icid%3Dhpmf-BF-offer-womenssweaters-vlhd26%26kls_sbp%3D79613869088917606480426504271561296302&ul=en-us&de=UTF-8&dt=Womens%20Sweaters%20-%20Tops%2C%20Clothing%20%7C%20Kohl%27s&sd=24-bit&sr=1313x575&vp=1298x447&je=0&ec=DY%20Smart%20Action&ea=%5Bdy%20backend%5D%20aa%20vs%20dy&el=Experience%201%20(Variation%201)&_u=SCCAgAABAAAAACAAI~&jid=&gjid=&cid=1527107996.1700550526&tid=UA-45121696-1&_gid=1528984642.1700550527&cd2=d38e961d-eee7-4879-8340-ea94827e289a&cd4=&z=1482725492
Host: www.google-analytics.com
sec-ch-ua: \"Not.A/Brand\";v=\"8\", \"Chromium\";v=\"114\"
sec-ch-ua-mobile: ?0
User-Agent: Mozilla/5.0 (X11; Linux x86_64) AppleWebKit/537.36 (KHTML, like Gecko) Chrome/114.0.0.0 Safari/537.36
sec-ch-ua-platform: \"Linux\"
Accept: image/avif,image/webp,image/apng,image/svg+xml,image/*,*/*;q=0.8
Sec-Fetch-Site: cross-site
Sec-Fetch-Mode: no-cors
Sec-Fetch-Dest: image
Referer: https://www.kohls.com/
Accept-Encoding: gzip, deflate, br
Accept-Language: en-US,en;q=0.9
----
--Response 
HTTP/1.1 200
access-control-allow-origin: *
pragma: no-cache
x-content-type-options: nosniff
cross-origin-resource-policy: cross-origin
server: Golfe2
content-length: 35
date: Tue, 21 Nov 2023 04:47:31 GMT
expires: Mon, 01 Jan 1990 00:00:00 GMT
cache-control: no-cache, no-store, must-revalidate
age: 8511
last-modified: Sun, 17 May 1998 03:00:00 GMT
content-type: image/gif
alt-svc: h3=\":443\"; ma=2592000,h3-29=\":443\"; ma=2592000
----
--Request 
GET https://www.google-analytics.com/collect?v=1&_v=j101&a=677087612&t=event&ni=1&_s=9&dl=https%3A%2F%2Fwww.kohls.com%2Fcatalog%2Fwomens-sweaters-tops-clothing.jsp%3FCN%3DGender%3AWomens%2BProduct%3ASweaters%2BCategory%3ATops%2BDepartment%3AClothing%2BAssortment%3AKohls%2520Black%2520Friday%26BST%3D6262123%3A6237310%3A6149518%3A6125449%3A6149518%3A6176056%3A6119381%3A6438581%3A6143395%3A6125326%3A4922640%3A6169493%26icid%3Dhpmf-BF-offer-womenssweaters-vlhd26%26kls_sbp%3D79613869088917606480426504271561296302&ul=en-us&de=UTF-8&dt=Womens%20Sweaters%20-%20Tops%2C%20Clothing%20%7C%20Kohl%27s&sd=24-bit&sr=1313x575&vp=1298x447&je=0&ec=DY%20Smart%20Action&ea=%5BDY%20Backend%5D%20Listen%20to%20A2C&el=Experience%201%20(Variation%201)&_u=SCCAgAABAAAAACAAI~&jid=&gjid=&cid=1527107996.1700550526&tid=UA-45121696-1&_gid=1528984642.1700550527&cd2=d38e961d-eee7-4879-8340-ea94827e289a&cd4=&z=1106761522
Host: www.google-analytics.com
sec-ch-ua: \"Not.A/Brand\";v=\"8\", \"Chromium\";v=\"114\"
sec-ch-ua-mobile: ?0
User-Agent: Mozilla/5.0 (X11; Linux x86_64) AppleWebKit/537.36 (KHTML, like Gecko) Chrome/114.0.0.0 Safari/537.36
sec-ch-ua-platform: \"Linux\"
Accept: image/avif,image/webp,image/apng,image/svg+xml,image/*,*/*;q=0.8
Sec-Fetch-Site: cross-site
Sec-Fetch-Mode: no-cors
Sec-Fetch-Dest: image
Referer: https://www.kohls.com/
Accept-Encoding: gzip, deflate, br
Accept-Language: en-US,en;q=0.9
----
--Response 
HTTP/1.1 200
access-control-allow-origin: *
pragma: no-cache
x-content-type-options: nosniff
cross-origin-resource-policy: cross-origin
server: Golfe2
content-length: 35
date: Tue, 21 Nov 2023 04:47:31 GMT
expires: Mon, 01 Jan 1990 00:00:00 GMT
cache-control: no-cache, no-store, must-revalidate
age: 8511
last-modified: Sun, 17 May 1998 03:00:00 GMT
content-type: image/gif
alt-svc: h3=\":443\"; ma=2592000,h3-29=\":443\"; ma=2592000
----
--Request 
GET https://cdn.taboola.com/libtrc/unip/1456663/tfa.js
Host: cdn.taboola.com
sec-ch-ua: \"Not.A/Brand\";v=\"8\", \"Chromium\";v=\"114\"
sec-ch-ua-mobile: ?0
User-Agent: Mozilla/5.0 (X11; Linux x86_64) AppleWebKit/537.36 (KHTML, like Gecko) Chrome/114.0.0.0 Safari/537.36
sec-ch-ua-platform: \"Linux\"
Accept: */*
Sec-Fetch-Site: cross-site
Sec-Fetch-Mode: no-cors
Sec-Fetch-Dest: script
Referer: https://www.kohls.com/
Accept-Encoding: gzip, deflate, br
Accept-Language: en-US,en;q=0.9
Cookie: t_pt_gid=e1309b8b-4e65-4c76-8ca5-bea736c3ef37-tuctc55dcff
----
--Response 
HTTP/1.1 200
x-amz-id-2: rcEiL3kJWzFOdQOfVAOFVwMrp2H0L7kvfjqfWnOYU1pCd4l/zoupgt6wZ6HBaTgAgGg/4Wnboyk=
x-amz-request-id: R7X1WP67FBFNAC4H
x-amz-replication-status: PENDING
last-modified: Sun, 19 Nov 2023 11:50:48 GMT
etag: \"023406f475def2d13462833c6f9bcafd\"
x-amz-server-side-encryption: AES256
x-amz-version-id: oAlAvmK9b0TWlTgxmZ.6sXCPu6qzRtH9
content-type: application/javascript; charset=utf-8
server: AmazonS3
content-encoding: gzip
accept-ranges: bytes
date: Tue, 21 Nov 2023 07:08:47 GMT
via: 1.1 varnish
age: 118
x-served-by: cache-ewr18142-EWR
x-cache: HIT
x-cache-hits: 1
x-timer: S1700550527.420570,VS0,VE1
cache-control: private,max-age=14401
vary: Accept-Encoding
abp: 71
access-control-allow-origin: *
content-length: 23526
----
--Request 
GET https://d.impactradius-event.com/A375953-1cd4-4523-a263-b5b3c8c11fb81.js
Host: d.impactradius-event.com
sec-ch-ua: \"Not.A/Brand\";v=\"8\", \"Chromium\";v=\"114\"
sec-ch-ua-mobile: ?0
User-Agent: Mozilla/5.0 (X11; Linux x86_64) AppleWebKit/537.36 (KHTML, like Gecko) Chrome/114.0.0.0 Safari/537.36
sec-ch-ua-platform: \"Linux\"
Accept: */*
Sec-Fetch-Site: cross-site
Sec-Fetch-Mode: no-cors
Sec-Fetch-Dest: script
Referer: https://www.kohls.com/
Accept-Encoding: gzip, deflate, br
Accept-Language: en-US,en;q=0.9
----
--Response 
HTTP/1.1 200
x-guploader-uploadid: ABPtcPqojSS7e4rmwD0TRoLMRyRop4yB-jt_vllOeaoai4G4JuoXoyVlFlEmydDm285xAaR7s9ybevt6uOpcCfQSfQ8CwJhRT1CC
x-goog-generation: 1698771581843852
x-goog-metageneration: 1
x-goog-stored-content-encoding: gzip
x-goog-stored-content-length: 14133
content-encoding: gzip
x-goog-hash: crc32c=1zoUsg==
x-goog-hash: md5=+2/gWIezDh0uOzuPA5NUKw==
x-goog-storage-class: MULTI_REGIONAL
accept-ranges: bytes
content-length: 14133
access-control-allow-origin: *
server: UploadServer
date: Tue, 21 Nov 2023 07:04:55 GMT
expires: Tue, 21 Nov 2023 07:09:55 GMT
cache-control: public,max-age=900,s-maxage=300
age: 229
last-modified: Tue, 31 Oct 2023 16:59:41 GMT
etag: \"fb6fe05887b30e1d2e3b3b8f0393542b\"
content-type: text/javascript; charset=utf-8
vary: Accept-Encoding
alt-svc: h3=\":443\"; ma=2592000,h3-29=\":443\"; ma=2592000
----
--Request 
GET https://assets.adobedtm.com/6d2e783bbfe3/c0c47c5c96c6/7a8648cd60a8/RC78f1e607751b4b2790b9ec6515c22fcc-source.min.js
Host: assets.adobedtm.com
sec-ch-ua: \"Not.A/Brand\";v=\"8\", \"Chromium\";v=\"114\"
sec-ch-ua-mobile: ?0
User-Agent: Mozilla/5.0 (X11; Linux x86_64) AppleWebKit/537.36 (KHTML, like Gecko) Chrome/114.0.0.0 Safari/537.36
sec-ch-ua-platform: \"Linux\"
Accept: */*
Sec-Fetch-Site: cross-site
Sec-Fetch-Mode: no-cors
Sec-Fetch-Dest: script
Referer: https://www.kohls.com/
Accept-Encoding: gzip, deflate, br
Accept-Language: en-US,en;q=0.9
----
--Response 
HTTP/1.1 200
accept-ranges: bytes
content-type: application/x-javascript
etag: \"c3f8eea087eda271fe3a803f1d4cfa06:1700078393.11621\"
last-modified: Wed, 15 Nov 2023 19:59:53 GMT
server: AkamaiNetStorage
vary: Accept-Encoding
content-encoding: gzip
content-length: 571
cache-control: max-age=3600
expires: Tue, 21 Nov 2023 08:09:23 GMT
date: Tue, 21 Nov 2023 07:09:23 GMT
access-control-allow-origin: https://www.kohls.com
timing-allow-origin: *
----

