--Request 
POST https://www.kohls.com/piq/monetization/multi
Host: www.kohls.com
sec-ch-ua: \"Not.A/Brand\";v=\"8\", \"Chromium\";v=\"114\"
accept: application/json
content-type: application/json
correlation-id: KMNUI-6dbb3d81-d713-4a22-8306-e2c892eaa952
sec-ch-ua-mobile: ?0
User-Agent: Mozilla/5.0 (X11; Linux x86_64) AppleWebKit/537.36 (KHTML, like Gecko) Chrome/114.0.0.0 Safari/537.36
sec-ch-ua-platform: \"Linux\"
Origin: https://www.kohls.com
Sec-Fetch-Site: same-origin
Sec-Fetch-Mode: cors
Sec-Fetch-Dest: empty
Referer: https://www.kohls.com/catalog/womens-sweaters-tops-clothing.jsp?CN=Gender:Womens+Product:Sweaters+Category:Tops+Department:Clothing+Assortment:Kohls%20Black%20Friday&BST=6262123:6237310:6149518:6125449:6149518:6176056:6119381:6438581:6143395:6125326:4922640:6169493&icid=hpmf-BF-offer-womenssweaters-vlhd26&kls_sbp=79613869088917606480426504271561296302
Accept-Encoding: gzip, deflate, br
Accept-Language: en-US,en;q=0.9
Cookie: store_location=14201; akaalb_aem_homepage=~op=aem_production:aem_production|~rv=79~m=aem_production:0|~os=554fb49c1bda6073578f281b62264a0e~id=e5d8d097120eff09512a425189fcc66f; AKA_HP2Redesign=True; AKA_PIQ=True; AKA_ACM=True; AKA_CDP2=True; AKA_STP=false; AKA_PDP2=True; AKA_HP2=True; AKA_CNC2=True; AKA_RV6=12; AKA_RV8=72; AKA_RV4=57; AKA_RV5=23; AKA_RV3=95; AKA_RV=96; AKA_RV2=35; akacd_www-kohls-com-mosaic-p2=2177452799~rv=61~id=f2bfd608ff6bd75e278febb90f5bdcd7; at_check=true; s_ecid=MCMID%7C79613869088917606480426504271561296302; AMCVS_F0EF5E09512D2CD20A490D4D%40AdobeOrg=1; mboxEdgeCluster=35; AMCV_F0EF5E09512D2CD20A490D4D%40AdobeOrg=1585540135%7CMCIDTS%7C19683%7CMCMID%7C79613869088917606480426504271561296302%7CMCAID%7CNONE%7CMCOPTOUT-1700557721s%7CNONE%7CMCAAMLH-1701155321%7C7%7CMCAAMB-1701155321%7Cj8Odv6LonN4r3an7LhD3WZrU1bUpAkFkkiY1ncBR96t2PTI%7CMCSYNCS%7C1083-19690*1085-19690*1086-19690*1087-19690*1088-19690%7CMCSYNCSOP%7C411-19690%7CvVersion%7C4.4.0; rxVisitor=170055052197696JCFOBUP2E8LGBETNI04FF2IPU7PHBL; X-SESSIONID=d38e961d-eee7-4879-8340-ea94827e289a; VisitorId=d38e961d-eee7-4879-8340-ea94827e289a; K_favstore=14216|1306|BUFFALO|geo|sephora; spa=4; _dy_csc_ses=t; _dy_c_exps=; gpv_v9=Homepage; s_cc=true; _dycnst=dg; _uetsid=ce3c5ea0883c11ee858a29be7baeeb0f; _uetvid=ce3cb6c0883c11ee9c5d21bc71586f02; fp_client={%22id%22:%2229475071191700550523%22}; fp_session={%22i%22:%2288215330731700550523%22%2C%22d%22:1}; _dyid=-2796735126378358917; _dyfs=1700550523505; _dyjsession=cdc731762c4fbfb825c00a0125c71e79; dy_fs_page=www.kohls.com; _dy_lu_ses=cdc731762c4fbfb825c00a0125c71e79%3A1700550523506; _dycst=dk.l.c.ms.; _dy_geo=US.NA.US_MI.US_MI_Detroit; _dy_df_geo=United%20States.Michigan.Detroit; _dy_toffset=0; _rmt_an_idt=0; _mibhv=anon-1700550524031-5332320748_8212; _cs_c=0; IR_gbd=kohls.com; IR_5349=1700550524310%7C385561%7C1700550524310%7C%7C; _cs_cvars=%7B%221%22%3A%5B%22Page%20Name%22%2C%22Homepage%22%5D%2C%227%22%3A%5B%22Page%20Type%22%2C%22Homepage%22%5D%7D; _cs_id=adc880fd-d93e-ac59-cc5b-3c04e82d2b4b.1700550524.1.1700550524.1700550524.1588866862.1734714524445; IR_PI=cece5d75-883c-11ee-b347-d5b679c63de5%7C1700636924310; _cs_s=1.5.1.1700552324776; _pin_unauth=dWlkPVpEUXlNbU5sWm1JdE1XWmlZaTAwT1RjekxXSTVaakl0TURFNFpEQTJNalJqT0dJNQ; _fbp=fb.1.1700550525180.1119580522; _tt_enable_cookie=1; _ttp=aSHtu_gIQ09zwUi9iOI7iCWyAR-; _scid=1f04d67b-8a21-463f-ac1c-fe88de60033f; _scid_r=1f04d67b-8a21-463f-ac1c-fe88de60033f; _gcl_au=1.1.1181256846.1700550526; _evga_ce07={%22uuid%22:%220e4971bddb246461%22}; _sfid_6ab3={%22anonymousId%22:%220e4971bddb246461%22%2C%22consents%22:[]}; _ga_ZLYRBY87M8=GS1.1.1700550526.1.0.1700550526.60.0.0; __gads=ID=3c394970cb55450f:T=1700550526:RT=1700550526:S=ALNI_MbrJ3X_hGpSImvZMLI5SV9-34drNA; __gpi=UID=00000a00a9f90471:T=1700550526:RT=1700550526:S=ALNI_Ma8ugF9cZmpsonvpd3LpCjHvE5AkQ; _ga=GA1.2.1527107996.1700550526; _gid=GA1.2.1528984642.1700550527; _gat=1; _sctr=1%7C1700546400000; _dpm_ses.f2d1=*; _dpm_id.f2d1=0ef65a2f-e6a7-43f4-a1c7-c0d82ed29395.1700550532.1.1700550532.1700550532.a24e90a1-e57d-4467-afd8-a703310265c8; _li_dcdm_c=.kohls.com; _lc2_fpi=0b10d8358f40--01hfrbbpry1av2w5z5mhth4cen; _lc2_fpi_meta={%22w%22:1700550531870}; _dyid_server=-2796735126378358917; _li_ss=CjYKBQgKEMYWCgYI3QEQxhYKBgiBARDGFgoGCKIBEMYWCgYIiwEQxhYKBgjSARDGFgoFCH4QxhY; _li_ss_meta={%22w%22:1700550532279%2C%22e%22:1703142532279}; s_sq=kohlscomprod%3D%2526c.%2526a.%2526activitymap.%2526page%253Dhomepage%2526link%253D12%25252074%252520with%25252015%252525%252520off%252520coupon%25252A%252520Sweaters%252520for%252520women%252520and%252520juniors.%252520Select%252520styles.%252520Sale%252520%25252414.99%25252C%252520Reg.%252520%25252430-%25252440.%252520Shop%252520Women%2525E2%252580%252599s%252520%252526%252520Juniors%2525E2%252580%252599%252520Swe%2526region%253Dhp-equity01%2526pageIDType%253D1%2526.activitymap%2526.a%2526.c%2526pid%253DHomepage%2526pidt%253D1%2526oid%253Dhttps%25253A%25252F%25252Fwww.kohls.com%25252Fcatalog%25252Fwomens-sweaters-tops-clothing.jsp%25253FCN%25253DGender%25253AWomens%25252BProduct%25253ASweaters%25252BCa%2526ot%253DA; kls_p=true; 362fd180cb7a77f64919ee892a4d9d35=7191fc42ec960804587d38331d7dd83d; ak_bmsc=721A085A5E4C790A5F04ACCC015E956A~000000000000000000000000000000~YAAQxCkhF2k8luGLAQAAFyi28BU/65NCRHo8nighFmB8o9sHpbd/Hybfl4QCVNDQvTheKAvvXZGBqzia6xAh1uNwWR82Egg4OvsVRPzr2JB4r65yW6aK82WUxfwiZmuw5tjr0H5FdonnqI7pOAGf31XVNXO1yKOyK53QfIznOdRkaOl405VU0ZHbpNOJDjfqCZnqx1xvEJ8JToSqRH3o2qPo8TtS95WGHphlxJ1dJEZM8G1pwhewcyPxYM3X0gj7gRHlRYAbQ3vcsWf2p+Zf0xNLiGrJSbSEPn5vbMADAFjbHXi68G+vifBv9ysaxwBC6xRhcKtb2NMnjBdjRhD5qu3Sa1ld/NxBzWSzGNKcQorTStLLtZIkCAGv+C2dBy/1eAQ38N7m7OBWrRJfUA2cHzdkwMymQwYLGzNHWfLLEXfjv3GVadBZr1QxJXGoXPZmB3poUdBdtsMpoU8n7k2L9vmuBJf7wlo/SOSK/8TeI3yr9ycOHQXppVekIlEXhV4sep01mhWEq7EN8eVMpMqZhw0t8nPrXCWc3304XWeDReEXM0XurBvZHj09AAc3QpdOg0ZNXFRgDNo+WEXhm7U26gYnqdR8F0PPkZN1v7p5/DnYQD3fYVa9Nu8vVw==; bm_sz=EDE788231412FB1669642DC066D678F4~YAAQxCkhF2s8luGLAQAAFyi28BUsbcQWaMky0JbdYwZ+kK223YeB8J0bLDkW5XkbGnnNQnHLi4RqPStZZcjBZaAf1F3DsboI2vgD1Xkjvf5U1PsqNLk6xZKpL57gc8ktZA4N8WFri6SyLbig52vOn0ZJhcypbT8ec17lSly5t3/XwVYBEhp9y/rLzjoGpO3CxYPpF57aS471C8vJ2XFeCj2h9M4gAhZLYVOAHwjhimFInBDAVeKVqmZRebLVCZ0oKoNoc+lkYjyCfklfYVurasH54Hf2nPN6AjwHd91R9lKc4tUAKy1AvEIlYQq4fYkjTM1i3jZQQI7liqNPwOWZJ15Pd5VqcFlTWElzBTHu4XaFRmOy0Q2eYMBUB4jdSiCBjE3Ls6BmKFN/RFtKyfDn4OLyH4QHnw006zXeDA==~3683376~3617080; PIM-SESSION-ID=KODLNerk0tWEePaQ; mbox=session#cabcdd4927cd4756a91cdbcb38abdfc6#1700552413|PC#cabcdd4927cd4756a91cdbcb38abdfc6.35_0#1763795353; dtSa=-; rxvt=1700552353388|1700550521978; dtPC=14$150553347_964h-vHKACFJCCPMSVWCKACRIACGLNTUQCKJQH-0e0; RT=\"z=1&dm=kohls.com&si=ad04a02c-44c5-432e-9df4-90032e6d44c5&ss=lp7zve95&sl=2&tt=bd7&bcn=%2F%2F17de4c12.akstat.io%2F&ld=rbv\"; dtCookie=v_4_srv_16_sn_9FF4AA6B2CB0C1A259066B6C735B233C_perc_100000_ol_0_mul_1_rcs-3Acss_0; akavpau_www=1700550854~id=e4bd7b7115bbf7d8e898c7df66c89c77; OptanonConsent=isGpcEnabled=0&datestamp=Tue+Nov+21+2023+01%3A09%3A14+GMT-0600+(Central+Standard+Time)&version=202306.1.0&browserGpcFlag=0&isIABGlobal=false&hosts=&consentId=2b091aa3-a2d0-44ef-8ec1-29c13ea7ca72&interactionCount=0&landingPath=https%3A%2F%2Fwww.kohls.com%2Fcatalog%2Fwomens-sweaters-tops-clothing.jsp%3FCN%3DGender%3AWomens+Product%3ASweaters+Category%3ATops+Department%3AClothing+Assortment%3AKohls%2520Black%2520Friday%26BST%3D6262123%3A6237310%3A6149518%3A6125449%3A6149518%3A6176056%3A6119381%3A6438581%3A6143395%3A6125326%3A4922640%3A6169493%26icid%3Dhpmf-BF-offer-womenssweaters-vlhd26%26kls_sbp%3D79613869088917606480426504271561296302&groups=C005%3A1%2CC0001%3A1%2CC0003%3A1%2CC006%3A1%2CC0004%3A1%2CC0002%3A1; _dy_ses_load_seq=84609%3A1700550554594; _dy_c_att_exps=; _dy_soct=561158.1083346.1700550523*577704.1114257.1700550523*785673.1487461.1700550523*577478.1113986.1700550523*839301.1661807.1700550523*604242.1165732.1700550554*606987.1171916.1700550554*664718.1276830.1700550554*675999.1296928.1700550554*695696.1330231.1700550554*707338.1351316.1700550554*546795.1053981.1700550554; evarRefinementValues=; pdpUrl=; bm_sv=E9CC4175A998BE646991AD33CB3A6E5B~YAAQxCkhF5s9luGLAQAA+TS28BXwFntOL5/3fGgh86EL9iGtkkExyz/oli2ZBMCGYGUTXEU6NYNP/slUnREuWciIZvp6+amij1TDCUfzp5Zn+AkMhx/2d8wmWiGGpNkU6+Xaw1LL/G2QwcLXurZvhMWBo4JTOw16c8IfwTdXDAQBysLP9PII2TVS/kYVQbZs8+1uqaoBRC3yLQ9ylBO7eHYjdAv0j9PHB0reshVyWr+WZHaK+OdWNhVlp809Fk7i~1; _abck=CC169C04AF00814B225B42A002C6AB5F~-1~YAAQxCkhF6w9luGLAQAA0DW28AoCvq+2eS4JlofZ9qGaauK/W3mL4E+LKxCqws9yC0IaTOKmAjb4B9qkP+/mFfLAH9+ezCed5wLHeFn1UdzOffyQhSc/c2IcF07qlKHSK3zhr07ByQaTcc3FzqJ6W/KTpa5yWD+ey02dDsPk8NLhJo0j5om64rN3foBUANkC7N8Bm8KSOjggHbWHjbcECPILZ/y00t3CalLkV6Lo94w1a7OTLKNwX4VtdqQfWgweRVz6kPcnDZVmwokqn9cwzyjbtLZQ5NEBJNEoPLkM0bwNBSJBEPm6FBvfUG3ldteSYW9oifo6U23UCbaQwg8rSJV6aQ16ZuWVuxNOtSgL4Kz+YlKqNKIQeydTZL97cCce21VDqtiGJ1EyOz8ivqgu0qlTUPOULNjbETbFSAVBYnUBb755LET4LdDrRO74itUuLvekHG+bUmftqiEUp2oGK6unTTx/w2PE8onbyIkUH1y6E9Df5dvubNfPd0Rz/hXOEMjU8wI/RqWgfCcaOzA7ownv~-1~-1~1700554122
----


