<svg width="15" height="1" viewBox="0 0 15 1" fill="none" xmlns="http://www.w3.org/2000/svg">
<path d="M14.5 0H0.5C0.223858 0 0 0.223858 0 0.5C0 0.776142 0.223858 1 0.5 1H14.5C14.7761 1 15 0.776142 15 0.5C15 0.223858 14.7761 0 14.5 0Z" fill="black"/>
</svg>
