<svg width="32" height="32" viewBox="0 0 32 32" fill="none" xmlns="http://www.w3.org/2000/svg">
<path d="M21.7681 1.31859C22.1444 0.914372 22.7772 0.891773 23.1814 1.26811C23.5545 1.6155 23.6025 2.18138 23.3117 2.58431L23.2319 2.68142L10.389 16.474L23.2071 29.2929C23.5676 29.6534 23.5953 30.2206 23.2903 30.6129L23.2071 30.7071C22.8466 31.0676 22.2794 31.0953 21.8871 30.7903L21.7929 30.7071L8.29289 17.2071C7.94147 16.8557 7.9051 16.3057 8.19014 15.9132L8.2681 15.8186L21.7681 1.31859Z" fill="black"/>
</svg>
